[gd_scene load_steps=4 format=1]

[ext_resource path="res://GUI/HealthGUI.gd" type="Script" id=1]
[ext_resource path="res://Assets/GUI/HealthBarEmpty.png" type="Texture" id=2]
[ext_resource path="res://Assets/GUI/HealthCrystal.png" type="Texture" id=3]

[node name="HealthGUI" type="Node2D"]

script/script = ExtResource( 1 )

[node name="Sprite" type="Sprite" parent="."]

texture = ExtResource( 2 )

[node name="Crystal1" type="Sprite" parent="Sprite"]

transform/pos = Vector2( -66, 0 )
texture = ExtResource( 3 )

[node name="Crystal2" type="Sprite" parent="Sprite"]

texture = ExtResource( 3 )

[node name="Crystal3" type="Sprite" parent="Sprite"]

transform/pos = Vector2( 66, 0 )
texture = ExtResource( 3 )


