[gd_scene load_steps=41 format=1]

[ext_resource path="res://Assets/Tiles/CavernTileset/CavernTileset_3.png" type="Texture" id=1]
[ext_resource path="res://Assets/Tiles/CavernTileset/CavernTileset_4.png" type="Texture" id=2]
[ext_resource path="res://Assets/Tiles/CavernTileset/CavernTileset_5.png" type="Texture" id=3]
[ext_resource path="res://Assets/Tiles/CavernTileset/CavernTileset_6.png" type="Texture" id=4]
[ext_resource path="res://Assets/Tiles/CavernTileset/CavernTileset_7.png" type="Texture" id=5]
[ext_resource path="res://Assets/Tiles/CavernTileset/CavernTileset_8.png" type="Texture" id=6]
[ext_resource path="res://Assets/Tiles/CavernTileset/CavernTileset_9.png" type="Texture" id=7]
[ext_resource path="res://Assets/Tiles/CavernTileset/CavernTileset_10.png" type="Texture" id=8]
[ext_resource path="res://Assets/Tiles/CavernTileset/CavernTileset_11.png" type="Texture" id=9]
[ext_resource path="res://Assets/Tiles/CavernTileset/CavernTileset_12.png" type="Texture" id=10]
[ext_resource path="res://Assets/Tiles/CavernTileset/CavernTileset_13.png" type="Texture" id=11]
[ext_resource path="res://Assets/Tiles/CavernTileset/CavernTileset_14.png" type="Texture" id=12]
[ext_resource path="res://Assets/Tiles/CavernTileset/CavernTileset_15.png" type="Texture" id=13]
[ext_resource path="res://Assets/Tiles/CavernTileset/CavernTileset_16.png" type="Texture" id=14]
[ext_resource path="res://Assets/Tiles/CavernTileset/CavernTileset_17.png" type="Texture" id=15]
[ext_resource path="res://Assets/Tiles/CavernTileset/CavernTileset_18.png" type="Texture" id=16]
[ext_resource path="res://Assets/Tiles/CavernTileset/CavernTileset_19.png" type="Texture" id=17]
[ext_resource path="res://Assets/Tiles/CavernTileset/CavernTileset_20.png" type="Texture" id=18]
[ext_resource path="res://Assets/Tiles/CavernTileset/CavernTileset_21.png" type="Texture" id=19]
[ext_resource path="res://Assets/Tiles/CavernTileset/CavernTileset_22.png" type="Texture" id=20]
[ext_resource path="res://Assets/Tiles/CavernTileset/BG_CavernTileset_1.png" type="Texture" id=21]
[ext_resource path="res://Assets/Tiles/CavernTileset/BG_CavernTileset_2.png" type="Texture" id=22]
[ext_resource path="res://Assets/Tiles/CavernTileset/BG_CavernTileset_3.png" type="Texture" id=23]
[ext_resource path="res://Assets/Tiles/CavernTileset/BG_CavernTileset_4.png" type="Texture" id=24]
[ext_resource path="res://Assets/Tiles/CavernTileset/BG_CavernTileset_5.png" type="Texture" id=25]
[ext_resource path="res://Assets/Tiles/CavernTileset/BG_CavernTileset_6.png" type="Texture" id=26]
[ext_resource path="res://Assets/Tiles/CavernTileset/BG_CavernTileset_7.png" type="Texture" id=27]
[ext_resource path="res://Assets/Tiles/CavernTileset/BG_CavernTileset_8.png" type="Texture" id=28]
[ext_resource path="res://Assets/Tiles/CavernTileset/BG_CavernTileset_9.png" type="Texture" id=29]
[ext_resource path="res://Assets/Tiles/CavernTileset/BG_CavernTileset_10.png" type="Texture" id=30]
[ext_resource path="res://Assets/Tiles/CavernTileset/BG_CavernTileset_11.png" type="Texture" id=31]
[ext_resource path="res://Assets/Tiles/CavernTileset/BG_CavernTileset_12.png" type="Texture" id=32]
[ext_resource path="res://Assets/Tiles/CavernTileset/BG_CavernTileset_13.png" type="Texture" id=33]
[ext_resource path="res://Assets/Tiles/CavernTileset/BG_CavernTileset_14.png" type="Texture" id=34]
[ext_resource path="res://Assets/Tiles/CavernTileset/BG_CavernTileset_15.png" type="Texture" id=35]
[ext_resource path="res://Assets/Tiles/CavernTileset/BG_CavernTileset_16.png" type="Texture" id=36]

[sub_resource type="ImageTexture" id=1]

resource/name = "CavernTileset_1.png"
flags = 0
image = Image( 48, 48, 0, RGBA, 0, 0, 0, 0, 0, 0, 0, 0, 0, 0, 0, 0, 0, 0, 0, 0, 0, 0, 0, 0, 0, 0, 0, 0, 36, 66, 91, 0, 36, 66, 91, 0, 36, 66, 91, 0, 40, 105, 105, 0, 40, 105, 105, 0, 40, 105, 105, 0, 38, 26, 44, 255, 38, 26, 44, 255, 38, 26, 44, 255, 38, 26, 44, 255, 38, 26, 44, 255, 38, 26, 44, 255, 38, 26, 44, 255, 38, 26, 44, 255, 38, 26, 44, 255, 38, 26, 44, 255, 38, 26, 44, 255, 38, 26, 44, 255, 38, 26, 44, 255, 38, 26, 44, 255, 38, 26, 44, 255, 38, 26, 44, 255, 38, 26, 44, 255, 38, 26, 44, 255, 38, 26, 44, 255, 38, 26, 44, 255, 38, 26, 44, 255, 38, 26, 44, 255, 38, 26, 44, 255, 38, 26, 44, 255, 38, 26, 44, 255, 38, 26, 44, 255, 38, 26, 44, 255, 38, 26, 44, 255, 38, 26, 44, 255, 38, 26, 44, 255, 38, 26, 44, 255, 38, 26, 44, 255, 38, 26, 44, 255, 38, 26, 44, 255, 38, 26, 44, 255, 38, 26, 44, 255, 0, 0, 0, 0, 0, 0, 0, 0, 0, 0, 0, 0, 0, 0, 0, 0, 0, 0, 0, 0, 0, 0, 0, 0, 36, 66, 91, 0, 36, 66, 91, 0, 36, 66, 91, 0, 40, 105, 105, 0, 40, 105, 105, 0, 40, 105, 105, 0, 38, 26, 44, 255, 38, 26, 44, 255, 38, 26, 44, 255, 38, 26, 44, 255, 38, 26, 44, 255, 38, 26, 44, 255, 38, 26, 44, 255, 38, 26, 44, 255, 38, 26, 44, 255, 38, 26, 44, 255, 38, 26, 44, 255, 38, 26, 44, 255, 38, 26, 44, 255, 38, 26, 44, 255, 38, 26, 44, 255, 38, 26, 44, 255, 38, 26, 44, 255, 38, 26, 44, 255, 38, 26, 44, 255, 38, 26, 44, 255, 38, 26, 44, 255, 38, 26, 44, 255, 38, 26, 44, 255, 38, 26, 44, 255, 38, 26, 44, 255, 38, 26, 44, 255, 38, 26, 44, 255, 38, 26, 44, 255, 38, 26, 44, 255, 38, 26, 44, 255, 38, 26, 44, 255, 38, 26, 44, 255, 38, 26, 44, 255, 38, 26, 44, 255, 38, 26, 44, 255, 38, 26, 44, 255, 0, 0, 0, 0, 0, 0, 0, 0, 0, 0, 0, 0, 0, 0, 0, 0, 0, 0, 0, 0, 0, 0, 0, 0, 36, 66, 91, 0, 36, 66, 91, 0, 36, 66, 91, 0, 40, 105, 105, 0, 40, 105, 105, 0, 40, 105, 105, 0, 38, 26, 44, 255, 38, 26, 44, 255, 38, 26, 44, 255, 38, 26, 44, 255, 38, 26, 44, 255, 38, 26, 44, 255, 38, 26, 44, 255, 38, 26, 44, 255, 38, 26, 44, 255, 38, 26, 44, 255, 38, 26, 44, 255, 38, 26, 44, 255, 38, 26, 44, 255, 38, 26, 44, 255, 38, 26, 44, 255, 38, 26, 44, 255, 38, 26, 44, 255, 38, 26, 44, 255, 38, 26, 44, 255, 38, 26, 44, 255, 38, 26, 44, 255, 38, 26, 44, 255, 38, 26, 44, 255, 38, 26, 44, 255, 38, 26, 44, 255, 38, 26, 44, 255, 38, 26, 44, 255, 38, 26, 44, 255, 38, 26, 44, 255, 38, 26, 44, 255, 38, 26, 44, 255, 38, 26, 44, 255, 38, 26, 44, 255, 38, 26, 44, 255, 38, 26, 44, 255, 38, 26, 44, 255, 0, 0, 0, 0, 0, 0, 0, 0, 0, 0, 0, 0, 36, 66, 91, 0, 36, 66, 91, 0, 36, 66, 91, 0, 38, 85, 103, 0, 38, 85, 103, 0, 38, 85, 103, 0, 38, 26, 44, 255, 38, 26, 44, 255, 38, 26, 44, 255, 48, 183, 135, 255, 48, 183, 135, 255, 48, 183, 135, 255, 48, 183, 135, 255, 48, 183, 135, 255, 48, 183, 135, 255, 44, 123, 128, 255, 44, 123, 128, 255, 44, 123, 128, 255, 44, 123, 128, 255, 44, 123, 128, 255, 44, 123, 128, 255, 36, 66, 91, 255, 36, 66, 91, 255, 36, 66, 91, 255, 44, 123, 128, 255, 44, 123, 128, 255, 44, 123, 128, 255, 48, 183, 135, 255, 48, 183, 135, 255, 48, 183, 135, 255, 48, 183, 135, 255, 48, 183, 135, 255, 48, 183, 135, 255, 44, 123, 128, 255, 44, 123, 128, 255, 44, 123, 128, 255, 44, 123, 128, 255, 44, 123, 128, 255, 44, 123, 128, 255, 48, 183, 135, 255, 48, 183, 135, 255, 48, 183, 135, 255, 48, 183, 135, 255, 48, 183, 135, 255, 48, 183, 135, 255, 0, 0, 0, 0, 0, 0, 0, 0, 0, 0, 0, 0, 36, 66, 91, 0, 36, 66, 91, 0, 36, 66, 91, 0, 38, 85, 103, 0, 38, 85, 103, 0, 38, 85, 103, 0, 38, 26, 44, 255, 38, 26, 44, 255, 38, 26, 44, 255, 48, 183, 135, 255, 48, 183, 135, 255, 48, 183, 135, 255, 48, 183, 135, 255, 48, 183, 135, 255, 48, 183, 135, 255, 44, 123, 128, 255, 44, 123, 128, 255, 44, 123, 128, 255, 44, 123, 128, 255, 44, 123, 128, 255, 44, 123, 128, 255, 36, 66, 91, 255, 36, 66, 91, 255, 36, 66, 91, 255, 44, 123, 128, 255, 44, 123, 128, 255, 44, 123, 128, 255, 48, 183, 135, 255, 48, 183, 135, 255, 48, 183, 135, 255, 48, 183, 135, 255, 48, 183, 135, 255, 48, 183, 135, 255, 44, 123, 128, 255, 44, 123, 128, 255, 44, 123, 128, 255, 44, 123, 128, 255, 44, 123, 128, 255, 44, 123, 128, 255, 48, 183, 135, 255, 48, 183, 135, 255, 48, 183, 135, 255, 48, 183, 135, 255, 48, 183, 135, 255, 48, 183, 135, 255, 0, 0, 0, 0, 0, 0, 0, 0, 0, 0, 0, 0, 36, 66, 91, 0, 36, 66, 91, 0, 36, 66, 91, 0, 38, 85, 103, 0, 38, 85, 103, 0, 38, 85, 103, 0, 38, 26, 44, 255, 38, 26, 44, 255, 38, 26, 44, 255, 48, 183, 135, 255, 48, 183, 135, 255, 48, 183, 135, 255, 48, 183, 135, 255, 48, 183, 135, 255, 48, 183, 135, 255, 44, 123, 128, 255, 44, 123, 128, 255, 44, 123, 128, 255, 44, 123, 128, 255, 44, 123, 128, 255, 44, 123, 128, 255, 36, 66, 91, 255, 36, 66, 91, 255, 36, 66, 91, 255, 44, 123, 128, 255, 44, 123, 128, 255, 44, 123, 128, 255, 48, 183, 135, 255, 48, 183, 135, 255, 48, 183, 135, 255, 48, 183, 135, 255, 48, 183, 135, 255, 48, 183, 135, 255, 44, 123, 128, 255, 44, 123, 128, 255, 44, 123, 128, 255, 44, 123, 128, 255, 44, 123, 128, 255, 44, 123, 128, 255, 48, 183, 135, 255, 48, 183, 135, 255, 48, 183, 135, 255, 48, 183, 135, 255, 48, 183, 135, 255, 48, 183, 135, 255, 0, 0, 0, 0, 0, 0, 0, 0, 0, 0, 0, 0, 36, 66, 91, 0, 36, 66, 91, 0, 36, 66, 91, 0, 38, 26, 44, 255, 38, 26, 44, 255, 38, 26, 44, 255, 44, 123, 128, 255, 44, 123, 128, 255, 44, 123, 128, 255, 48, 183, 135, 255, 48, 183, 135, 255, 48, 183, 135, 255, 48, 183, 135, 255, 48, 183, 135, 255, 48, 183, 135, 255, 48, 183, 135, 255, 48, 183, 135, 255, 48, 183, 135, 255, 48, 183, 135, 255, 48, 183, 135, 255, 48, 183, 135, 255, 48, 183, 135, 255, 48, 183, 135, 255, 48, 183, 135, 255, 48, 183, 135, 255, 48, 183, 135, 255, 48, 183, 135, 255, 48, 183, 135, 255, 48, 183, 135, 255, 48, 183, 135, 255, 48, 183, 135, 255, 48, 183, 135, 255, 48, 183, 135, 255, 48, 183, 135, 255, 48, 183, 135, 255, 48, 183, 135, 255, 48, 183, 135, 255, 48, 183, 135, 255, 48, 183, 135, 255, 48, 183, 135, 255, 48, 183, 135, 255, 48, 183, 135, 255, 48, 183, 135, 255, 48, 183, 135, 255, 48, 183, 135, 255, 0, 0, 0, 0, 0, 0, 0, 0, 0, 0, 0, 0, 36, 66, 91, 0, 36, 66, 91, 0, 36, 66, 91, 0, 38, 26, 44, 255, 38, 26, 44, 255, 38, 26, 44, 255, 44, 123, 128, 255, 44, 123, 128, 255, 44, 123, 128, 255, 48, 183, 135, 255, 48, 183, 135, 255, 48, 183, 135, 255, 48, 183, 135, 255, 48, 183, 135, 255, 48, 183, 135, 255, 48, 183, 135, 255, 48, 183, 135, 255, 48, 183, 135, 255, 48, 183, 135, 255, 48, 183, 135, 255, 48, 183, 135, 255, 48, 183, 135, 255, 48, 183, 135, 255, 48, 183, 135, 255, 48, 183, 135, 255, 48, 183, 135, 255, 48, 183, 135, 255, 48, 183, 135, 255, 48, 183, 135, 255, 48, 183, 135, 255, 48, 183, 135, 255, 48, 183, 135, 255, 48, 183, 135, 255, 48, 183, 135, 255, 48, 183, 135, 255, 48, 183, 135, 255, 48, 183, 135, 255, 48, 183, 135, 255, 48, 183, 135, 255, 48, 183, 135, 255, 48, 183, 135, 255, 48, 183, 135, 255, 48, 183, 135, 255, 48, 183, 135, 255, 48, 183, 135, 255, 0, 0, 0, 0, 0, 0, 0, 0, 0, 0, 0, 0, 36, 66, 91, 0, 36, 66, 91, 0, 36, 66, 91, 0, 38, 26, 44, 255, 38, 26, 44, 255, 38, 26, 44, 255, 44, 123, 128, 255, 44, 123, 128, 255, 44, 123, 128, 255, 48, 183, 135, 255, 48, 183, 135, 255, 48, 183, 135, 255, 48, 183, 135, 255, 48, 183, 135, 255, 48, 183, 135, 255, 48, 183, 135, 255, 48, 183, 135, 255, 48, 183, 135, 255, 48, 183, 135, 255, 48, 183, 135, 255, 48, 183, 135, 255, 48, 183, 135, 255, 48, 183, 135, 255, 48, 183, 135, 255, 48, 183, 135, 255, 48, 183, 135, 255, 48, 183, 135, 255, 48, 183, 135, 255, 48, 183, 135, 255, 48, 183, 135, 255, 48, 183, 135, 255, 48, 183, 135, 255, 48, 183, 135, 255, 48, 183, 135, 255, 48, 183, 135, 255, 48, 183, 135, 255, 48, 183, 135, 255, 48, 183, 135, 255, 48, 183, 135, 255, 48, 183, 135, 255, 48, 183, 135, 255, 48, 183, 135, 255, 48, 183, 135, 255, 48, 183, 135, 255, 48, 183, 135, 255, 36, 66, 91, 0, 36, 66, 91, 0, 36, 66, 91, 0, 39, 59, 82, 0, 39, 59, 82, 0, 39, 59, 82, 0, 38, 26, 44, 255, 38, 26, 44, 255, 38, 26, 44, 255, 44, 123, 128, 255, 44, 123, 128, 255, 44, 123, 128, 255, 44, 123, 128, 255, 44, 123, 128, 255, 44, 123, 128, 255, 44, 123, 128, 255, 44, 123, 128, 255, 44, 123, 128, 255, 44, 123, 128, 255, 44, 123, 128, 255, 44, 123, 128, 255, 48, 183, 135, 255, 48, 183, 135, 255, 48, 183, 135, 255, 48, 183, 135, 255, 48, 183, 135, 255, 48, 183, 135, 255, 48, 183, 135, 255, 48, 183, 135, 255, 48, 183, 135, 255, 44, 123, 128, 255, 44, 123, 128, 255, 44, 123, 128, 255, 44, 123, 128, 255, 44, 123, 128, 255, 44, 123, 128, 255, 44, 123, 128, 255, 44, 123, 128, 255, 44, 123, 128, 255, 36, 66, 91, 255, 36, 66, 91, 255, 36, 66, 91, 255, 44, 123, 128, 255, 44, 123, 128, 255, 44, 123, 128, 255, 44, 123, 128, 255, 44, 123, 128, 255, 44, 123, 128, 255, 36, 66, 91, 0, 36, 66, 91, 0, 36, 66, 91, 0, 39, 59, 82, 0, 39, 59, 82, 0, 39, 59, 82, 0, 38, 26, 44, 255, 38, 26, 44, 255, 38, 26, 44, 255, 44, 123, 128, 255, 44, 123, 128, 255, 44, 123, 128, 255, 44, 123, 128, 255, 44, 123, 128, 255, 44, 123, 128, 255, 44, 123, 128, 255, 44, 123, 128, 255, 44, 123, 128, 255, 44, 123, 128, 255, 44, 123, 128, 255, 44, 123, 128, 255, 48, 183, 135, 255, 48, 183, 135, 255, 48, 183, 135, 255, 48, 183, 135, 255, 48, 183, 135, 255, 48, 183, 135, 255, 48, 183, 135, 255, 48, 183, 135, 255, 48, 183, 135, 255, 44, 123, 128, 255, 44, 123, 128, 255, 44, 123, 128, 255, 44, 123, 128, 255, 44, 123, 128, 255, 44, 123, 128, 255, 44, 123, 128, 255, 44, 123, 128, 255, 44, 123, 128, 255, 36, 66, 91, 255, 36, 66, 91, 255, 36, 66, 91, 255, 44, 123, 128, 255, 44, 123, 128, 255, 44, 123, 128, 255, 44, 123, 128, 255, 44, 123, 128, 255, 44, 123, 128, 255, 36, 66, 91, 0, 36, 66, 91, 0, 36, 66, 91, 0, 39, 59, 82, 0, 39, 59, 82, 0, 39, 59, 82, 0, 38, 26, 44, 255, 38, 26, 44, 255, 38, 26, 44, 255, 44, 123, 128, 255, 44, 123, 128, 255, 44, 123, 128, 255, 44, 123, 128, 255, 44, 123, 128, 255, 44, 123, 128, 255, 44, 123, 128, 255, 44, 123, 128, 255, 44, 123, 128, 255, 44, 123, 128, 255, 44, 123, 128, 255, 44, 123, 128, 255, 48, 183, 135, 255, 48, 183, 135, 255, 48, 183, 135, 255, 48, 183, 135, 255, 48, 183, 135, 255, 48, 183, 135, 255, 48, 183, 135, 255, 48, 183, 135, 255, 48, 183, 135, 255, 44, 123, 128, 255, 44, 123, 128, 255, 44, 123, 128, 255, 44, 123, 128, 255, 44, 123, 128, 255, 44, 123, 128, 255, 44, 123, 128, 255, 44, 123, 128, 255, 44, 123, 128, 255, 36, 66, 91, 255, 36, 66, 91, 255, 36, 66, 91, 255, 44, 123, 128, 255, 44, 123, 128, 255, 44, 123, 128, 255, 44, 123, 128, 255, 44, 123, 128, 255, 44, 123, 128, 255, 36, 66, 91, 0, 36, 66, 91, 0, 36, 66, 91, 0, 38, 26, 44, 255, 38, 26, 44, 255, 38, 26, 44, 255, 38, 26, 44, 255, 38, 26, 44, 255, 38, 26, 44, 255, 36, 66, 91, 255, 36, 66, 91, 255, 36, 66, 91, 255, 36, 66, 91, 255, 36, 66, 91, 255, 36, 66, 91, 255, 36, 66, 91, 255, 36, 66, 91, 255, 36, 66, 91, 255, 36, 66, 91, 255, 36, 66, 91, 255, 36, 66, 91, 255, 36, 66, 91, 255, 36, 66, 91, 255, 36, 66, 91, 255, 36, 66, 91, 255, 36, 66, 91, 255, 36, 66, 91, 255, 36, 66, 91, 255, 36, 66, 91, 255, 36, 66, 91, 255, 38, 26, 44, 255, 38, 26, 44, 255, 38, 26, 44, 255, 36, 66, 91, 255, 36, 66, 91, 255, 36, 66, 91, 255, 36, 66, 91, 255, 36, 66, 91, 255, 36, 66, 91, 255, 36, 66, 91, 255, 36, 66, 91, 255, 36, 66, 91, 255, 36, 66, 91, 255, 36, 66, 91, 255, 36, 66, 91, 255, 38, 26, 44, 255, 38, 26, 44, 255, 38, 26, 44, 255, 36, 66, 91, 0, 36, 66, 91, 0, 36, 66, 91, 0, 38, 26, 44, 255, 38, 26, 44, 255, 38, 26, 44, 255, 38, 26, 44, 255, 38, 26, 44, 255, 38, 26, 44, 255, 36, 66, 91, 255, 36, 66, 91, 255, 36, 66, 91, 255, 36, 66, 91, 255, 36, 66, 91, 255, 36, 66, 91, 255, 36, 66, 91, 255, 36, 66, 91, 255, 36, 66, 91, 255, 36, 66, 91, 255, 36, 66, 91, 255, 36, 66, 91, 255, 36, 66, 91, 255, 36, 66, 91, 255, 36, 66, 91, 255, 36, 66, 91, 255, 36, 66, 91, 255, 36, 66, 91, 255, 36, 66, 91, 255, 36, 66, 91, 255, 36, 66, 91, 255, 38, 26, 44, 255, 38, 26, 44, 255, 38, 26, 44, 255, 36, 66, 91, 255, 36, 66, 91, 255, 36, 66, 91, 255, 36, 66, 91, 255, 36, 66, 91, 255, 36, 66, 91, 255, 36, 66, 91, 255, 36, 66, 91, 255, 36, 66, 91, 255, 36, 66, 91, 255, 36, 66, 91, 255, 36, 66, 91, 255, 38, 26, 44, 255, 38, 26, 44, 255, 38, 26, 44, 255, 36, 66, 91, 0, 36, 66, 91, 0, 36, 66, 91, 0, 38, 26, 44, 255, 38, 26, 44, 255, 38, 26, 44, 255, 38, 26, 44, 255, 38, 26, 44, 255, 38, 26, 44, 255, 36, 66, 91, 255, 36, 66, 91, 255, 36, 66, 91, 255, 36, 66, 91, 255, 36, 66, 91, 255, 36, 66, 91, 255, 36, 66, 91, 255, 36, 66, 91, 255, 36, 66, 91, 255, 36, 66, 91, 255, 36, 66, 91, 255, 36, 66, 91, 255, 36, 66, 91, 255, 36, 66, 91, 255, 36, 66, 91, 255, 36, 66, 91, 255, 36, 66, 91, 255, 36, 66, 91, 255, 36, 66, 91, 255, 36, 66, 91, 255, 36, 66, 91, 255, 38, 26, 44, 255, 38, 26, 44, 255, 38, 26, 44, 255, 36, 66, 91, 255, 36, 66, 91, 255, 36, 66, 91, 255, 36, 66, 91, 255, 36, 66, 91, 255, 36, 66, 91, 255, 36, 66, 91, 255, 36, 66, 91, 255, 36, 66, 91, 255, 36, 66, 91, 255, 36, 66, 91, 255, 36, 66, 91, 255, 38, 26, 44, 255, 38, 26, 44, 255, 38, 26, 44, 255, 36, 66, 91, 0, 36, 66, 91, 0, 36, 66, 91, 0, 38, 26, 44, 255, 38, 26, 44, 255, 38, 26, 44, 255, 38, 26, 44, 255, 38, 26, 44, 255, 38, 26, 44, 255, 36, 66, 91, 255, 36, 66, 91, 255, 36, 66, 91, 255, 36, 66, 91, 255, 36, 66, 91, 255, 36, 66, 91, 255, 36, 66, 91, 255, 36, 66, 91, 255, 36, 66, 91, 255, 38, 26, 44, 255, 38, 26, 44, 255, 38, 26, 44, 255, 36, 66, 91, 255, 36, 66, 91, 255, 36, 66, 91, 255, 36, 66, 91, 255, 36, 66, 91, 255, 36, 66, 91, 255, 36, 66, 91, 255, 36, 66, 91, 255, 36, 66, 91, 255, 38, 26, 44, 255, 38, 26, 44, 255, 38, 26, 44, 255, 36, 66, 91, 255, 36, 66, 91, 255, 36, 66, 91, 255, 36, 66, 91, 255, 36, 66, 91, 255, 36, 66, 91, 255, 36, 66, 91, 255, 36, 66, 91, 255, 36, 66, 91, 255, 36, 66, 91, 255, 36, 66, 91, 255, 36, 66, 91, 255, 38, 26, 44, 255, 38, 26, 44, 255, 38, 26, 44, 255, 36, 66, 91, 0, 36, 66, 91, 0, 36, 66, 91, 0, 38, 26, 44, 255, 38, 26, 44, 255, 38, 26, 44, 255, 38, 26, 44, 255, 38, 26, 44, 255, 38, 26, 44, 255, 36, 66, 91, 255, 36, 66, 91, 255, 36, 66, 91, 255, 36, 66, 91, 255, 36, 66, 91, 255, 36, 66, 91, 255, 36, 66, 91, 255, 36, 66, 91, 255, 36, 66, 91, 255, 38, 26, 44, 255, 38, 26, 44, 255, 38, 26, 44, 255, 36, 66, 91, 255, 36, 66, 91, 255, 36, 66, 91, 255, 36, 66, 91, 255, 36, 66, 91, 255, 36, 66, 91, 255, 36, 66, 91, 255, 36, 66, 91, 255, 36, 66, 91, 255, 38, 26, 44, 255, 38, 26, 44, 255, 38, 26, 44, 255, 36, 66, 91, 255, 36, 66, 91, 255, 36, 66, 91, 255, 36, 66, 91, 255, 36, 66, 91, 255, 36, 66, 91, 255, 36, 66, 91, 255, 36, 66, 91, 255, 36, 66, 91, 255, 36, 66, 91, 255, 36, 66, 91, 255, 36, 66, 91, 255, 38, 26, 44, 255, 38, 26, 44, 255, 38, 26, 44, 255, 36, 66, 91, 0, 36, 66, 91, 0, 36, 66, 91, 0, 38, 26, 44, 255, 38, 26, 44, 255, 38, 26, 44, 255, 38, 26, 44, 255, 38, 26, 44, 255, 38, 26, 44, 255, 36, 66, 91, 255, 36, 66, 91, 255, 36, 66, 91, 255, 36, 66, 91, 255, 36, 66, 91, 255, 36, 66, 91, 255, 36, 66, 91, 255, 36, 66, 91, 255, 36, 66, 91, 255, 38, 26, 44, 255, 38, 26, 44, 255, 38, 26, 44, 255, 36, 66, 91, 255, 36, 66, 91, 255, 36, 66, 91, 255, 36, 66, 91, 255, 36, 66, 91, 255, 36, 66, 91, 255, 36, 66, 91, 255, 36, 66, 91, 255, 36, 66, 91, 255, 38, 26, 44, 255, 38, 26, 44, 255, 38, 26, 44, 255, 36, 66, 91, 255, 36, 66, 91, 255, 36, 66, 91, 255, 36, 66, 91, 255, 36, 66, 91, 255, 36, 66, 91, 255, 36, 66, 91, 255, 36, 66, 91, 255, 36, 66, 91, 255, 36, 66, 91, 255, 36, 66, 91, 255, 36, 66, 91, 255, 38, 26, 44, 255, 38, 26, 44, 255, 38, 26, 44, 255, 36, 66, 91, 0, 36, 66, 91, 0, 36, 66, 91, 0, 38, 26, 44, 255, 38, 26, 44, 255, 38, 26, 44, 255, 48, 183, 135, 255, 48, 183, 135, 255, 48, 183, 135, 255, 48, 183, 135, 255, 48, 183, 135, 255, 48, 183, 135, 255, 48, 183, 135, 255, 48, 183, 135, 255, 48, 183, 135, 255, 36, 66, 91, 255, 36, 66, 91, 255, 36, 66, 91, 255, 36, 66, 91, 255, 36, 66, 91, 255, 36, 66, 91, 255, 38, 26, 44, 255, 38, 26, 44, 255, 38, 26, 44, 255, 36, 66, 91, 255, 36, 66, 91, 255, 36, 66, 91, 255, 44, 123, 128, 255, 44, 123, 128, 255, 44, 123, 128, 255, 48, 183, 135, 255, 48, 183, 135, 255, 48, 183, 135, 255, 48, 183, 135, 255, 48, 183, 135, 255, 48, 183, 135, 255, 38, 26, 44, 255, 38, 26, 44, 255, 38, 26, 44, 255, 36, 66, 91, 255, 36, 66, 91, 255, 36, 66, 91, 255, 36, 66, 91, 255, 36, 66, 91, 255, 36, 66, 91, 255, 38, 26, 44, 255, 38, 26, 44, 255, 38, 26, 44, 255, 36, 66, 91, 0, 36, 66, 91, 0, 36, 66, 91, 0, 38, 26, 44, 255, 38, 26, 44, 255, 38, 26, 44, 255, 48, 183, 135, 255, 48, 183, 135, 255, 48, 183, 135, 255, 48, 183, 135, 255, 48, 183, 135, 255, 48, 183, 135, 255, 48, 183, 135, 255, 48, 183, 135, 255, 48, 183, 135, 255, 36, 66, 91, 255, 36, 66, 91, 255, 36, 66, 91, 255, 36, 66, 91, 255, 36, 66, 91, 255, 36, 66, 91, 255, 38, 26, 44, 255, 38, 26, 44, 255, 38, 26, 44, 255, 36, 66, 91, 255, 36, 66, 91, 255, 36, 66, 91, 255, 44, 123, 128, 255, 44, 123, 128, 255, 44, 123, 128, 255, 48, 183, 135, 255, 48, 183, 135, 255, 48, 183, 135, 255, 48, 183, 135, 255, 48, 183, 135, 255, 48, 183, 135, 255, 38, 26, 44, 255, 38, 26, 44, 255, 38, 26, 44, 255, 36, 66, 91, 255, 36, 66, 91, 255, 36, 66, 91, 255, 36, 66, 91, 255, 36, 66, 91, 255, 36, 66, 91, 255, 38, 26, 44, 255, 38, 26, 44, 255, 38, 26, 44, 255, 36, 66, 91, 0, 36, 66, 91, 0, 36, 66, 91, 0, 38, 26, 44, 255, 38, 26, 44, 255, 38, 26, 44, 255, 48, 183, 135, 255, 48, 183, 135, 255, 48, 183, 135, 255, 48, 183, 135, 255, 48, 183, 135, 255, 48, 183, 135, 255, 48, 183, 135, 255, 48, 183, 135, 255, 48, 183, 135, 255, 36, 66, 91, 255, 36, 66, 91, 255, 36, 66, 91, 255, 36, 66, 91, 255, 36, 66, 91, 255, 36, 66, 91, 255, 38, 26, 44, 255, 38, 26, 44, 255, 38, 26, 44, 255, 36, 66, 91, 255, 36, 66, 91, 255, 36, 66, 91, 255, 44, 123, 128, 255, 44, 123, 128, 255, 44, 123, 128, 255, 48, 183, 135, 255, 48, 183, 135, 255, 48, 183, 135, 255, 48, 183, 135, 255, 48, 183, 135, 255, 48, 183, 135, 255, 38, 26, 44, 255, 38, 26, 44, 255, 38, 26, 44, 255, 36, 66, 91, 255, 36, 66, 91, 255, 36, 66, 91, 255, 36, 66, 91, 255, 36, 66, 91, 255, 36, 66, 91, 255, 38, 26, 44, 255, 38, 26, 44, 255, 38, 26, 44, 255, 38, 26, 44, 255, 38, 26, 44, 255, 38, 26, 44, 255, 36, 66, 91, 255, 36, 66, 91, 255, 36, 66, 91, 255, 44, 123, 128, 255, 44, 123, 128, 255, 44, 123, 128, 255, 44, 123, 128, 255, 44, 123, 128, 255, 44, 123, 128, 255, 48, 183, 135, 255, 48, 183, 135, 255, 48, 183, 135, 255, 38, 26, 44, 255, 38, 26, 44, 255, 38, 26, 44, 255, 38, 26, 44, 255, 38, 26, 44, 255, 38, 26, 44, 255, 36, 66, 91, 255, 36, 66, 91, 255, 36, 66, 91, 255, 36, 66, 91, 255, 36, 66, 91, 255, 36, 66, 91, 255, 44, 123, 128, 255, 44, 123, 128, 255, 44, 123, 128, 255, 44, 123, 128, 255, 44, 123, 128, 255, 44, 123, 128, 255, 48, 183, 135, 255, 48, 183, 135, 255, 48, 183, 135, 255, 36, 66, 91, 255, 36, 66, 91, 255, 36, 66, 91, 255, 36, 66, 91, 255, 36, 66, 91, 255, 36, 66, 91, 255, 36, 66, 91, 255, 36, 66, 91, 255, 36, 66, 91, 255, 38, 26, 44, 255, 38, 26, 44, 255, 38, 26, 44, 255, 38, 26, 44, 255, 38, 26, 44, 255, 38, 26, 44, 255, 36, 66, 91, 255, 36, 66, 91, 255, 36, 66, 91, 255, 44, 123, 128, 255, 44, 123, 128, 255, 44, 123, 128, 255, 44, 123, 128, 255, 44, 123, 128, 255, 44, 123, 128, 255, 48, 183, 135, 255, 48, 183, 135, 255, 48, 183, 135, 255, 38, 26, 44, 255, 38, 26, 44, 255, 38, 26, 44, 255, 38, 26, 44, 255, 38, 26, 44, 255, 38, 26, 44, 255, 36, 66, 91, 255, 36, 66, 91, 255, 36, 66, 91, 255, 36, 66, 91, 255, 36, 66, 91, 255, 36, 66, 91, 255, 44, 123, 128, 255, 44, 123, 128, 255, 44, 123, 128, 255, 44, 123, 128, 255, 44, 123, 128, 255, 44, 123, 128, 255, 48, 183, 135, 255, 48, 183, 135, 255, 48, 183, 135, 255, 36, 66, 91, 255, 36, 66, 91, 255, 36, 66, 91, 255, 36, 66, 91, 255, 36, 66, 91, 255, 36, 66, 91, 255, 36, 66, 91, 255, 36, 66, 91, 255, 36, 66, 91, 255, 38, 26, 44, 255, 38, 26, 44, 255, 38, 26, 44, 255, 38, 26, 44, 255, 38, 26, 44, 255, 38, 26, 44, 255, 36, 66, 91, 255, 36, 66, 91, 255, 36, 66, 91, 255, 44, 123, 128, 255, 44, 123, 128, 255, 44, 123, 128, 255, 44, 123, 128, 255, 44, 123, 128, 255, 44, 123, 128, 255, 48, 183, 135, 255, 48, 183, 135, 255, 48, 183, 135, 255, 38, 26, 44, 255, 38, 26, 44, 255, 38, 26, 44, 255, 38, 26, 44, 255, 38, 26, 44, 255, 38, 26, 44, 255, 36, 66, 91, 255, 36, 66, 91, 255, 36, 66, 91, 255, 36, 66, 91, 255, 36, 66, 91, 255, 36, 66, 91, 255, 44, 123, 128, 255, 44, 123, 128, 255, 44, 123, 128, 255, 44, 123, 128, 255, 44, 123, 128, 255, 44, 123, 128, 255, 48, 183, 135, 255, 48, 183, 135, 255, 48, 183, 135, 255, 36, 66, 91, 255, 36, 66, 91, 255, 36, 66, 91, 255, 36, 66, 91, 255, 36, 66, 91, 255, 36, 66, 91, 255, 36, 66, 91, 255, 36, 66, 91, 255, 36, 66, 91, 255, 38, 26, 44, 255, 38, 26, 44, 255, 38, 26, 44, 255, 38, 26, 44, 255, 38, 26, 44, 255, 38, 26, 44, 255, 36, 66, 91, 255, 36, 66, 91, 255, 36, 66, 91, 255, 36, 66, 91, 255, 36, 66, 91, 255, 36, 66, 91, 255, 44, 123, 128, 255, 44, 123, 128, 255, 44, 123, 128, 255, 44, 123, 128, 255, 44, 123, 128, 255, 44, 123, 128, 255, 38, 26, 44, 255, 38, 26, 44, 255, 38, 26, 44, 255, 36, 66, 91, 255, 36, 66, 91, 255, 36, 66, 91, 255, 36, 66, 91, 255, 36, 66, 91, 255, 36, 66, 91, 255, 36, 66, 91, 255, 36, 66, 91, 255, 36, 66, 91, 255, 36, 66, 91, 255, 36, 66, 91, 255, 36, 66, 91, 255, 44, 123, 128, 255, 44, 123, 128, 255, 44, 123, 128, 255, 44, 123, 128, 255, 44, 123, 128, 255, 44, 123, 128, 255, 38, 26, 44, 255, 38, 26, 44, 255, 38, 26, 44, 255, 36, 66, 91, 255, 36, 66, 91, 255, 36, 66, 91, 255, 36, 66, 91, 255, 36, 66, 91, 255, 36, 66, 91, 255, 38, 26, 44, 255, 38, 26, 44, 255, 38, 26, 44, 255, 38, 26, 44, 255, 38, 26, 44, 255, 38, 26, 44, 255, 36, 66, 91, 255, 36, 66, 91, 255, 36, 66, 91, 255, 36, 66, 91, 255, 36, 66, 91, 255, 36, 66, 91, 255, 44, 123, 128, 255, 44, 123, 128, 255, 44, 123, 128, 255, 44, 123, 128, 255, 44, 123, 128, 255, 44, 123, 128, 255, 38, 26, 44, 255, 38, 26, 44, 255, 38, 26, 44, 255, 36, 66, 91, 255, 36, 66, 91, 255, 36, 66, 91, 255, 36, 66, 91, 255, 36, 66, 91, 255, 36, 66, 91, 255, 36, 66, 91, 255, 36, 66, 91, 255, 36, 66, 91, 255, 36, 66, 91, 255, 36, 66, 91, 255, 36, 66, 91, 255, 44, 123, 128, 255, 44, 123, 128, 255, 44, 123, 128, 255, 44, 123, 128, 255, 44, 123, 128, 255, 44, 123, 128, 255, 38, 26, 44, 255, 38, 26, 44, 255, 38, 26, 44, 255, 36, 66, 91, 255, 36, 66, 91, 255, 36, 66, 91, 255, 36, 66, 91, 255, 36, 66, 91, 255, 36, 66, 91, 255, 38, 26, 44, 255, 38, 26, 44, 255, 38, 26, 44, 255, 38, 26, 44, 255, 38, 26, 44, 255, 38, 26, 44, 255, 36, 66, 91, 255, 36, 66, 91, 255, 36, 66, 91, 255, 36, 66, 91, 255, 36, 66, 91, 255, 36, 66, 91, 255, 44, 123, 128, 255, 44, 123, 128, 255, 44, 123, 128, 255, 44, 123, 128, 255, 44, 123, 128, 255, 44, 123, 128, 255, 38, 26, 44, 255, 38, 26, 44, 255, 38, 26, 44, 255, 36, 66, 91, 255, 36, 66, 91, 255, 36, 66, 91, 255, 36, 66, 91, 255, 36, 66, 91, 255, 36, 66, 91, 255, 36, 66, 91, 255, 36, 66, 91, 255, 36, 66, 91, 255, 36, 66, 91, 255, 36, 66, 91, 255, 36, 66, 91, 255, 44, 123, 128, 255, 44, 123, 128, 255, 44, 123, 128, 255, 44, 123, 128, 255, 44, 123, 128, 255, 44, 123, 128, 255, 38, 26, 44, 255, 38, 26, 44, 255, 38, 26, 44, 255, 36, 66, 91, 255, 36, 66, 91, 255, 36, 66, 91, 255, 36, 66, 91, 255, 36, 66, 91, 255, 36, 66, 91, 255, 38, 26, 44, 255, 38, 26, 44, 255, 38, 26, 44, 255, 38, 26, 44, 255, 38, 26, 44, 255, 38, 26, 44, 255, 38, 26, 44, 255, 38, 26, 44, 255, 38, 26, 44, 255, 36, 66, 91, 255, 36, 66, 91, 255, 36, 66, 91, 255, 36, 66, 91, 255, 36, 66, 91, 255, 36, 66, 91, 255, 36, 66, 91, 255, 36, 66, 91, 255, 36, 66, 91, 255, 36, 66, 91, 255, 36, 66, 91, 255, 36, 66, 91, 255, 38, 26, 44, 255, 38, 26, 44, 255, 38, 26, 44, 255, 36, 66, 91, 255, 36, 66, 91, 255, 36, 66, 91, 255, 38, 26, 44, 255, 38, 26, 44, 255, 38, 26, 44, 255, 36, 66, 91, 255, 36, 66, 91, 255, 36, 66, 91, 255, 36, 66, 91, 255, 36, 66, 91, 255, 36, 66, 91, 255, 38, 26, 44, 255, 38, 26, 44, 255, 38, 26, 44, 255, 36, 66, 91, 255, 36, 66, 91, 255, 36, 66, 91, 255, 38, 26, 44, 255, 38, 26, 44, 255, 38, 26, 44, 255, 38, 26, 44, 255, 38, 26, 44, 255, 38, 26, 44, 255, 38, 26, 44, 255, 38, 26, 44, 255, 38, 26, 44, 255, 38, 26, 44, 255, 38, 26, 44, 255, 38, 26, 44, 255, 38, 26, 44, 255, 38, 26, 44, 255, 38, 26, 44, 255, 36, 66, 91, 255, 36, 66, 91, 255, 36, 66, 91, 255, 36, 66, 91, 255, 36, 66, 91, 255, 36, 66, 91, 255, 36, 66, 91, 255, 36, 66, 91, 255, 36, 66, 91, 255, 36, 66, 91, 255, 36, 66, 91, 255, 36, 66, 91, 255, 38, 26, 44, 255, 38, 26, 44, 255, 38, 26, 44, 255, 36, 66, 91, 255, 36, 66, 91, 255, 36, 66, 91, 255, 38, 26, 44, 255, 38, 26, 44, 255, 38, 26, 44, 255, 36, 66, 91, 255, 36, 66, 91, 255, 36, 66, 91, 255, 36, 66, 91, 255, 36, 66, 91, 255, 36, 66, 91, 255, 38, 26, 44, 255, 38, 26, 44, 255, 38, 26, 44, 255, 36, 66, 91, 255, 36, 66, 91, 255, 36, 66, 91, 255, 38, 26, 44, 255, 38, 26, 44, 255, 38, 26, 44, 255, 38, 26, 44, 255, 38, 26, 44, 255, 38, 26, 44, 255, 38, 26, 44, 255, 38, 26, 44, 255, 38, 26, 44, 255, 38, 26, 44, 255, 38, 26, 44, 255, 38, 26, 44, 255, 38, 26, 44, 255, 38, 26, 44, 255, 38, 26, 44, 255, 36, 66, 91, 255, 36, 66, 91, 255, 36, 66, 91, 255, 36, 66, 91, 255, 36, 66, 91, 255, 36, 66, 91, 255, 36, 66, 91, 255, 36, 66, 91, 255, 36, 66, 91, 255, 36, 66, 91, 255, 36, 66, 91, 255, 36, 66, 91, 255, 38, 26, 44, 255, 38, 26, 44, 255, 38, 26, 44, 255, 36, 66, 91, 255, 36, 66, 91, 255, 36, 66, 91, 255, 38, 26, 44, 255, 38, 26, 44, 255, 38, 26, 44, 255, 36, 66, 91, 255, 36, 66, 91, 255, 36, 66, 91, 255, 36, 66, 91, 255, 36, 66, 91, 255, 36, 66, 91, 255, 38, 26, 44, 255, 38, 26, 44, 255, 38, 26, 44, 255, 36, 66, 91, 255, 36, 66, 91, 255, 36, 66, 91, 255, 38, 26, 44, 255, 38, 26, 44, 255, 38, 26, 44, 255, 38, 26, 44, 255, 38, 26, 44, 255, 38, 26, 44, 255, 38, 26, 44, 255, 38, 26, 44, 255, 38, 26, 44, 255, 38, 26, 44, 255, 38, 26, 44, 255, 38, 26, 44, 255, 38, 26, 44, 255, 38, 26, 44, 255, 38, 26, 44, 255, 38, 26, 44, 255, 38, 26, 44, 255, 38, 26, 44, 255, 36, 66, 91, 255, 36, 66, 91, 255, 36, 66, 91, 255, 36, 66, 91, 255, 36, 66, 91, 255, 36, 66, 91, 255, 38, 26, 44, 255, 38, 26, 44, 255, 38, 26, 44, 255, 36, 66, 91, 255, 36, 66, 91, 255, 36, 66, 91, 255, 38, 26, 44, 255, 38, 26, 44, 255, 38, 26, 44, 255, 38, 26, 44, 255, 38, 26, 44, 255, 38, 26, 44, 255, 36, 66, 91, 255, 36, 66, 91, 255, 36, 66, 91, 255, 36, 66, 91, 255, 36, 66, 91, 255, 36, 66, 91, 255, 38, 26, 44, 255, 38, 26, 44, 255, 38, 26, 44, 255, 38, 26, 44, 255, 38, 26, 44, 255, 38, 26, 44, 255, 38, 26, 44, 255, 38, 26, 44, 255, 38, 26, 44, 255, 38, 26, 44, 255, 38, 26, 44, 255, 38, 26, 44, 255, 38, 26, 44, 255, 38, 26, 44, 255, 38, 26, 44, 255, 38, 26, 44, 255, 38, 26, 44, 255, 38, 26, 44, 255, 38, 26, 44, 255, 38, 26, 44, 255, 38, 26, 44, 255, 38, 26, 44, 255, 38, 26, 44, 255, 38, 26, 44, 255, 36, 66, 91, 255, 36, 66, 91, 255, 36, 66, 91, 255, 36, 66, 91, 255, 36, 66, 91, 255, 36, 66, 91, 255, 38, 26, 44, 255, 38, 26, 44, 255, 38, 26, 44, 255, 36, 66, 91, 255, 36, 66, 91, 255, 36, 66, 91, 255, 38, 26, 44, 255, 38, 26, 44, 255, 38, 26, 44, 255, 38, 26, 44, 255, 38, 26, 44, 255, 38, 26, 44, 255, 36, 66, 91, 255, 36, 66, 91, 255, 36, 66, 91, 255, 36, 66, 91, 255, 36, 66, 91, 255, 36, 66, 91, 255, 38, 26, 44, 255, 38, 26, 44, 255, 38, 26, 44, 255, 38, 26, 44, 255, 38, 26, 44, 255, 38, 26, 44, 255, 38, 26, 44, 255, 38, 26, 44, 255, 38, 26, 44, 255, 38, 26, 44, 255, 38, 26, 44, 255, 38, 26, 44, 255, 38, 26, 44, 255, 38, 26, 44, 255, 38, 26, 44, 255, 38, 26, 44, 255, 38, 26, 44, 255, 38, 26, 44, 255, 38, 26, 44, 255, 38, 26, 44, 255, 38, 26, 44, 255, 38, 26, 44, 255, 38, 26, 44, 255, 38, 26, 44, 255, 36, 66, 91, 255, 36, 66, 91, 255, 36, 66, 91, 255, 36, 66, 91, 255, 36, 66, 91, 255, 36, 66, 91, 255, 38, 26, 44, 255, 38, 26, 44, 255, 38, 26, 44, 255, 36, 66, 91, 255, 36, 66, 91, 255, 36, 66, 91, 255, 38, 26, 44, 255, 38, 26, 44, 255, 38, 26, 44, 255, 38, 26, 44, 255, 38, 26, 44, 255, 38, 26, 44, 255, 36, 66, 91, 255, 36, 66, 91, 255, 36, 66, 91, 255, 36, 66, 91, 255, 36, 66, 91, 255, 36, 66, 91, 255, 38, 26, 44, 255, 38, 26, 44, 255, 38, 26, 44, 255, 38, 26, 44, 255, 38, 26, 44, 255, 38, 26, 44, 255, 38, 26, 44, 255, 38, 26, 44, 255, 38, 26, 44, 255, 38, 26, 44, 255, 38, 26, 44, 255, 38, 26, 44, 255, 38, 26, 44, 255, 38, 26, 44, 255, 38, 26, 44, 255, 38, 26, 44, 255, 38, 26, 44, 255, 38, 26, 44, 255, 38, 26, 44, 255, 38, 26, 44, 255, 38, 26, 44, 255, 38, 26, 44, 255, 38, 26, 44, 255, 38, 26, 44, 255, 38, 26, 44, 255, 38, 26, 44, 255, 38, 26, 44, 255, 38, 26, 44, 255, 38, 26, 44, 255, 38, 26, 44, 255, 36, 66, 91, 255, 36, 66, 91, 255, 36, 66, 91, 255, 36, 66, 91, 255, 36, 66, 91, 255, 36, 66, 91, 255, 44, 123, 128, 255, 44, 123, 128, 255, 44, 123, 128, 255, 44, 123, 128, 255, 44, 123, 128, 255, 44, 123, 128, 255, 44, 123, 128, 255, 44, 123, 128, 255, 44, 123, 128, 255, 36, 66, 91, 255, 36, 66, 91, 255, 36, 66, 91, 255, 38, 26, 44, 255, 38, 26, 44, 255, 38, 26, 44, 255, 36, 66, 91, 255, 36, 66, 91, 255, 36, 66, 91, 255, 44, 123, 128, 255, 44, 123, 128, 255, 44, 123, 128, 255, 44, 123, 128, 255, 44, 123, 128, 255, 44, 123, 128, 255, 38, 26, 44, 255, 38, 26, 44, 255, 38, 26, 44, 255, 38, 26, 44, 255, 38, 26, 44, 255, 38, 26, 44, 255, 38, 26, 44, 255, 38, 26, 44, 255, 38, 26, 44, 255, 38, 26, 44, 255, 38, 26, 44, 255, 38, 26, 44, 255, 38, 26, 44, 255, 38, 26, 44, 255, 38, 26, 44, 255, 38, 26, 44, 255, 38, 26, 44, 255, 38, 26, 44, 255, 36, 66, 91, 255, 36, 66, 91, 255, 36, 66, 91, 255, 36, 66, 91, 255, 36, 66, 91, 255, 36, 66, 91, 255, 44, 123, 128, 255, 44, 123, 128, 255, 44, 123, 128, 255, 44, 123, 128, 255, 44, 123, 128, 255, 44, 123, 128, 255, 44, 123, 128, 255, 44, 123, 128, 255, 44, 123, 128, 255, 36, 66, 91, 255, 36, 66, 91, 255, 36, 66, 91, 255, 38, 26, 44, 255, 38, 26, 44, 255, 38, 26, 44, 255, 36, 66, 91, 255, 36, 66, 91, 255, 36, 66, 91, 255, 44, 123, 128, 255, 44, 123, 128, 255, 44, 123, 128, 255, 44, 123, 128, 255, 44, 123, 128, 255, 44, 123, 128, 255, 38, 26, 44, 255, 38, 26, 44, 255, 38, 26, 44, 255, 38, 26, 44, 255, 38, 26, 44, 255, 38, 26, 44, 255, 38, 26, 44, 255, 38, 26, 44, 255, 38, 26, 44, 255, 38, 26, 44, 255, 38, 26, 44, 255, 38, 26, 44, 255, 38, 26, 44, 255, 38, 26, 44, 255, 38, 26, 44, 255, 38, 26, 44, 255, 38, 26, 44, 255, 38, 26, 44, 255, 36, 66, 91, 255, 36, 66, 91, 255, 36, 66, 91, 255, 36, 66, 91, 255, 36, 66, 91, 255, 36, 66, 91, 255, 44, 123, 128, 255, 44, 123, 128, 255, 44, 123, 128, 255, 44, 123, 128, 255, 44, 123, 128, 255, 44, 123, 128, 255, 44, 123, 128, 255, 44, 123, 128, 255, 44, 123, 128, 255, 36, 66, 91, 255, 36, 66, 91, 255, 36, 66, 91, 255, 38, 26, 44, 255, 38, 26, 44, 255, 38, 26, 44, 255, 36, 66, 91, 255, 36, 66, 91, 255, 36, 66, 91, 255, 44, 123, 128, 255, 44, 123, 128, 255, 44, 123, 128, 255, 44, 123, 128, 255, 44, 123, 128, 255, 44, 123, 128, 255, 38, 26, 44, 255, 38, 26, 44, 255, 38, 26, 44, 255, 39, 59, 82, 0, 39, 59, 82, 0, 39, 59, 82, 0, 38, 26, 44, 255, 38, 26, 44, 255, 38, 26, 44, 255, 44, 123, 128, 255, 44, 123, 128, 255, 44, 123, 128, 255, 48, 183, 135, 255, 48, 183, 135, 255, 48, 183, 135, 255, 48, 183, 135, 255, 48, 183, 135, 255, 48, 183, 135, 255, 36, 66, 91, 255, 36, 66, 91, 255, 36, 66, 91, 255, 36, 66, 91, 255, 36, 66, 91, 255, 36, 66, 91, 255, 36, 66, 91, 255, 36, 66, 91, 255, 36, 66, 91, 255, 44, 123, 128, 255, 44, 123, 128, 255, 44, 123, 128, 255, 44, 123, 128, 255, 44, 123, 128, 255, 44, 123, 128, 255, 38, 26, 44, 255, 38, 26, 44, 255, 38, 26, 44, 255, 38, 26, 44, 255, 38, 26, 44, 255, 38, 26, 44, 255, 36, 66, 91, 255, 36, 66, 91, 255, 36, 66, 91, 255, 36, 66, 91, 255, 36, 66, 91, 255, 36, 66, 91, 255, 36, 66, 91, 255, 36, 66, 91, 255, 36, 66, 91, 255, 38, 26, 44, 255, 38, 26, 44, 255, 38, 26, 44, 255, 39, 59, 82, 0, 39, 59, 82, 0, 39, 59, 82, 0, 38, 26, 44, 255, 38, 26, 44, 255, 38, 26, 44, 255, 44, 123, 128, 255, 44, 123, 128, 255, 44, 123, 128, 255, 48, 183, 135, 255, 48, 183, 135, 255, 48, 183, 135, 255, 48, 183, 135, 255, 48, 183, 135, 255, 48, 183, 135, 255, 36, 66, 91, 255, 36, 66, 91, 255, 36, 66, 91, 255, 36, 66, 91, 255, 36, 66, 91, 255, 36, 66, 91, 255, 36, 66, 91, 255, 36, 66, 91, 255, 36, 66, 91, 255, 44, 123, 128, 255, 44, 123, 128, 255, 44, 123, 128, 255, 44, 123, 128, 255, 44, 123, 128, 255, 44, 123, 128, 255, 38, 26, 44, 255, 38, 26, 44, 255, 38, 26, 44, 255, 38, 26, 44, 255, 38, 26, 44, 255, 38, 26, 44, 255, 36, 66, 91, 255, 36, 66, 91, 255, 36, 66, 91, 255, 36, 66, 91, 255, 36, 66, 91, 255, 36, 66, 91, 255, 36, 66, 91, 255, 36, 66, 91, 255, 36, 66, 91, 255, 38, 26, 44, 255, 38, 26, 44, 255, 38, 26, 44, 255, 39, 59, 82, 0, 39, 59, 82, 0, 39, 59, 82, 0, 38, 26, 44, 255, 38, 26, 44, 255, 38, 26, 44, 255, 44, 123, 128, 255, 44, 123, 128, 255, 44, 123, 128, 255, 48, 183, 135, 255, 48, 183, 135, 255, 48, 183, 135, 255, 48, 183, 135, 255, 48, 183, 135, 255, 48, 183, 135, 255, 36, 66, 91, 255, 36, 66, 91, 255, 36, 66, 91, 255, 36, 66, 91, 255, 36, 66, 91, 255, 36, 66, 91, 255, 36, 66, 91, 255, 36, 66, 91, 255, 36, 66, 91, 255, 44, 123, 128, 255, 44, 123, 128, 255, 44, 123, 128, 255, 44, 123, 128, 255, 44, 123, 128, 255, 44, 123, 128, 255, 38, 26, 44, 255, 38, 26, 44, 255, 38, 26, 44, 255, 38, 26, 44, 255, 38, 26, 44, 255, 38, 26, 44, 255, 36, 66, 91, 255, 36, 66, 91, 255, 36, 66, 91, 255, 36, 66, 91, 255, 36, 66, 91, 255, 36, 66, 91, 255, 36, 66, 91, 255, 36, 66, 91, 255, 36, 66, 91, 255, 38, 26, 44, 255, 38, 26, 44, 255, 38, 26, 44, 255, 39, 59, 82, 0, 39, 59, 82, 0, 39, 59, 82, 0, 38, 26, 44, 255, 38, 26, 44, 255, 38, 26, 44, 255, 44, 123, 128, 255, 44, 123, 128, 255, 44, 123, 128, 255, 44, 123, 128, 255, 44, 123, 128, 255, 44, 123, 128, 255, 44, 123, 128, 255, 44, 123, 128, 255, 44, 123, 128, 255, 36, 66, 91, 255, 36, 66, 91, 255, 36, 66, 91, 255, 38, 26, 44, 255, 38, 26, 44, 255, 38, 26, 44, 255, 36, 66, 91, 255, 36, 66, 91, 255, 36, 66, 91, 255, 36, 66, 91, 255, 36, 66, 91, 255, 36, 66, 91, 255, 36, 66, 91, 255, 36, 66, 91, 255, 36, 66, 91, 255, 38, 26, 44, 255, 38, 26, 44, 255, 38, 26, 44, 255, 38, 26, 44, 255, 38, 26, 44, 255, 38, 26, 44, 255, 38, 26, 44, 255, 38, 26, 44, 255, 38, 26, 44, 255, 36, 66, 91, 255, 36, 66, 91, 255, 36, 66, 91, 255, 36, 66, 91, 255, 36, 66, 91, 255, 36, 66, 91, 255, 38, 26, 44, 255, 38, 26, 44, 255, 38, 26, 44, 255, 39, 59, 82, 0, 39, 59, 82, 0, 39, 59, 82, 0, 38, 26, 44, 255, 38, 26, 44, 255, 38, 26, 44, 255, 44, 123, 128, 255, 44, 123, 128, 255, 44, 123, 128, 255, 44, 123, 128, 255, 44, 123, 128, 255, 44, 123, 128, 255, 44, 123, 128, 255, 44, 123, 128, 255, 44, 123, 128, 255, 36, 66, 91, 255, 36, 66, 91, 255, 36, 66, 91, 255, 38, 26, 44, 255, 38, 26, 44, 255, 38, 26, 44, 255, 36, 66, 91, 255, 36, 66, 91, 255, 36, 66, 91, 255, 36, 66, 91, 255, 36, 66, 91, 255, 36, 66, 91, 255, 36, 66, 91, 255, 36, 66, 91, 255, 36, 66, 91, 255, 38, 26, 44, 255, 38, 26, 44, 255, 38, 26, 44, 255, 38, 26, 44, 255, 38, 26, 44, 255, 38, 26, 44, 255, 38, 26, 44, 255, 38, 26, 44, 255, 38, 26, 44, 255, 36, 66, 91, 255, 36, 66, 91, 255, 36, 66, 91, 255, 36, 66, 91, 255, 36, 66, 91, 255, 36, 66, 91, 255, 38, 26, 44, 255, 38, 26, 44, 255, 38, 26, 44, 255, 39, 59, 82, 0, 39, 59, 82, 0, 39, 59, 82, 0, 38, 26, 44, 255, 38, 26, 44, 255, 38, 26, 44, 255, 44, 123, 128, 255, 44, 123, 128, 255, 44, 123, 128, 255, 44, 123, 128, 255, 44, 123, 128, 255, 44, 123, 128, 255, 44, 123, 128, 255, 44, 123, 128, 255, 44, 123, 128, 255, 36, 66, 91, 255, 36, 66, 91, 255, 36, 66, 91, 255, 38, 26, 44, 255, 38, 26, 44, 255, 38, 26, 44, 255, 36, 66, 91, 255, 36, 66, 91, 255, 36, 66, 91, 255, 36, 66, 91, 255, 36, 66, 91, 255, 36, 66, 91, 255, 36, 66, 91, 255, 36, 66, 91, 255, 36, 66, 91, 255, 38, 26, 44, 255, 38, 26, 44, 255, 38, 26, 44, 255, 38, 26, 44, 255, 38, 26, 44, 255, 38, 26, 44, 255, 38, 26, 44, 255, 38, 26, 44, 255, 38, 26, 44, 255, 36, 66, 91, 255, 36, 66, 91, 255, 36, 66, 91, 255, 36, 66, 91, 255, 36, 66, 91, 255, 36, 66, 91, 255, 38, 26, 44, 255, 38, 26, 44, 255, 38, 26, 44, 255, 38, 26, 44, 255, 38, 26, 44, 255, 38, 26, 44, 255, 38, 26, 44, 255, 38, 26, 44, 255, 38, 26, 44, 255, 36, 66, 91, 255, 36, 66, 91, 255, 36, 66, 91, 255, 36, 66, 91, 255, 36, 66, 91, 255, 36, 66, 91, 255, 36, 66, 91, 255, 36, 66, 91, 255, 36, 66, 91, 255, 38, 26, 44, 255, 38, 26, 44, 255, 38, 26, 44, 255, 36, 66, 91, 255, 36, 66, 91, 255, 36, 66, 91, 255, 38, 26, 44, 255, 38, 26, 44, 255, 38, 26, 44, 255, 36, 66, 91, 255, 36, 66, 91, 255, 36, 66, 91, 255, 36, 66, 91, 255, 36, 66, 91, 255, 36, 66, 91, 255, 38, 26, 44, 255, 38, 26, 44, 255, 38, 26, 44, 255, 38, 26, 44, 255, 38, 26, 44, 255, 38, 26, 44, 255, 36, 66, 91, 255, 36, 66, 91, 255, 36, 66, 91, 255, 38, 26, 44, 255, 38, 26, 44, 255, 38, 26, 44, 255, 36, 66, 91, 255, 36, 66, 91, 255, 36, 66, 91, 255, 38, 26, 44, 255, 38, 26, 44, 255, 38, 26, 44, 255, 38, 26, 44, 255, 38, 26, 44, 255, 38, 26, 44, 255, 38, 26, 44, 255, 38, 26, 44, 255, 38, 26, 44, 255, 36, 66, 91, 255, 36, 66, 91, 255, 36, 66, 91, 255, 36, 66, 91, 255, 36, 66, 91, 255, 36, 66, 91, 255, 36, 66, 91, 255, 36, 66, 91, 255, 36, 66, 91, 255, 38, 26, 44, 255, 38, 26, 44, 255, 38, 26, 44, 255, 36, 66, 91, 255, 36, 66, 91, 255, 36, 66, 91, 255, 38, 26, 44, 255, 38, 26, 44, 255, 38, 26, 44, 255, 36, 66, 91, 255, 36, 66, 91, 255, 36, 66, 91, 255, 36, 66, 91, 255, 36, 66, 91, 255, 36, 66, 91, 255, 38, 26, 44, 255, 38, 26, 44, 255, 38, 26, 44, 255, 38, 26, 44, 255, 38, 26, 44, 255, 38, 26, 44, 255, 36, 66, 91, 255, 36, 66, 91, 255, 36, 66, 91, 255, 38, 26, 44, 255, 38, 26, 44, 255, 38, 26, 44, 255, 36, 66, 91, 255, 36, 66, 91, 255, 36, 66, 91, 255, 38, 26, 44, 255, 38, 26, 44, 255, 38, 26, 44, 255, 38, 26, 44, 255, 38, 26, 44, 255, 38, 26, 44, 255, 38, 26, 44, 255, 38, 26, 44, 255, 38, 26, 44, 255, 36, 66, 91, 255, 36, 66, 91, 255, 36, 66, 91, 255, 36, 66, 91, 255, 36, 66, 91, 255, 36, 66, 91, 255, 36, 66, 91, 255, 36, 66, 91, 255, 36, 66, 91, 255, 38, 26, 44, 255, 38, 26, 44, 255, 38, 26, 44, 255, 36, 66, 91, 255, 36, 66, 91, 255, 36, 66, 91, 255, 38, 26, 44, 255, 38, 26, 44, 255, 38, 26, 44, 255, 36, 66, 91, 255, 36, 66, 91, 255, 36, 66, 91, 255, 36, 66, 91, 255, 36, 66, 91, 255, 36, 66, 91, 255, 38, 26, 44, 255, 38, 26, 44, 255, 38, 26, 44, 255, 38, 26, 44, 255, 38, 26, 44, 255, 38, 26, 44, 255, 36, 66, 91, 255, 36, 66, 91, 255, 36, 66, 91, 255, 38, 26, 44, 255, 38, 26, 44, 255, 38, 26, 44, 255, 36, 66, 91, 255, 36, 66, 91, 255, 36, 66, 91, 255, 38, 26, 44, 255, 38, 26, 44, 255, 38, 26, 44, 255, 38, 26, 44, 255, 38, 26, 44, 255, 38, 26, 44, 255, 38, 26, 44, 255, 38, 26, 44, 255, 38, 26, 44, 255, 38, 26, 44, 255, 38, 26, 44, 255, 38, 26, 44, 255, 36, 66, 91, 255, 36, 66, 91, 255, 36, 66, 91, 255, 36, 66, 91, 255, 36, 66, 91, 255, 36, 66, 91, 255, 38, 26, 44, 255, 38, 26, 44, 255, 38, 26, 44, 255, 38, 26, 44, 255, 38, 26, 44, 255, 38, 26, 44, 255, 38, 26, 44, 255, 38, 26, 44, 255, 38, 26, 44, 255, 38, 26, 44, 255, 38, 26, 44, 255, 38, 26, 44, 255, 38, 26, 44, 255, 38, 26, 44, 255, 38, 26, 44, 255, 38, 26, 44, 255, 38, 26, 44, 255, 38, 26, 44, 255, 38, 26, 44, 255, 38, 26, 44, 255, 38, 26, 44, 255, 38, 26, 44, 255, 38, 26, 44, 255, 38, 26, 44, 255, 36, 66, 91, 255, 36, 66, 91, 255, 36, 66, 91, 255, 38, 26, 44, 255, 38, 26, 44, 255, 38, 26, 44, 255, 38, 26, 44, 255, 38, 26, 44, 255, 38, 26, 44, 255, 38, 26, 44, 255, 38, 26, 44, 255, 38, 26, 44, 255, 38, 26, 44, 255, 38, 26, 44, 255, 38, 26, 44, 255, 38, 26, 44, 255, 38, 26, 44, 255, 38, 26, 44, 255, 36, 66, 91, 255, 36, 66, 91, 255, 36, 66, 91, 255, 36, 66, 91, 255, 36, 66, 91, 255, 36, 66, 91, 255, 38, 26, 44, 255, 38, 26, 44, 255, 38, 26, 44, 255, 38, 26, 44, 255, 38, 26, 44, 255, 38, 26, 44, 255, 38, 26, 44, 255, 38, 26, 44, 255, 38, 26, 44, 255, 38, 26, 44, 255, 38, 26, 44, 255, 38, 26, 44, 255, 38, 26, 44, 255, 38, 26, 44, 255, 38, 26, 44, 255, 38, 26, 44, 255, 38, 26, 44, 255, 38, 26, 44, 255, 38, 26, 44, 255, 38, 26, 44, 255, 38, 26, 44, 255, 38, 26, 44, 255, 38, 26, 44, 255, 38, 26, 44, 255, 36, 66, 91, 255, 36, 66, 91, 255, 36, 66, 91, 255, 38, 26, 44, 255, 38, 26, 44, 255, 38, 26, 44, 255, 38, 26, 44, 255, 38, 26, 44, 255, 38, 26, 44, 255, 38, 26, 44, 255, 38, 26, 44, 255, 38, 26, 44, 255, 38, 26, 44, 255, 38, 26, 44, 255, 38, 26, 44, 255, 38, 26, 44, 255, 38, 26, 44, 255, 38, 26, 44, 255, 36, 66, 91, 255, 36, 66, 91, 255, 36, 66, 91, 255, 36, 66, 91, 255, 36, 66, 91, 255, 36, 66, 91, 255, 38, 26, 44, 255, 38, 26, 44, 255, 38, 26, 44, 255, 38, 26, 44, 255, 38, 26, 44, 255, 38, 26, 44, 255, 38, 26, 44, 255, 38, 26, 44, 255, 38, 26, 44, 255, 38, 26, 44, 255, 38, 26, 44, 255, 38, 26, 44, 255, 38, 26, 44, 255, 38, 26, 44, 255, 38, 26, 44, 255, 38, 26, 44, 255, 38, 26, 44, 255, 38, 26, 44, 255, 38, 26, 44, 255, 38, 26, 44, 255, 38, 26, 44, 255, 38, 26, 44, 255, 38, 26, 44, 255, 38, 26, 44, 255, 36, 66, 91, 255, 36, 66, 91, 255, 36, 66, 91, 255, 38, 26, 44, 255, 38, 26, 44, 255, 38, 26, 44, 255, 38, 26, 44, 255, 38, 26, 44, 255, 38, 26, 44, 255 )
size = Vector2( 48, 48 )
storage = 0
lossy_quality = 0.7

[sub_resource type="RectangleShape2D" id=2]

custom_solver_bias = 0.0
extents = Vector2( 24, 15 )

[sub_resource type="ImageTexture" id=3]

resource/name = "CavernTileset_2.png"
flags = 0
image = Image( 48, 48, 0, RGBA, 38, 26, 44, 255, 38, 26, 44, 255, 38, 26, 44, 255, 38, 26, 44, 255, 38, 26, 44, 255, 38, 26, 44, 255, 38, 26, 44, 255, 38, 26, 44, 255, 38, 26, 44, 255, 38, 26, 44, 255, 38, 26, 44, 255, 38, 26, 44, 255, 38, 26, 44, 255, 38, 26, 44, 255, 38, 26, 44, 255, 38, 26, 44, 255, 38, 26, 44, 255, 38, 26, 44, 255, 38, 26, 44, 255, 38, 26, 44, 255, 38, 26, 44, 255, 38, 26, 44, 255, 38, 26, 44, 255, 38, 26, 44, 255, 38, 26, 44, 255, 38, 26, 44, 255, 38, 26, 44, 255, 38, 26, 44, 255, 38, 26, 44, 255, 38, 26, 44, 255, 38, 26, 44, 255, 38, 26, 44, 255, 38, 26, 44, 255, 38, 26, 44, 255, 38, 26, 44, 255, 38, 26, 44, 255, 38, 26, 44, 255, 38, 26, 44, 255, 38, 26, 44, 255, 38, 26, 44, 255, 38, 26, 44, 255, 38, 26, 44, 255, 38, 26, 44, 255, 38, 26, 44, 255, 38, 26, 44, 255, 38, 26, 44, 255, 38, 26, 44, 255, 38, 26, 44, 255, 38, 26, 44, 255, 38, 26, 44, 255, 38, 26, 44, 255, 38, 26, 44, 255, 38, 26, 44, 255, 38, 26, 44, 255, 38, 26, 44, 255, 38, 26, 44, 255, 38, 26, 44, 255, 38, 26, 44, 255, 38, 26, 44, 255, 38, 26, 44, 255, 38, 26, 44, 255, 38, 26, 44, 255, 38, 26, 44, 255, 38, 26, 44, 255, 38, 26, 44, 255, 38, 26, 44, 255, 38, 26, 44, 255, 38, 26, 44, 255, 38, 26, 44, 255, 38, 26, 44, 255, 38, 26, 44, 255, 38, 26, 44, 255, 38, 26, 44, 255, 38, 26, 44, 255, 38, 26, 44, 255, 38, 26, 44, 255, 38, 26, 44, 255, 38, 26, 44, 255, 38, 26, 44, 255, 38, 26, 44, 255, 38, 26, 44, 255, 38, 26, 44, 255, 38, 26, 44, 255, 38, 26, 44, 255, 38, 26, 44, 255, 38, 26, 44, 255, 38, 26, 44, 255, 38, 26, 44, 255, 38, 26, 44, 255, 38, 26, 44, 255, 38, 26, 44, 255, 38, 26, 44, 255, 38, 26, 44, 255, 38, 26, 44, 255, 38, 26, 44, 255, 38, 26, 44, 255, 38, 26, 44, 255, 38, 26, 44, 255, 38, 26, 44, 255, 38, 26, 44, 255, 38, 26, 44, 255, 38, 26, 44, 255, 38, 26, 44, 255, 38, 26, 44, 255, 38, 26, 44, 255, 38, 26, 44, 255, 38, 26, 44, 255, 38, 26, 44, 255, 38, 26, 44, 255, 38, 26, 44, 255, 38, 26, 44, 255, 38, 26, 44, 255, 38, 26, 44, 255, 38, 26, 44, 255, 38, 26, 44, 255, 38, 26, 44, 255, 38, 26, 44, 255, 38, 26, 44, 255, 38, 26, 44, 255, 38, 26, 44, 255, 38, 26, 44, 255, 38, 26, 44, 255, 38, 26, 44, 255, 38, 26, 44, 255, 38, 26, 44, 255, 38, 26, 44, 255, 38, 26, 44, 255, 38, 26, 44, 255, 38, 26, 44, 255, 38, 26, 44, 255, 38, 26, 44, 255, 38, 26, 44, 255, 38, 26, 44, 255, 38, 26, 44, 255, 38, 26, 44, 255, 38, 26, 44, 255, 38, 26, 44, 255, 38, 26, 44, 255, 38, 26, 44, 255, 38, 26, 44, 255, 38, 26, 44, 255, 38, 26, 44, 255, 38, 26, 44, 255, 38, 26, 44, 255, 48, 183, 135, 255, 48, 183, 135, 255, 48, 183, 135, 255, 44, 123, 128, 255, 44, 123, 128, 255, 44, 123, 128, 255, 36, 66, 91, 255, 36, 66, 91, 255, 36, 66, 91, 255, 44, 123, 128, 255, 44, 123, 128, 255, 44, 123, 128, 255, 48, 183, 135, 255, 48, 183, 135, 255, 48, 183, 135, 255, 48, 183, 135, 255, 48, 183, 135, 255, 48, 183, 135, 255, 48, 183, 135, 255, 48, 183, 135, 255, 48, 183, 135, 255, 44, 123, 128, 255, 44, 123, 128, 255, 44, 123, 128, 255, 36, 66, 91, 255, 36, 66, 91, 255, 36, 66, 91, 255, 36, 66, 91, 255, 36, 66, 91, 255, 36, 66, 91, 255, 44, 123, 128, 255, 44, 123, 128, 255, 44, 123, 128, 255, 48, 183, 135, 255, 48, 183, 135, 255, 48, 183, 135, 255, 48, 183, 135, 255, 48, 183, 135, 255, 48, 183, 135, 255, 44, 123, 128, 255, 44, 123, 128, 255, 44, 123, 128, 255, 44, 123, 128, 255, 44, 123, 128, 255, 44, 123, 128, 255, 48, 183, 135, 255, 48, 183, 135, 255, 48, 183, 135, 255, 48, 183, 135, 255, 48, 183, 135, 255, 48, 183, 135, 255, 44, 123, 128, 255, 44, 123, 128, 255, 44, 123, 128, 255, 36, 66, 91, 255, 36, 66, 91, 255, 36, 66, 91, 255, 44, 123, 128, 255, 44, 123, 128, 255, 44, 123, 128, 255, 48, 183, 135, 255, 48, 183, 135, 255, 48, 183, 135, 255, 48, 183, 135, 255, 48, 183, 135, 255, 48, 183, 135, 255, 48, 183, 135, 255, 48, 183, 135, 255, 48, 183, 135, 255, 44, 123, 128, 255, 44, 123, 128, 255, 44, 123, 128, 255, 36, 66, 91, 255, 36, 66, 91, 255, 36, 66, 91, 255, 36, 66, 91, 255, 36, 66, 91, 255, 36, 66, 91, 255, 44, 123, 128, 255, 44, 123, 128, 255, 44, 123, 128, 255, 48, 183, 135, 255, 48, 183, 135, 255, 48, 183, 135, 255, 48, 183, 135, 255, 48, 183, 135, 255, 48, 183, 135, 255, 44, 123, 128, 255, 44, 123, 128, 255, 44, 123, 128, 255, 44, 123, 128, 255, 44, 123, 128, 255, 44, 123, 128, 255, 48, 183, 135, 255, 48, 183, 135, 255, 48, 183, 135, 255, 48, 183, 135, 255, 48, 183, 135, 255, 48, 183, 135, 255, 44, 123, 128, 255, 44, 123, 128, 255, 44, 123, 128, 255, 36, 66, 91, 255, 36, 66, 91, 255, 36, 66, 91, 255, 44, 123, 128, 255, 44, 123, 128, 255, 44, 123, 128, 255, 48, 183, 135, 255, 48, 183, 135, 255, 48, 183, 135, 255, 48, 183, 135, 255, 48, 183, 135, 255, 48, 183, 135, 255, 48, 183, 135, 255, 48, 183, 135, 255, 48, 183, 135, 255, 44, 123, 128, 255, 44, 123, 128, 255, 44, 123, 128, 255, 36, 66, 91, 255, 36, 66, 91, 255, 36, 66, 91, 255, 36, 66, 91, 255, 36, 66, 91, 255, 36, 66, 91, 255, 44, 123, 128, 255, 44, 123, 128, 255, 44, 123, 128, 255, 48, 183, 135, 255, 48, 183, 135, 255, 48, 183, 135, 255, 48, 183, 135, 255, 48, 183, 135, 255, 48, 183, 135, 255, 44, 123, 128, 255, 44, 123, 128, 255, 44, 123, 128, 255, 44, 123, 128, 255, 44, 123, 128, 255, 44, 123, 128, 255, 48, 183, 135, 255, 48, 183, 135, 255, 48, 183, 135, 255, 48, 183, 135, 255, 48, 183, 135, 255, 48, 183, 135, 255, 48, 183, 135, 255, 48, 183, 135, 255, 48, 183, 135, 255, 48, 183, 135, 255, 48, 183, 135, 255, 48, 183, 135, 255, 48, 183, 135, 255, 48, 183, 135, 255, 48, 183, 135, 255, 48, 183, 135, 255, 48, 183, 135, 255, 48, 183, 135, 255, 48, 183, 135, 255, 48, 183, 135, 255, 48, 183, 135, 255, 44, 123, 128, 255, 44, 123, 128, 255, 44, 123, 128, 255, 36, 66, 91, 255, 36, 66, 91, 255, 36, 66, 91, 255, 36, 66, 91, 255, 36, 66, 91, 255, 36, 66, 91, 255, 44, 123, 128, 255, 44, 123, 128, 255, 44, 123, 128, 255, 44, 123, 128, 255, 44, 123, 128, 255, 44, 123, 128, 255, 48, 183, 135, 255, 48, 183, 135, 255, 48, 183, 135, 255, 48, 183, 135, 255, 48, 183, 135, 255, 48, 183, 135, 255, 48, 183, 135, 255, 48, 183, 135, 255, 48, 183, 135, 255, 48, 183, 135, 255, 48, 183, 135, 255, 48, 183, 135, 255, 48, 183, 135, 255, 48, 183, 135, 255, 48, 183, 135, 255, 48, 183, 135, 255, 48, 183, 135, 255, 48, 183, 135, 255, 48, 183, 135, 255, 48, 183, 135, 255, 48, 183, 135, 255, 48, 183, 135, 255, 48, 183, 135, 255, 48, 183, 135, 255, 48, 183, 135, 255, 48, 183, 135, 255, 48, 183, 135, 255, 48, 183, 135, 255, 48, 183, 135, 255, 48, 183, 135, 255, 48, 183, 135, 255, 48, 183, 135, 255, 48, 183, 135, 255, 44, 123, 128, 255, 44, 123, 128, 255, 44, 123, 128, 255, 36, 66, 91, 255, 36, 66, 91, 255, 36, 66, 91, 255, 36, 66, 91, 255, 36, 66, 91, 255, 36, 66, 91, 255, 44, 123, 128, 255, 44, 123, 128, 255, 44, 123, 128, 255, 44, 123, 128, 255, 44, 123, 128, 255, 44, 123, 128, 255, 48, 183, 135, 255, 48, 183, 135, 255, 48, 183, 135, 255, 48, 183, 135, 255, 48, 183, 135, 255, 48, 183, 135, 255, 48, 183, 135, 255, 48, 183, 135, 255, 48, 183, 135, 255, 48, 183, 135, 255, 48, 183, 135, 255, 48, 183, 135, 255, 48, 183, 135, 255, 48, 183, 135, 255, 48, 183, 135, 255, 48, 183, 135, 255, 48, 183, 135, 255, 48, 183, 135, 255, 48, 183, 135, 255, 48, 183, 135, 255, 48, 183, 135, 255, 48, 183, 135, 255, 48, 183, 135, 255, 48, 183, 135, 255, 48, 183, 135, 255, 48, 183, 135, 255, 48, 183, 135, 255, 48, 183, 135, 255, 48, 183, 135, 255, 48, 183, 135, 255, 48, 183, 135, 255, 48, 183, 135, 255, 48, 183, 135, 255, 44, 123, 128, 255, 44, 123, 128, 255, 44, 123, 128, 255, 36, 66, 91, 255, 36, 66, 91, 255, 36, 66, 91, 255, 36, 66, 91, 255, 36, 66, 91, 255, 36, 66, 91, 255, 44, 123, 128, 255, 44, 123, 128, 255, 44, 123, 128, 255, 44, 123, 128, 255, 44, 123, 128, 255, 44, 123, 128, 255, 48, 183, 135, 255, 48, 183, 135, 255, 48, 183, 135, 255, 48, 183, 135, 255, 48, 183, 135, 255, 48, 183, 135, 255, 48, 183, 135, 255, 48, 183, 135, 255, 48, 183, 135, 255, 48, 183, 135, 255, 48, 183, 135, 255, 48, 183, 135, 255, 48, 183, 135, 255, 48, 183, 135, 255, 48, 183, 135, 255, 44, 123, 128, 255, 44, 123, 128, 255, 44, 123, 128, 255, 36, 66, 91, 255, 36, 66, 91, 255, 36, 66, 91, 255, 44, 123, 128, 255, 44, 123, 128, 255, 44, 123, 128, 255, 44, 123, 128, 255, 44, 123, 128, 255, 44, 123, 128, 255, 48, 183, 135, 255, 48, 183, 135, 255, 48, 183, 135, 255, 48, 183, 135, 255, 48, 183, 135, 255, 48, 183, 135, 255, 48, 183, 135, 255, 48, 183, 135, 255, 48, 183, 135, 255, 44, 123, 128, 255, 44, 123, 128, 255, 44, 123, 128, 255, 44, 123, 128, 255, 44, 123, 128, 255, 44, 123, 128, 255, 44, 123, 128, 255, 44, 123, 128, 255, 44, 123, 128, 255, 48, 183, 135, 255, 48, 183, 135, 255, 48, 183, 135, 255, 48, 183, 135, 255, 48, 183, 135, 255, 48, 183, 135, 255, 44, 123, 128, 255, 44, 123, 128, 255, 44, 123, 128, 255, 36, 66, 91, 255, 36, 66, 91, 255, 36, 66, 91, 255, 44, 123, 128, 255, 44, 123, 128, 255, 44, 123, 128, 255, 44, 123, 128, 255, 44, 123, 128, 255, 44, 123, 128, 255, 44, 123, 128, 255, 44, 123, 128, 255, 44, 123, 128, 255, 36, 66, 91, 255, 36, 66, 91, 255, 36, 66, 91, 255, 44, 123, 128, 255, 44, 123, 128, 255, 44, 123, 128, 255, 44, 123, 128, 255, 44, 123, 128, 255, 44, 123, 128, 255, 48, 183, 135, 255, 48, 183, 135, 255, 48, 183, 135, 255, 48, 183, 135, 255, 48, 183, 135, 255, 48, 183, 135, 255, 48, 183, 135, 255, 48, 183, 135, 255, 48, 183, 135, 255, 44, 123, 128, 255, 44, 123, 128, 255, 44, 123, 128, 255, 44, 123, 128, 255, 44, 123, 128, 255, 44, 123, 128, 255, 44, 123, 128, 255, 44, 123, 128, 255, 44, 123, 128, 255, 48, 183, 135, 255, 48, 183, 135, 255, 48, 183, 135, 255, 48, 183, 135, 255, 48, 183, 135, 255, 48, 183, 135, 255, 44, 123, 128, 255, 44, 123, 128, 255, 44, 123, 128, 255, 36, 66, 91, 255, 36, 66, 91, 255, 36, 66, 91, 255, 44, 123, 128, 255, 44, 123, 128, 255, 44, 123, 128, 255, 44, 123, 128, 255, 44, 123, 128, 255, 44, 123, 128, 255, 44, 123, 128, 255, 44, 123, 128, 255, 44, 123, 128, 255, 36, 66, 91, 255, 36, 66, 91, 255, 36, 66, 91, 255, 44, 123, 128, 255, 44, 123, 128, 255, 44, 123, 128, 255, 44, 123, 128, 255, 44, 123, 128, 255, 44, 123, 128, 255, 48, 183, 135, 255, 48, 183, 135, 255, 48, 183, 135, 255, 48, 183, 135, 255, 48, 183, 135, 255, 48, 183, 135, 255, 48, 183, 135, 255, 48, 183, 135, 255, 48, 183, 135, 255, 44, 123, 128, 255, 44, 123, 128, 255, 44, 123, 128, 255, 44, 123, 128, 255, 44, 123, 128, 255, 44, 123, 128, 255, 44, 123, 128, 255, 44, 123, 128, 255, 44, 123, 128, 255, 48, 183, 135, 255, 48, 183, 135, 255, 48, 183, 135, 255, 48, 183, 135, 255, 48, 183, 135, 255, 48, 183, 135, 255, 44, 123, 128, 255, 44, 123, 128, 255, 44, 123, 128, 255, 36, 66, 91, 255, 36, 66, 91, 255, 36, 66, 91, 255, 44, 123, 128, 255, 44, 123, 128, 255, 44, 123, 128, 255, 44, 123, 128, 255, 44, 123, 128, 255, 44, 123, 128, 255, 36, 66, 91, 255, 36, 66, 91, 255, 36, 66, 91, 255, 36, 66, 91, 255, 36, 66, 91, 255, 36, 66, 91, 255, 36, 66, 91, 255, 36, 66, 91, 255, 36, 66, 91, 255, 36, 66, 91, 255, 36, 66, 91, 255, 36, 66, 91, 255, 36, 66, 91, 255, 36, 66, 91, 255, 36, 66, 91, 255, 36, 66, 91, 255, 36, 66, 91, 255, 36, 66, 91, 255, 36, 66, 91, 255, 36, 66, 91, 255, 36, 66, 91, 255, 38, 26, 44, 255, 38, 26, 44, 255, 38, 26, 44, 255, 36, 66, 91, 255, 36, 66, 91, 255, 36, 66, 91, 255, 36, 66, 91, 255, 36, 66, 91, 255, 36, 66, 91, 255, 38, 26, 44, 255, 38, 26, 44, 255, 38, 26, 44, 255, 36, 66, 91, 255, 36, 66, 91, 255, 36, 66, 91, 255, 38, 26, 44, 255, 38, 26, 44, 255, 38, 26, 44, 255, 36, 66, 91, 255, 36, 66, 91, 255, 36, 66, 91, 255, 36, 66, 91, 255, 36, 66, 91, 255, 36, 66, 91, 255, 36, 66, 91, 255, 36, 66, 91, 255, 36, 66, 91, 255, 36, 66, 91, 255, 36, 66, 91, 255, 36, 66, 91, 255, 36, 66, 91, 255, 36, 66, 91, 255, 36, 66, 91, 255, 36, 66, 91, 255, 36, 66, 91, 255, 36, 66, 91, 255, 36, 66, 91, 255, 36, 66, 91, 255, 36, 66, 91, 255, 36, 66, 91, 255, 36, 66, 91, 255, 36, 66, 91, 255, 36, 66, 91, 255, 36, 66, 91, 255, 36, 66, 91, 255, 36, 66, 91, 255, 36, 66, 91, 255, 36, 66, 91, 255, 38, 26, 44, 255, 38, 26, 44, 255, 38, 26, 44, 255, 36, 66, 91, 255, 36, 66, 91, 255, 36, 66, 91, 255, 36, 66, 91, 255, 36, 66, 91, 255, 36, 66, 91, 255, 38, 26, 44, 255, 38, 26, 44, 255, 38, 26, 44, 255, 36, 66, 91, 255, 36, 66, 91, 255, 36, 66, 91, 255, 38, 26, 44, 255, 38, 26, 44, 255, 38, 26, 44, 255, 36, 66, 91, 255, 36, 66, 91, 255, 36, 66, 91, 255, 36, 66, 91, 255, 36, 66, 91, 255, 36, 66, 91, 255, 36, 66, 91, 255, 36, 66, 91, 255, 36, 66, 91, 255, 36, 66, 91, 255, 36, 66, 91, 255, 36, 66, 91, 255, 36, 66, 91, 255, 36, 66, 91, 255, 36, 66, 91, 255, 36, 66, 91, 255, 36, 66, 91, 255, 36, 66, 91, 255, 36, 66, 91, 255, 36, 66, 91, 255, 36, 66, 91, 255, 36, 66, 91, 255, 36, 66, 91, 255, 36, 66, 91, 255, 36, 66, 91, 255, 36, 66, 91, 255, 36, 66, 91, 255, 36, 66, 91, 255, 36, 66, 91, 255, 36, 66, 91, 255, 38, 26, 44, 255, 38, 26, 44, 255, 38, 26, 44, 255, 36, 66, 91, 255, 36, 66, 91, 255, 36, 66, 91, 255, 36, 66, 91, 255, 36, 66, 91, 255, 36, 66, 91, 255, 38, 26, 44, 255, 38, 26, 44, 255, 38, 26, 44, 255, 36, 66, 91, 255, 36, 66, 91, 255, 36, 66, 91, 255, 38, 26, 44, 255, 38, 26, 44, 255, 38, 26, 44, 255, 36, 66, 91, 255, 36, 66, 91, 255, 36, 66, 91, 255, 36, 66, 91, 255, 36, 66, 91, 255, 36, 66, 91, 255, 36, 66, 91, 255, 36, 66, 91, 255, 36, 66, 91, 255, 44, 123, 128, 255, 44, 123, 128, 255, 44, 123, 128, 255, 48, 183, 135, 255, 48, 183, 135, 255, 48, 183, 135, 255, 48, 183, 135, 255, 48, 183, 135, 255, 48, 183, 135, 255, 48, 183, 135, 255, 48, 183, 135, 255, 48, 183, 135, 255, 38, 26, 44, 255, 38, 26, 44, 255, 38, 26, 44, 255, 36, 66, 91, 255, 36, 66, 91, 255, 36, 66, 91, 255, 36, 66, 91, 255, 36, 66, 91, 255, 36, 66, 91, 255, 38, 26, 44, 255, 38, 26, 44, 255, 38, 26, 44, 255, 36, 66, 91, 255, 36, 66, 91, 255, 36, 66, 91, 255, 36, 66, 91, 255, 36, 66, 91, 255, 36, 66, 91, 255, 36, 66, 91, 255, 36, 66, 91, 255, 36, 66, 91, 255, 38, 26, 44, 255, 38, 26, 44, 255, 38, 26, 44, 255, 36, 66, 91, 255, 36, 66, 91, 255, 36, 66, 91, 255, 36, 66, 91, 255, 36, 66, 91, 255, 36, 66, 91, 255, 36, 66, 91, 255, 36, 66, 91, 255, 36, 66, 91, 255, 38, 26, 44, 255, 38, 26, 44, 255, 38, 26, 44, 255, 44, 123, 128, 255, 44, 123, 128, 255, 44, 123, 128, 255, 48, 183, 135, 255, 48, 183, 135, 255, 48, 183, 135, 255, 48, 183, 135, 255, 48, 183, 135, 255, 48, 183, 135, 255, 48, 183, 135, 255, 48, 183, 135, 255, 48, 183, 135, 255, 38, 26, 44, 255, 38, 26, 44, 255, 38, 26, 44, 255, 36, 66, 91, 255, 36, 66, 91, 255, 36, 66, 91, 255, 36, 66, 91, 255, 36, 66, 91, 255, 36, 66, 91, 255, 38, 26, 44, 255, 38, 26, 44, 255, 38, 26, 44, 255, 36, 66, 91, 255, 36, 66, 91, 255, 36, 66, 91, 255, 36, 66, 91, 255, 36, 66, 91, 255, 36, 66, 91, 255, 36, 66, 91, 255, 36, 66, 91, 255, 36, 66, 91, 255, 38, 26, 44, 255, 38, 26, 44, 255, 38, 26, 44, 255, 36, 66, 91, 255, 36, 66, 91, 255, 36, 66, 91, 255, 36, 66, 91, 255, 36, 66, 91, 255, 36, 66, 91, 255, 36, 66, 91, 255, 36, 66, 91, 255, 36, 66, 91, 255, 38, 26, 44, 255, 38, 26, 44, 255, 38, 26, 44, 255, 44, 123, 128, 255, 44, 123, 128, 255, 44, 123, 128, 255, 48, 183, 135, 255, 48, 183, 135, 255, 48, 183, 135, 255, 48, 183, 135, 255, 48, 183, 135, 255, 48, 183, 135, 255, 48, 183, 135, 255, 48, 183, 135, 255, 48, 183, 135, 255, 38, 26, 44, 255, 38, 26, 44, 255, 38, 26, 44, 255, 36, 66, 91, 255, 36, 66, 91, 255, 36, 66, 91, 255, 36, 66, 91, 255, 36, 66, 91, 255, 36, 66, 91, 255, 38, 26, 44, 255, 38, 26, 44, 255, 38, 26, 44, 255, 36, 66, 91, 255, 36, 66, 91, 255, 36, 66, 91, 255, 36, 66, 91, 255, 36, 66, 91, 255, 36, 66, 91, 255, 36, 66, 91, 255, 36, 66, 91, 255, 36, 66, 91, 255, 38, 26, 44, 255, 38, 26, 44, 255, 38, 26, 44, 255, 36, 66, 91, 255, 36, 66, 91, 255, 36, 66, 91, 255, 36, 66, 91, 255, 36, 66, 91, 255, 36, 66, 91, 255, 36, 66, 91, 255, 36, 66, 91, 255, 36, 66, 91, 255, 38, 26, 44, 255, 38, 26, 44, 255, 38, 26, 44, 255, 44, 123, 128, 255, 44, 123, 128, 255, 44, 123, 128, 255, 44, 123, 128, 255, 44, 123, 128, 255, 44, 123, 128, 255, 44, 123, 128, 255, 44, 123, 128, 255, 44, 123, 128, 255, 44, 123, 128, 255, 44, 123, 128, 255, 44, 123, 128, 255, 38, 26, 44, 255, 38, 26, 44, 255, 38, 26, 44, 255, 36, 66, 91, 255, 36, 66, 91, 255, 36, 66, 91, 255, 36, 66, 91, 255, 36, 66, 91, 255, 36, 66, 91, 255, 38, 26, 44, 255, 38, 26, 44, 255, 38, 26, 44, 255, 44, 123, 128, 255, 44, 123, 128, 255, 44, 123, 128, 255, 48, 183, 135, 255, 48, 183, 135, 255, 48, 183, 135, 255, 48, 183, 135, 255, 48, 183, 135, 255, 48, 183, 135, 255, 44, 123, 128, 255, 44, 123, 128, 255, 44, 123, 128, 255, 36, 66, 91, 255, 36, 66, 91, 255, 36, 66, 91, 255, 36, 66, 91, 255, 36, 66, 91, 255, 36, 66, 91, 255, 36, 66, 91, 255, 36, 66, 91, 255, 36, 66, 91, 255, 36, 66, 91, 255, 36, 66, 91, 255, 36, 66, 91, 255, 44, 123, 128, 255, 44, 123, 128, 255, 44, 123, 128, 255, 44, 123, 128, 255, 44, 123, 128, 255, 44, 123, 128, 255, 44, 123, 128, 255, 44, 123, 128, 255, 44, 123, 128, 255, 44, 123, 128, 255, 44, 123, 128, 255, 44, 123, 128, 255, 38, 26, 44, 255, 38, 26, 44, 255, 38, 26, 44, 255, 36, 66, 91, 255, 36, 66, 91, 255, 36, 66, 91, 255, 36, 66, 91, 255, 36, 66, 91, 255, 36, 66, 91, 255, 38, 26, 44, 255, 38, 26, 44, 255, 38, 26, 44, 255, 44, 123, 128, 255, 44, 123, 128, 255, 44, 123, 128, 255, 48, 183, 135, 255, 48, 183, 135, 255, 48, 183, 135, 255, 48, 183, 135, 255, 48, 183, 135, 255, 48, 183, 135, 255, 44, 123, 128, 255, 44, 123, 128, 255, 44, 123, 128, 255, 36, 66, 91, 255, 36, 66, 91, 255, 36, 66, 91, 255, 36, 66, 91, 255, 36, 66, 91, 255, 36, 66, 91, 255, 36, 66, 91, 255, 36, 66, 91, 255, 36, 66, 91, 255, 36, 66, 91, 255, 36, 66, 91, 255, 36, 66, 91, 255, 44, 123, 128, 255, 44, 123, 128, 255, 44, 123, 128, 255, 44, 123, 128, 255, 44, 123, 128, 255, 44, 123, 128, 255, 44, 123, 128, 255, 44, 123, 128, 255, 44, 123, 128, 255, 44, 123, 128, 255, 44, 123, 128, 255, 44, 123, 128, 255, 38, 26, 44, 255, 38, 26, 44, 255, 38, 26, 44, 255, 36, 66, 91, 255, 36, 66, 91, 255, 36, 66, 91, 255, 36, 66, 91, 255, 36, 66, 91, 255, 36, 66, 91, 255, 38, 26, 44, 255, 38, 26, 44, 255, 38, 26, 44, 255, 44, 123, 128, 255, 44, 123, 128, 255, 44, 123, 128, 255, 48, 183, 135, 255, 48, 183, 135, 255, 48, 183, 135, 255, 48, 183, 135, 255, 48, 183, 135, 255, 48, 183, 135, 255, 44, 123, 128, 255, 44, 123, 128, 255, 44, 123, 128, 255, 36, 66, 91, 255, 36, 66, 91, 255, 36, 66, 91, 255, 36, 66, 91, 255, 36, 66, 91, 255, 36, 66, 91, 255, 36, 66, 91, 255, 36, 66, 91, 255, 36, 66, 91, 255, 36, 66, 91, 255, 36, 66, 91, 255, 36, 66, 91, 255, 36, 66, 91, 255, 36, 66, 91, 255, 36, 66, 91, 255, 44, 123, 128, 255, 44, 123, 128, 255, 44, 123, 128, 255, 44, 123, 128, 255, 44, 123, 128, 255, 44, 123, 128, 255, 44, 123, 128, 255, 44, 123, 128, 255, 44, 123, 128, 255, 38, 26, 44, 255, 38, 26, 44, 255, 38, 26, 44, 255, 36, 66, 91, 255, 36, 66, 91, 255, 36, 66, 91, 255, 36, 66, 91, 255, 36, 66, 91, 255, 36, 66, 91, 255, 36, 66, 91, 255, 36, 66, 91, 255, 36, 66, 91, 255, 36, 66, 91, 255, 36, 66, 91, 255, 36, 66, 91, 255, 44, 123, 128, 255, 44, 123, 128, 255, 44, 123, 128, 255, 48, 183, 135, 255, 48, 183, 135, 255, 48, 183, 135, 255, 48, 183, 135, 255, 48, 183, 135, 255, 48, 183, 135, 255, 38, 26, 44, 255, 38, 26, 44, 255, 38, 26, 44, 255, 36, 66, 91, 255, 36, 66, 91, 255, 36, 66, 91, 255, 36, 66, 91, 255, 36, 66, 91, 255, 36, 66, 91, 255, 36, 66, 91, 255, 36, 66, 91, 255, 36, 66, 91, 255, 36, 66, 91, 255, 36, 66, 91, 255, 36, 66, 91, 255, 44, 123, 128, 255, 44, 123, 128, 255, 44, 123, 128, 255, 44, 123, 128, 255, 44, 123, 128, 255, 44, 123, 128, 255, 44, 123, 128, 255, 44, 123, 128, 255, 44, 123, 128, 255, 38, 26, 44, 255, 38, 26, 44, 255, 38, 26, 44, 255, 36, 66, 91, 255, 36, 66, 91, 255, 36, 66, 91, 255, 36, 66, 91, 255, 36, 66, 91, 255, 36, 66, 91, 255, 36, 66, 91, 255, 36, 66, 91, 255, 36, 66, 91, 255, 36, 66, 91, 255, 36, 66, 91, 255, 36, 66, 91, 255, 44, 123, 128, 255, 44, 123, 128, 255, 44, 123, 128, 255, 48, 183, 135, 255, 48, 183, 135, 255, 48, 183, 135, 255, 48, 183, 135, 255, 48, 183, 135, 255, 48, 183, 135, 255, 38, 26, 44, 255, 38, 26, 44, 255, 38, 26, 44, 255, 36, 66, 91, 255, 36, 66, 91, 255, 36, 66, 91, 255, 36, 66, 91, 255, 36, 66, 91, 255, 36, 66, 91, 255, 36, 66, 91, 255, 36, 66, 91, 255, 36, 66, 91, 255, 36, 66, 91, 255, 36, 66, 91, 255, 36, 66, 91, 255, 44, 123, 128, 255, 44, 123, 128, 255, 44, 123, 128, 255, 44, 123, 128, 255, 44, 123, 128, 255, 44, 123, 128, 255, 44, 123, 128, 255, 44, 123, 128, 255, 44, 123, 128, 255, 38, 26, 44, 255, 38, 26, 44, 255, 38, 26, 44, 255, 36, 66, 91, 255, 36, 66, 91, 255, 36, 66, 91, 255, 36, 66, 91, 255, 36, 66, 91, 255, 36, 66, 91, 255, 36, 66, 91, 255, 36, 66, 91, 255, 36, 66, 91, 255, 36, 66, 91, 255, 36, 66, 91, 255, 36, 66, 91, 255, 44, 123, 128, 255, 44, 123, 128, 255, 44, 123, 128, 255, 48, 183, 135, 255, 48, 183, 135, 255, 48, 183, 135, 255, 48, 183, 135, 255, 48, 183, 135, 255, 48, 183, 135, 255, 38, 26, 44, 255, 38, 26, 44, 255, 38, 26, 44, 255, 36, 66, 91, 255, 36, 66, 91, 255, 36, 66, 91, 255, 36, 66, 91, 255, 36, 66, 91, 255, 36, 66, 91, 255, 36, 66, 91, 255, 36, 66, 91, 255, 36, 66, 91, 255, 36, 66, 91, 255, 36, 66, 91, 255, 36, 66, 91, 255, 44, 123, 128, 255, 44, 123, 128, 255, 44, 123, 128, 255, 44, 123, 128, 255, 44, 123, 128, 255, 44, 123, 128, 255, 44, 123, 128, 255, 44, 123, 128, 255, 44, 123, 128, 255, 38, 26, 44, 255, 38, 26, 44, 255, 38, 26, 44, 255, 36, 66, 91, 255, 36, 66, 91, 255, 36, 66, 91, 255, 36, 66, 91, 255, 36, 66, 91, 255, 36, 66, 91, 255, 38, 26, 44, 255, 38, 26, 44, 255, 38, 26, 44, 255, 36, 66, 91, 255, 36, 66, 91, 255, 36, 66, 91, 255, 36, 66, 91, 255, 36, 66, 91, 255, 36, 66, 91, 255, 44, 123, 128, 255, 44, 123, 128, 255, 44, 123, 128, 255, 44, 123, 128, 255, 44, 123, 128, 255, 44, 123, 128, 255, 38, 26, 44, 255, 38, 26, 44, 255, 38, 26, 44, 255, 36, 66, 91, 255, 36, 66, 91, 255, 36, 66, 91, 255, 38, 26, 44, 255, 38, 26, 44, 255, 38, 26, 44, 255, 36, 66, 91, 255, 36, 66, 91, 255, 36, 66, 91, 255, 36, 66, 91, 255, 36, 66, 91, 255, 36, 66, 91, 255, 44, 123, 128, 255, 44, 123, 128, 255, 44, 123, 128, 255, 44, 123, 128, 255, 44, 123, 128, 255, 44, 123, 128, 255, 44, 123, 128, 255, 44, 123, 128, 255, 44, 123, 128, 255, 38, 26, 44, 255, 38, 26, 44, 255, 38, 26, 44, 255, 36, 66, 91, 255, 36, 66, 91, 255, 36, 66, 91, 255, 36, 66, 91, 255, 36, 66, 91, 255, 36, 66, 91, 255, 38, 26, 44, 255, 38, 26, 44, 255, 38, 26, 44, 255, 36, 66, 91, 255, 36, 66, 91, 255, 36, 66, 91, 255, 36, 66, 91, 255, 36, 66, 91, 255, 36, 66, 91, 255, 44, 123, 128, 255, 44, 123, 128, 255, 44, 123, 128, 255, 44, 123, 128, 255, 44, 123, 128, 255, 44, 123, 128, 255, 38, 26, 44, 255, 38, 26, 44, 255, 38, 26, 44, 255, 36, 66, 91, 255, 36, 66, 91, 255, 36, 66, 91, 255, 38, 26, 44, 255, 38, 26, 44, 255, 38, 26, 44, 255, 36, 66, 91, 255, 36, 66, 91, 255, 36, 66, 91, 255, 36, 66, 91, 255, 36, 66, 91, 255, 36, 66, 91, 255, 44, 123, 128, 255, 44, 123, 128, 255, 44, 123, 128, 255, 44, 123, 128, 255, 44, 123, 128, 255, 44, 123, 128, 255, 44, 123, 128, 255, 44, 123, 128, 255, 44, 123, 128, 255, 38, 26, 44, 255, 38, 26, 44, 255, 38, 26, 44, 255, 36, 66, 91, 255, 36, 66, 91, 255, 36, 66, 91, 255, 36, 66, 91, 255, 36, 66, 91, 255, 36, 66, 91, 255, 38, 26, 44, 255, 38, 26, 44, 255, 38, 26, 44, 255, 36, 66, 91, 255, 36, 66, 91, 255, 36, 66, 91, 255, 36, 66, 91, 255, 36, 66, 91, 255, 36, 66, 91, 255, 44, 123, 128, 255, 44, 123, 128, 255, 44, 123, 128, 255, 44, 123, 128, 255, 44, 123, 128, 255, 44, 123, 128, 255, 38, 26, 44, 255, 38, 26, 44, 255, 38, 26, 44, 255, 36, 66, 91, 255, 36, 66, 91, 255, 36, 66, 91, 255, 38, 26, 44, 255, 38, 26, 44, 255, 38, 26, 44, 255, 36, 66, 91, 255, 36, 66, 91, 255, 36, 66, 91, 255, 36, 66, 91, 255, 36, 66, 91, 255, 36, 66, 91, 255, 36, 66, 91, 255, 36, 66, 91, 255, 36, 66, 91, 255, 38, 26, 44, 255, 38, 26, 44, 255, 38, 26, 44, 255, 38, 26, 44, 255, 38, 26, 44, 255, 38, 26, 44, 255, 38, 26, 44, 255, 38, 26, 44, 255, 38, 26, 44, 255, 38, 26, 44, 255, 38, 26, 44, 255, 38, 26, 44, 255, 38, 26, 44, 255, 38, 26, 44, 255, 38, 26, 44, 255, 36, 66, 91, 255, 36, 66, 91, 255, 36, 66, 91, 255, 36, 66, 91, 255, 36, 66, 91, 255, 36, 66, 91, 255, 36, 66, 91, 255, 36, 66, 91, 255, 36, 66, 91, 255, 36, 66, 91, 255, 36, 66, 91, 255, 36, 66, 91, 255, 38, 26, 44, 255, 38, 26, 44, 255, 38, 26, 44, 255, 38, 26, 44, 255, 38, 26, 44, 255, 38, 26, 44, 255, 38, 26, 44, 255, 38, 26, 44, 255, 38, 26, 44, 255, 36, 66, 91, 255, 36, 66, 91, 255, 36, 66, 91, 255, 38, 26, 44, 255, 38, 26, 44, 255, 38, 26, 44, 255, 36, 66, 91, 255, 36, 66, 91, 255, 36, 66, 91, 255, 36, 66, 91, 255, 36, 66, 91, 255, 36, 66, 91, 255, 38, 26, 44, 255, 38, 26, 44, 255, 38, 26, 44, 255, 38, 26, 44, 255, 38, 26, 44, 255, 38, 26, 44, 255, 38, 26, 44, 255, 38, 26, 44, 255, 38, 26, 44, 255, 38, 26, 44, 255, 38, 26, 44, 255, 38, 26, 44, 255, 38, 26, 44, 255, 38, 26, 44, 255, 38, 26, 44, 255, 36, 66, 91, 255, 36, 66, 91, 255, 36, 66, 91, 255, 36, 66, 91, 255, 36, 66, 91, 255, 36, 66, 91, 255, 36, 66, 91, 255, 36, 66, 91, 255, 36, 66, 91, 255, 36, 66, 91, 255, 36, 66, 91, 255, 36, 66, 91, 255, 38, 26, 44, 255, 38, 26, 44, 255, 38, 26, 44, 255, 38, 26, 44, 255, 38, 26, 44, 255, 38, 26, 44, 255, 38, 26, 44, 255, 38, 26, 44, 255, 38, 26, 44, 255, 36, 66, 91, 255, 36, 66, 91, 255, 36, 66, 91, 255, 38, 26, 44, 255, 38, 26, 44, 255, 38, 26, 44, 255, 36, 66, 91, 255, 36, 66, 91, 255, 36, 66, 91, 255, 36, 66, 91, 255, 36, 66, 91, 255, 36, 66, 91, 255, 38, 26, 44, 255, 38, 26, 44, 255, 38, 26, 44, 255, 38, 26, 44, 255, 38, 26, 44, 255, 38, 26, 44, 255, 38, 26, 44, 255, 38, 26, 44, 255, 38, 26, 44, 255, 38, 26, 44, 255, 38, 26, 44, 255, 38, 26, 44, 255, 38, 26, 44, 255, 38, 26, 44, 255, 38, 26, 44, 255, 36, 66, 91, 255, 36, 66, 91, 255, 36, 66, 91, 255, 36, 66, 91, 255, 36, 66, 91, 255, 36, 66, 91, 255, 36, 66, 91, 255, 36, 66, 91, 255, 36, 66, 91, 255, 36, 66, 91, 255, 36, 66, 91, 255, 36, 66, 91, 255, 38, 26, 44, 255, 38, 26, 44, 255, 38, 26, 44, 255, 38, 26, 44, 255, 38, 26, 44, 255, 38, 26, 44, 255, 38, 26, 44, 255, 38, 26, 44, 255, 38, 26, 44, 255, 36, 66, 91, 255, 36, 66, 91, 255, 36, 66, 91, 255, 38, 26, 44, 255, 38, 26, 44, 255, 38, 26, 44, 255, 38, 26, 44, 255, 38, 26, 44, 255, 38, 26, 44, 255, 36, 66, 91, 255, 36, 66, 91, 255, 36, 66, 91, 255, 38, 26, 44, 255, 38, 26, 44, 255, 38, 26, 44, 255, 36, 66, 91, 255, 36, 66, 91, 255, 36, 66, 91, 255, 44, 123, 128, 255, 44, 123, 128, 255, 44, 123, 128, 255, 44, 123, 128, 255, 44, 123, 128, 255, 44, 123, 128, 255, 38, 26, 44, 255, 38, 26, 44, 255, 38, 26, 44, 255, 38, 26, 44, 255, 38, 26, 44, 255, 38, 26, 44, 255, 36, 66, 91, 255, 36, 66, 91, 255, 36, 66, 91, 255, 36, 66, 91, 255, 36, 66, 91, 255, 36, 66, 91, 255, 36, 66, 91, 255, 36, 66, 91, 255, 36, 66, 91, 255, 38, 26, 44, 255, 38, 26, 44, 255, 38, 26, 44, 255, 36, 66, 91, 255, 36, 66, 91, 255, 36, 66, 91, 255, 44, 123, 128, 255, 44, 123, 128, 255, 44, 123, 128, 255, 44, 123, 128, 255, 44, 123, 128, 255, 44, 123, 128, 255, 38, 26, 44, 255, 38, 26, 44, 255, 38, 26, 44, 255, 38, 26, 44, 255, 38, 26, 44, 255, 38, 26, 44, 255, 36, 66, 91, 255, 36, 66, 91, 255, 36, 66, 91, 255, 38, 26, 44, 255, 38, 26, 44, 255, 38, 26, 44, 255, 36, 66, 91, 255, 36, 66, 91, 255, 36, 66, 91, 255, 44, 123, 128, 255, 44, 123, 128, 255, 44, 123, 128, 255, 44, 123, 128, 255, 44, 123, 128, 255, 44, 123, 128, 255, 38, 26, 44, 255, 38, 26, 44, 255, 38, 26, 44, 255, 38, 26, 44, 255, 38, 26, 44, 255, 38, 26, 44, 255, 36, 66, 91, 255, 36, 66, 91, 255, 36, 66, 91, 255, 36, 66, 91, 255, 36, 66, 91, 255, 36, 66, 91, 255, 36, 66, 91, 255, 36, 66, 91, 255, 36, 66, 91, 255, 38, 26, 44, 255, 38, 26, 44, 255, 38, 26, 44, 255, 36, 66, 91, 255, 36, 66, 91, 255, 36, 66, 91, 255, 44, 123, 128, 255, 44, 123, 128, 255, 44, 123, 128, 255, 44, 123, 128, 255, 44, 123, 128, 255, 44, 123, 128, 255, 38, 26, 44, 255, 38, 26, 44, 255, 38, 26, 44, 255, 38, 26, 44, 255, 38, 26, 44, 255, 38, 26, 44, 255, 36, 66, 91, 255, 36, 66, 91, 255, 36, 66, 91, 255, 38, 26, 44, 255, 38, 26, 44, 255, 38, 26, 44, 255, 36, 66, 91, 255, 36, 66, 91, 255, 36, 66, 91, 255, 44, 123, 128, 255, 44, 123, 128, 255, 44, 123, 128, 255, 44, 123, 128, 255, 44, 123, 128, 255, 44, 123, 128, 255, 38, 26, 44, 255, 38, 26, 44, 255, 38, 26, 44, 255, 38, 26, 44, 255, 38, 26, 44, 255, 38, 26, 44, 255, 36, 66, 91, 255, 36, 66, 91, 255, 36, 66, 91, 255, 36, 66, 91, 255, 36, 66, 91, 255, 36, 66, 91, 255, 36, 66, 91, 255, 36, 66, 91, 255, 36, 66, 91, 255, 38, 26, 44, 255, 38, 26, 44, 255, 38, 26, 44, 255, 36, 66, 91, 255, 36, 66, 91, 255, 36, 66, 91, 255, 44, 123, 128, 255, 44, 123, 128, 255, 44, 123, 128, 255, 44, 123, 128, 255, 44, 123, 128, 255, 44, 123, 128, 255, 38, 26, 44, 255, 38, 26, 44, 255, 38, 26, 44, 255, 36, 66, 91, 255, 36, 66, 91, 255, 36, 66, 91, 255, 38, 26, 44, 255, 38, 26, 44, 255, 38, 26, 44, 255, 36, 66, 91, 255, 36, 66, 91, 255, 36, 66, 91, 255, 36, 66, 91, 255, 36, 66, 91, 255, 36, 66, 91, 255, 36, 66, 91, 255, 36, 66, 91, 255, 36, 66, 91, 255, 36, 66, 91, 255, 36, 66, 91, 255, 36, 66, 91, 255, 38, 26, 44, 255, 38, 26, 44, 255, 38, 26, 44, 255, 36, 66, 91, 255, 36, 66, 91, 255, 36, 66, 91, 255, 38, 26, 44, 255, 38, 26, 44, 255, 38, 26, 44, 255, 36, 66, 91, 255, 36, 66, 91, 255, 36, 66, 91, 255, 36, 66, 91, 255, 36, 66, 91, 255, 36, 66, 91, 255, 38, 26, 44, 255, 38, 26, 44, 255, 38, 26, 44, 255, 36, 66, 91, 255, 36, 66, 91, 255, 36, 66, 91, 255, 36, 66, 91, 255, 36, 66, 91, 255, 36, 66, 91, 255, 44, 123, 128, 255, 44, 123, 128, 255, 44, 123, 128, 255, 38, 26, 44, 255, 38, 26, 44, 255, 38, 26, 44, 255, 36, 66, 91, 255, 36, 66, 91, 255, 36, 66, 91, 255, 38, 26, 44, 255, 38, 26, 44, 255, 38, 26, 44, 255, 36, 66, 91, 255, 36, 66, 91, 255, 36, 66, 91, 255, 36, 66, 91, 255, 36, 66, 91, 255, 36, 66, 91, 255, 36, 66, 91, 255, 36, 66, 91, 255, 36, 66, 91, 255, 36, 66, 91, 255, 36, 66, 91, 255, 36, 66, 91, 255, 38, 26, 44, 255, 38, 26, 44, 255, 38, 26, 44, 255, 36, 66, 91, 255, 36, 66, 91, 255, 36, 66, 91, 255, 38, 26, 44, 255, 38, 26, 44, 255, 38, 26, 44, 255, 36, 66, 91, 255, 36, 66, 91, 255, 36, 66, 91, 255, 36, 66, 91, 255, 36, 66, 91, 255, 36, 66, 91, 255, 38, 26, 44, 255, 38, 26, 44, 255, 38, 26, 44, 255, 36, 66, 91, 255, 36, 66, 91, 255, 36, 66, 91, 255, 36, 66, 91, 255, 36, 66, 91, 255, 36, 66, 91, 255, 44, 123, 128, 255, 44, 123, 128, 255, 44, 123, 128, 255, 38, 26, 44, 255, 38, 26, 44, 255, 38, 26, 44, 255, 36, 66, 91, 255, 36, 66, 91, 255, 36, 66, 91, 255, 38, 26, 44, 255, 38, 26, 44, 255, 38, 26, 44, 255, 36, 66, 91, 255, 36, 66, 91, 255, 36, 66, 91, 255, 36, 66, 91, 255, 36, 66, 91, 255, 36, 66, 91, 255, 36, 66, 91, 255, 36, 66, 91, 255, 36, 66, 91, 255, 36, 66, 91, 255, 36, 66, 91, 255, 36, 66, 91, 255, 38, 26, 44, 255, 38, 26, 44, 255, 38, 26, 44, 255, 36, 66, 91, 255, 36, 66, 91, 255, 36, 66, 91, 255, 38, 26, 44, 255, 38, 26, 44, 255, 38, 26, 44, 255, 36, 66, 91, 255, 36, 66, 91, 255, 36, 66, 91, 255, 36, 66, 91, 255, 36, 66, 91, 255, 36, 66, 91, 255, 38, 26, 44, 255, 38, 26, 44, 255, 38, 26, 44, 255, 36, 66, 91, 255, 36, 66, 91, 255, 36, 66, 91, 255, 36, 66, 91, 255, 36, 66, 91, 255, 36, 66, 91, 255, 44, 123, 128, 255, 44, 123, 128, 255, 44, 123, 128, 255, 38, 26, 44, 255, 38, 26, 44, 255, 38, 26, 44, 255, 38, 26, 44, 255, 38, 26, 44, 255, 38, 26, 44, 255, 38, 26, 44, 255, 38, 26, 44, 255, 38, 26, 44, 255, 38, 26, 44, 255, 38, 26, 44, 255, 38, 26, 44, 255, 38, 26, 44, 255, 38, 26, 44, 255, 38, 26, 44, 255, 36, 66, 91, 255, 36, 66, 91, 255, 36, 66, 91, 255, 36, 66, 91, 255, 36, 66, 91, 255, 36, 66, 91, 255, 38, 26, 44, 255, 38, 26, 44, 255, 38, 26, 44, 255, 38, 26, 44, 255, 38, 26, 44, 255, 38, 26, 44, 255, 36, 66, 91, 255, 36, 66, 91, 255, 36, 66, 91, 255, 38, 26, 44, 255, 38, 26, 44, 255, 38, 26, 44, 255, 36, 66, 91, 255, 36, 66, 91, 255, 36, 66, 91, 255, 38, 26, 44, 255, 38, 26, 44, 255, 38, 26, 44, 255, 38, 26, 44, 255, 38, 26, 44, 255, 38, 26, 44, 255, 36, 66, 91, 255, 36, 66, 91, 255, 36, 66, 91, 255, 36, 66, 91, 255, 36, 66, 91, 255, 36, 66, 91, 255, 38, 26, 44, 255, 38, 26, 44, 255, 38, 26, 44, 255, 38, 26, 44, 255, 38, 26, 44, 255, 38, 26, 44, 255, 38, 26, 44, 255, 38, 26, 44, 255, 38, 26, 44, 255, 38, 26, 44, 255, 38, 26, 44, 255, 38, 26, 44, 255, 38, 26, 44, 255, 38, 26, 44, 255, 38, 26, 44, 255, 36, 66, 91, 255, 36, 66, 91, 255, 36, 66, 91, 255, 36, 66, 91, 255, 36, 66, 91, 255, 36, 66, 91, 255, 38, 26, 44, 255, 38, 26, 44, 255, 38, 26, 44, 255, 38, 26, 44, 255, 38, 26, 44, 255, 38, 26, 44, 255, 36, 66, 91, 255, 36, 66, 91, 255, 36, 66, 91, 255, 38, 26, 44, 255, 38, 26, 44, 255, 38, 26, 44, 255, 36, 66, 91, 255, 36, 66, 91, 255, 36, 66, 91, 255, 38, 26, 44, 255, 38, 26, 44, 255, 38, 26, 44, 255, 38, 26, 44, 255, 38, 26, 44, 255, 38, 26, 44, 255, 36, 66, 91, 255, 36, 66, 91, 255, 36, 66, 91, 255, 36, 66, 91, 255, 36, 66, 91, 255, 36, 66, 91, 255, 38, 26, 44, 255, 38, 26, 44, 255, 38, 26, 44, 255, 38, 26, 44, 255, 38, 26, 44, 255, 38, 26, 44, 255, 38, 26, 44, 255, 38, 26, 44, 255, 38, 26, 44, 255, 38, 26, 44, 255, 38, 26, 44, 255, 38, 26, 44, 255, 38, 26, 44, 255, 38, 26, 44, 255, 38, 26, 44, 255, 36, 66, 91, 255, 36, 66, 91, 255, 36, 66, 91, 255, 36, 66, 91, 255, 36, 66, 91, 255, 36, 66, 91, 255, 38, 26, 44, 255, 38, 26, 44, 255, 38, 26, 44, 255, 38, 26, 44, 255, 38, 26, 44, 255, 38, 26, 44, 255, 36, 66, 91, 255, 36, 66, 91, 255, 36, 66, 91, 255, 38, 26, 44, 255, 38, 26, 44, 255, 38, 26, 44, 255, 36, 66, 91, 255, 36, 66, 91, 255, 36, 66, 91, 255, 38, 26, 44, 255, 38, 26, 44, 255, 38, 26, 44, 255, 38, 26, 44, 255, 38, 26, 44, 255, 38, 26, 44, 255, 36, 66, 91, 255, 36, 66, 91, 255, 36, 66, 91, 255, 36, 66, 91, 255, 36, 66, 91, 255, 36, 66, 91, 255, 38, 26, 44, 255, 38, 26, 44, 255, 38, 26, 44, 255, 38, 26, 44, 255, 38, 26, 44, 255, 38, 26, 44, 255, 36, 66, 91, 255, 36, 66, 91, 255, 36, 66, 91, 255, 36, 66, 91, 255, 36, 66, 91, 255, 36, 66, 91, 255, 38, 26, 44, 255, 38, 26, 44, 255, 38, 26, 44, 255, 38, 26, 44, 255, 38, 26, 44, 255, 38, 26, 44, 255, 38, 26, 44, 255, 38, 26, 44, 255, 38, 26, 44, 255, 38, 26, 44, 255, 38, 26, 44, 255, 38, 26, 44, 255, 38, 26, 44, 255, 38, 26, 44, 255, 38, 26, 44, 255, 38, 26, 44, 255, 38, 26, 44, 255, 38, 26, 44, 255, 38, 26, 44, 255, 38, 26, 44, 255, 38, 26, 44, 255, 38, 26, 44, 255, 38, 26, 44, 255, 38, 26, 44, 255, 38, 26, 44, 255, 38, 26, 44, 255, 38, 26, 44, 255, 38, 26, 44, 255, 38, 26, 44, 255, 38, 26, 44, 255, 36, 66, 91, 255, 36, 66, 91, 255, 36, 66, 91, 255, 36, 66, 91, 255, 36, 66, 91, 255, 36, 66, 91, 255, 38, 26, 44, 255, 38, 26, 44, 255, 38, 26, 44, 255, 38, 26, 44, 255, 38, 26, 44, 255, 38, 26, 44, 255, 36, 66, 91, 255, 36, 66, 91, 255, 36, 66, 91, 255, 36, 66, 91, 255, 36, 66, 91, 255, 36, 66, 91, 255, 38, 26, 44, 255, 38, 26, 44, 255, 38, 26, 44, 255, 38, 26, 44, 255, 38, 26, 44, 255, 38, 26, 44, 255, 38, 26, 44, 255, 38, 26, 44, 255, 38, 26, 44, 255, 38, 26, 44, 255, 38, 26, 44, 255, 38, 26, 44, 255, 38, 26, 44, 255, 38, 26, 44, 255, 38, 26, 44, 255, 38, 26, 44, 255, 38, 26, 44, 255, 38, 26, 44, 255, 38, 26, 44, 255, 38, 26, 44, 255, 38, 26, 44, 255, 38, 26, 44, 255, 38, 26, 44, 255, 38, 26, 44, 255, 38, 26, 44, 255, 38, 26, 44, 255, 38, 26, 44, 255, 38, 26, 44, 255, 38, 26, 44, 255, 38, 26, 44, 255, 36, 66, 91, 255, 36, 66, 91, 255, 36, 66, 91, 255, 36, 66, 91, 255, 36, 66, 91, 255, 36, 66, 91, 255, 38, 26, 44, 255, 38, 26, 44, 255, 38, 26, 44, 255, 38, 26, 44, 255, 38, 26, 44, 255, 38, 26, 44, 255, 36, 66, 91, 255, 36, 66, 91, 255, 36, 66, 91, 255, 36, 66, 91, 255, 36, 66, 91, 255, 36, 66, 91, 255, 38, 26, 44, 255, 38, 26, 44, 255, 38, 26, 44, 255, 38, 26, 44, 255, 38, 26, 44, 255, 38, 26, 44, 255, 38, 26, 44, 255, 38, 26, 44, 255, 38, 26, 44, 255, 38, 26, 44, 255, 38, 26, 44, 255, 38, 26, 44, 255, 38, 26, 44, 255, 38, 26, 44, 255, 38, 26, 44, 255, 38, 26, 44, 255, 38, 26, 44, 255, 38, 26, 44, 255, 38, 26, 44, 255, 38, 26, 44, 255, 38, 26, 44, 255, 38, 26, 44, 255, 38, 26, 44, 255, 38, 26, 44, 255, 38, 26, 44, 255, 38, 26, 44, 255, 38, 26, 44, 255, 38, 26, 44, 255, 38, 26, 44, 255, 38, 26, 44, 255, 36, 66, 91, 255, 36, 66, 91, 255, 36, 66, 91, 255, 36, 66, 91, 255, 36, 66, 91, 255, 36, 66, 91, 255, 38, 26, 44, 255, 38, 26, 44, 255, 38, 26, 44, 255, 38, 26, 44, 255, 38, 26, 44, 255, 38, 26, 44, 255, 36, 66, 91, 255, 36, 66, 91, 255, 36, 66, 91, 255, 36, 66, 91, 255, 36, 66, 91, 255, 36, 66, 91, 255, 36, 66, 91, 255, 36, 66, 91, 255, 36, 66, 91, 255, 38, 26, 44, 255, 38, 26, 44, 255, 38, 26, 44, 255, 38, 26, 44, 255, 38, 26, 44, 255, 38, 26, 44, 255, 38, 26, 44, 255, 38, 26, 44, 255, 38, 26, 44, 255, 38, 26, 44, 255, 38, 26, 44, 255, 38, 26, 44, 255, 38, 26, 44, 255, 38, 26, 44, 255, 38, 26, 44, 255, 36, 66, 91, 255, 36, 66, 91, 255, 36, 66, 91, 255, 36, 66, 91, 255, 36, 66, 91, 255, 36, 66, 91, 255, 38, 26, 44, 255, 38, 26, 44, 255, 38, 26, 44, 255, 38, 26, 44, 255, 38, 26, 44, 255, 38, 26, 44, 255, 38, 26, 44, 255, 38, 26, 44, 255, 38, 26, 44, 255, 38, 26, 44, 255, 38, 26, 44, 255, 38, 26, 44, 255, 38, 26, 44, 255, 38, 26, 44, 255, 38, 26, 44, 255, 38, 26, 44, 255, 38, 26, 44, 255, 38, 26, 44, 255, 36, 66, 91, 255, 36, 66, 91, 255, 36, 66, 91, 255, 36, 66, 91, 255, 36, 66, 91, 255, 36, 66, 91, 255, 36, 66, 91, 255, 36, 66, 91, 255, 36, 66, 91, 255, 38, 26, 44, 255, 38, 26, 44, 255, 38, 26, 44, 255, 38, 26, 44, 255, 38, 26, 44, 255, 38, 26, 44, 255, 38, 26, 44, 255, 38, 26, 44, 255, 38, 26, 44, 255, 38, 26, 44, 255, 38, 26, 44, 255, 38, 26, 44, 255, 38, 26, 44, 255, 38, 26, 44, 255, 38, 26, 44, 255, 36, 66, 91, 255, 36, 66, 91, 255, 36, 66, 91, 255, 36, 66, 91, 255, 36, 66, 91, 255, 36, 66, 91, 255, 38, 26, 44, 255, 38, 26, 44, 255, 38, 26, 44, 255, 38, 26, 44, 255, 38, 26, 44, 255, 38, 26, 44, 255, 38, 26, 44, 255, 38, 26, 44, 255, 38, 26, 44, 255, 38, 26, 44, 255, 38, 26, 44, 255, 38, 26, 44, 255, 38, 26, 44, 255, 38, 26, 44, 255, 38, 26, 44, 255, 38, 26, 44, 255, 38, 26, 44, 255, 38, 26, 44, 255, 36, 66, 91, 255, 36, 66, 91, 255, 36, 66, 91, 255, 36, 66, 91, 255, 36, 66, 91, 255, 36, 66, 91, 255, 36, 66, 91, 255, 36, 66, 91, 255, 36, 66, 91, 255, 38, 26, 44, 255, 38, 26, 44, 255, 38, 26, 44, 255, 38, 26, 44, 255, 38, 26, 44, 255, 38, 26, 44, 255, 38, 26, 44, 255, 38, 26, 44, 255, 38, 26, 44, 255, 38, 26, 44, 255, 38, 26, 44, 255, 38, 26, 44, 255, 38, 26, 44, 255, 38, 26, 44, 255, 38, 26, 44, 255, 36, 66, 91, 255, 36, 66, 91, 255, 36, 66, 91, 255, 36, 66, 91, 255, 36, 66, 91, 255, 36, 66, 91, 255, 38, 26, 44, 255, 38, 26, 44, 255, 38, 26, 44, 255, 38, 26, 44, 255, 38, 26, 44, 255, 38, 26, 44, 255, 38, 26, 44, 255, 38, 26, 44, 255, 38, 26, 44, 255, 38, 26, 44, 255, 38, 26, 44, 255, 38, 26, 44, 255, 38, 26, 44, 255, 38, 26, 44, 255, 38, 26, 44, 255, 38, 26, 44, 255, 38, 26, 44, 255, 38, 26, 44, 255, 38, 26, 44, 255, 38, 26, 44, 255, 38, 26, 44, 255, 36, 66, 91, 255, 36, 66, 91, 255, 36, 66, 91, 255, 38, 26, 44, 255, 38, 26, 44, 255, 38, 26, 44, 255, 38, 26, 44, 255, 38, 26, 44, 255, 38, 26, 44, 255, 38, 26, 44, 255, 38, 26, 44, 255, 38, 26, 44, 255, 38, 26, 44, 255, 38, 26, 44, 255, 38, 26, 44, 255, 38, 26, 44, 255, 38, 26, 44, 255, 38, 26, 44, 255, 36, 66, 91, 255, 36, 66, 91, 255, 36, 66, 91, 255, 38, 26, 44, 255, 38, 26, 44, 255, 38, 26, 44, 255, 36, 66, 91, 255, 36, 66, 91, 255, 36, 66, 91, 255, 38, 26, 44, 255, 38, 26, 44, 255, 38, 26, 44, 255, 38, 26, 44, 255, 38, 26, 44, 255, 38, 26, 44, 255, 38, 26, 44, 255, 38, 26, 44, 255, 38, 26, 44, 255, 38, 26, 44, 255, 38, 26, 44, 255, 38, 26, 44, 255, 38, 26, 44, 255, 38, 26, 44, 255, 38, 26, 44, 255, 38, 26, 44, 255, 38, 26, 44, 255, 38, 26, 44, 255, 38, 26, 44, 255, 38, 26, 44, 255, 38, 26, 44, 255, 36, 66, 91, 255, 36, 66, 91, 255, 36, 66, 91, 255, 38, 26, 44, 255, 38, 26, 44, 255, 38, 26, 44, 255, 38, 26, 44, 255, 38, 26, 44, 255, 38, 26, 44, 255, 38, 26, 44, 255, 38, 26, 44, 255, 38, 26, 44, 255, 38, 26, 44, 255, 38, 26, 44, 255, 38, 26, 44, 255, 38, 26, 44, 255, 38, 26, 44, 255, 38, 26, 44, 255, 36, 66, 91, 255, 36, 66, 91, 255, 36, 66, 91, 255, 38, 26, 44, 255, 38, 26, 44, 255, 38, 26, 44, 255, 36, 66, 91, 255, 36, 66, 91, 255, 36, 66, 91, 255, 38, 26, 44, 255, 38, 26, 44, 255, 38, 26, 44, 255, 38, 26, 44, 255, 38, 26, 44, 255, 38, 26, 44, 255, 38, 26, 44, 255, 38, 26, 44, 255, 38, 26, 44, 255, 38, 26, 44, 255, 38, 26, 44, 255, 38, 26, 44, 255, 38, 26, 44, 255, 38, 26, 44, 255, 38, 26, 44, 255, 38, 26, 44, 255, 38, 26, 44, 255, 38, 26, 44, 255, 38, 26, 44, 255, 38, 26, 44, 255, 38, 26, 44, 255, 36, 66, 91, 255, 36, 66, 91, 255, 36, 66, 91, 255, 38, 26, 44, 255, 38, 26, 44, 255, 38, 26, 44, 255, 38, 26, 44, 255, 38, 26, 44, 255, 38, 26, 44, 255, 38, 26, 44, 255, 38, 26, 44, 255, 38, 26, 44, 255, 38, 26, 44, 255, 38, 26, 44, 255, 38, 26, 44, 255, 38, 26, 44, 255, 38, 26, 44, 255, 38, 26, 44, 255, 36, 66, 91, 255, 36, 66, 91, 255, 36, 66, 91, 255, 38, 26, 44, 255, 38, 26, 44, 255, 38, 26, 44, 255, 36, 66, 91, 255, 36, 66, 91, 255, 36, 66, 91, 255, 38, 26, 44, 255, 38, 26, 44, 255, 38, 26, 44, 255, 38, 26, 44, 255, 38, 26, 44, 255, 38, 26, 44, 255, 38, 26, 44, 255, 38, 26, 44, 255, 38, 26, 44, 255, 38, 26, 44, 255, 38, 26, 44, 255, 38, 26, 44, 255, 38, 26, 44, 255, 38, 26, 44, 255, 38, 26, 44, 255 )
size = Vector2( 48, 48 )
storage = 0
lossy_quality = 0.7

[sub_resource type="RectangleShape2D" id=4]

custom_solver_bias = 0.0
extents = Vector2( 24, 10.5 )

[node name="CavernTileset" type="Node2D"]

transform/pos = Vector2( 0, -0.0694427 )

[node name="CavernTile_1" type="Sprite" parent="."]

editor/display_folded = true
texture = SubResource( 1 )

[node name="StaticBody2D" type="StaticBody2D" parent="CavernTile_1"]

input/pickable = false
shapes/0/shape = SubResource( 2 )
shapes/0/transform = Matrix32( 1, 0, 0, 1, 0, 0 )
shapes/0/trigger = false
collision/layers = 1
collision/mask = 1
constant_linear_velocity = Vector2( 0, 0 )
constant_angular_velocity = 0.0
friction = 1.0
bounce = 0.0

[node name="CollisionShape2D" type="CollisionShape2D" parent="CavernTile_1/StaticBody2D"]

shape = SubResource( 2 )
trigger = false
_update_shape_index = 0

[node name="CavernTile_2" type="Sprite" parent="."]

editor/display_folded = true
texture = SubResource( 3 )

[node name="StaticBody2D" type="StaticBody2D" parent="CavernTile_2"]

input/pickable = false
shapes/0/shape = SubResource( 2 )
shapes/0/transform = Matrix32( 1, 0, 0, 1, 0, 0 )
shapes/0/trigger = false
collision/layers = 1
collision/mask = 1
constant_linear_velocity = Vector2( 0, 0 )
constant_angular_velocity = 0.0
friction = 1.0
bounce = 0.0

[node name="CollisionShape2D" type="CollisionShape2D" parent="CavernTile_2/StaticBody2D"]

shape = SubResource( 2 )
trigger = false
_update_shape_index = 0

[node name="CavernTile_3" type="Sprite" parent="."]

editor/display_folded = true
texture = ExtResource( 1 )

[node name="StaticBody2D" type="StaticBody2D" parent="CavernTile_3"]

input/pickable = false
shapes/0/shape = SubResource( 2 )
shapes/0/transform = Matrix32( 1, 0, 0, 1, 0, 0 )
shapes/0/trigger = false
collision/layers = 1
collision/mask = 1
constant_linear_velocity = Vector2( 0, 0 )
constant_angular_velocity = 0.0
friction = 1.0
bounce = 0.0

[node name="CollisionShape2D" type="CollisionShape2D" parent="CavernTile_3/StaticBody2D"]

shape = SubResource( 2 )
trigger = false
_update_shape_index = 0

[node name="CavernTile_4" type="Sprite" parent="."]

editor/display_folded = true
texture = ExtResource( 2 )

[node name="StaticBody2D" type="StaticBody2D" parent="CavernTile_4"]

input/pickable = false
shapes/0/shape = SubResource( 2 )
shapes/0/transform = Matrix32( 1, 0, 0, 1, 0, 0 )
shapes/0/trigger = false
collision/layers = 1
collision/mask = 1
constant_linear_velocity = Vector2( 0, 0 )
constant_angular_velocity = 0.0
friction = 1.0
bounce = 0.0

[node name="CollisionShape2D" type="CollisionShape2D" parent="CavernTile_4/StaticBody2D"]

shape = SubResource( 2 )
trigger = false
_update_shape_index = 0

[node name="CavernTile_5" type="Sprite" parent="."]

editor/display_folded = true
texture = ExtResource( 3 )

[node name="StaticBody2D" type="StaticBody2D" parent="CavernTile_5"]

input/pickable = false
shapes/0/shape = SubResource( 2 )
shapes/0/transform = Matrix32( 1, 0, 0, 1, 0, 0 )
shapes/0/trigger = false
collision/layers = 1
collision/mask = 1
constant_linear_velocity = Vector2( 0, 0 )
constant_angular_velocity = 0.0
friction = 1.0
bounce = 0.0

[node name="CollisionShape2D" type="CollisionShape2D" parent="CavernTile_5/StaticBody2D"]

shape = SubResource( 2 )
trigger = false
_update_shape_index = 0

[node name="CavernTile_6" type="Sprite" parent="."]

texture = ExtResource( 4 )

[node name="CavernTile_7" type="Sprite" parent="."]

texture = ExtResource( 5 )

[node name="CavernTile_8" type="Sprite" parent="."]

texture = ExtResource( 6 )

[node name="CavernTile_9" type="Sprite" parent="."]

editor/display_folded = true
texture = ExtResource( 7 )

[node name="StaticBody2D" type="StaticBody2D" parent="CavernTile_9"]

input/pickable = false
shapes/0/shape = SubResource( 2 )
shapes/0/transform = Matrix32( 1, 0, 0, 1, 0, 0 )
shapes/0/trigger = false
collision/layers = 1
collision/mask = 1
constant_linear_velocity = Vector2( 0, 0 )
constant_angular_velocity = 0.0
friction = 1.0
bounce = 0.0

[node name="CollisionShape2D" type="CollisionShape2D" parent="CavernTile_9/StaticBody2D"]

shape = SubResource( 2 )
trigger = false
_update_shape_index = 0

[node name="CavernTile_10" type="Sprite" parent="."]

texture = ExtResource( 8 )

[node name="CavernTile_11" type="Sprite" parent="."]

texture = ExtResource( 9 )

[node name="CavernTile_12" type="Sprite" parent="."]

editor/display_folded = true
texture = ExtResource( 10 )

[node name="StaticBody2D" type="StaticBody2D" parent="CavernTile_12"]

input/pickable = false
shapes/0/shape = SubResource( 2 )
shapes/0/transform = Matrix32( 1, 0, 0, 1, 0, 0 )
shapes/0/trigger = false
collision/layers = 1
collision/mask = 1
constant_linear_velocity = Vector2( 0, 0 )
constant_angular_velocity = 0.0
friction = 1.0
bounce = 0.0

[node name="CollisionShape2D" type="CollisionShape2D" parent="CavernTile_12/StaticBody2D"]

shape = SubResource( 2 )
trigger = false
_update_shape_index = 0

[node name="CavernTile_13" type="Sprite" parent="."]

editor/display_folded = true
texture = ExtResource( 11 )

[node name="StaticBody2D" type="StaticBody2D" parent="CavernTile_13"]

input/pickable = false
shapes/0/shape = SubResource( 2 )
shapes/0/transform = Matrix32( 1, 0, 0, 1, 0, 0 )
shapes/0/trigger = false
collision/layers = 1
collision/mask = 1
constant_linear_velocity = Vector2( 0, 0 )
constant_angular_velocity = 0.0
friction = 1.0
bounce = 0.0

[node name="CollisionShape2D" type="CollisionShape2D" parent="CavernTile_13/StaticBody2D"]

shape = SubResource( 2 )
trigger = false
_update_shape_index = 0

[node name="CavernTile_14" type="Sprite" parent="."]

editor/display_folded = true
texture = ExtResource( 12 )

[node name="StaticBody2D" type="StaticBody2D" parent="CavernTile_14"]

input/pickable = false
shapes/0/shape = SubResource( 2 )
shapes/0/transform = Matrix32( 1, 0, 0, 1, 0, 0 )
shapes/0/trigger = false
collision/layers = 1
collision/mask = 1
constant_linear_velocity = Vector2( 0, 0 )
constant_angular_velocity = 0.0
friction = 1.0
bounce = 0.0

[node name="CollisionShape2D" type="CollisionShape2D" parent="CavernTile_14/StaticBody2D"]

shape = SubResource( 2 )
trigger = false
_update_shape_index = 0

[node name="CavernTile_15" type="Sprite" parent="."]

editor/display_folded = true
texture = ExtResource( 13 )

[node name="StaticBody2D" type="StaticBody2D" parent="CavernTile_15"]

input/pickable = false
shapes/0/shape = SubResource( 2 )
shapes/0/transform = Matrix32( 1, 0, 0, 1, 0, 0 )
shapes/0/trigger = false
collision/layers = 1
collision/mask = 1
constant_linear_velocity = Vector2( 0, 0 )
constant_angular_velocity = 0.0
friction = 1.0
bounce = 0.0

[node name="CollisionShape2D" type="CollisionShape2D" parent="CavernTile_15/StaticBody2D"]

shape = SubResource( 2 )
trigger = false
_update_shape_index = 0

[node name="CavernTile_16" type="Sprite" parent="."]

editor/display_folded = true
texture = ExtResource( 14 )

[node name="StaticBody2D" type="StaticBody2D" parent="CavernTile_16"]

input/pickable = false
shapes/0/shape = SubResource( 4 )
shapes/0/transform = Matrix32( 1, 0, 0, 1, 0, 0 )
shapes/0/trigger = false
collision/layers = 1
collision/mask = 1
constant_linear_velocity = Vector2( 0, 0 )
constant_angular_velocity = 0.0
friction = 1.0
bounce = 0.0

[node name="CollisionShape2D" type="CollisionShape2D" parent="CavernTile_16/StaticBody2D"]

shape = SubResource( 4 )
trigger = false
_update_shape_index = 0

[node name="CavernTile_17" type="Sprite" parent="."]

editor/display_folded = true
texture = ExtResource( 15 )

[node name="StaticBody2D" type="StaticBody2D" parent="CavernTile_17"]

input/pickable = false
shapes/0/shape = SubResource( 2 )
shapes/0/transform = Matrix32( 1, 0, 0, 1, 0, 0 )
shapes/0/trigger = false
collision/layers = 1
collision/mask = 1
constant_linear_velocity = Vector2( 0, 0 )
constant_angular_velocity = 0.0
friction = 1.0
bounce = 0.0

[node name="CollisionShape2D" type="CollisionShape2D" parent="CavernTile_17/StaticBody2D"]

shape = SubResource( 2 )
trigger = false
_update_shape_index = 0

[node name="CavernTile_18" type="Sprite" parent="."]

texture = ExtResource( 16 )

[node name="CavernTile_19" type="Sprite" parent="."]

editor/display_folded = true
texture = ExtResource( 17 )

[node name="StaticBody2D" type="StaticBody2D" parent="CavernTile_19"]

input/pickable = false
shapes/0/shape = SubResource( 2 )
shapes/0/transform = Matrix32( 1, 0, 0, 1, 0, 0 )
shapes/0/trigger = false
collision/layers = 1
collision/mask = 1
constant_linear_velocity = Vector2( 0, 0 )
constant_angular_velocity = 0.0
friction = 1.0
bounce = 0.0

[node name="CollisionShape2D" type="CollisionShape2D" parent="CavernTile_19/StaticBody2D"]

shape = SubResource( 2 )
trigger = false
_update_shape_index = 0

[node name="CavernTile_20" type="Sprite" parent="."]

editor/display_folded = true
texture = ExtResource( 18 )

[node name="StaticBody2D" type="StaticBody2D" parent="CavernTile_20"]

input/pickable = false
shapes/0/shape = SubResource( 2 )
shapes/0/transform = Matrix32( 1, 0, 0, 1, 0, 0 )
shapes/0/trigger = false
collision/layers = 1
collision/mask = 1
constant_linear_velocity = Vector2( 0, 0 )
constant_angular_velocity = 0.0
friction = 1.0
bounce = 0.0

[node name="CollisionShape2D" type="CollisionShape2D" parent="CavernTile_20/StaticBody2D"]

shape = SubResource( 2 )
trigger = false
_update_shape_index = 0

[node name="CavernTile_21" type="Sprite" parent="."]

editor/display_folded = true
texture = ExtResource( 19 )

[node name="StaticBody2D" type="StaticBody2D" parent="CavernTile_21"]

input/pickable = false
shapes/0/shape = SubResource( 2 )
shapes/0/transform = Matrix32( 1, 0, 0, 1, 0, 0 )
shapes/0/trigger = false
collision/layers = 1
collision/mask = 1
constant_linear_velocity = Vector2( 0, 0 )
constant_angular_velocity = 0.0
friction = 1.0
bounce = 0.0

[node name="CollisionShape2D" type="CollisionShape2D" parent="CavernTile_21/StaticBody2D"]

shape = SubResource( 2 )
trigger = false
_update_shape_index = 0

[node name="CavernTile_22" type="Sprite" parent="."]

editor/display_folded = true
texture = ExtResource( 20 )

[node name="StaticBody2D" type="StaticBody2D" parent="CavernTile_22"]

input/pickable = false
shapes/0/shape = SubResource( 2 )
shapes/0/transform = Matrix32( 1, 0, 0, 1, 0, 0 )
shapes/0/trigger = false
collision/layers = 1
collision/mask = 1
constant_linear_velocity = Vector2( 0, 0 )
constant_angular_velocity = 0.0
friction = 1.0
bounce = 0.0

[node name="CollisionShape2D" type="CollisionShape2D" parent="CavernTile_22/StaticBody2D"]

shape = SubResource( 2 )
trigger = false
_update_shape_index = 0

[node name="CavernTile_23" type="Sprite" parent="."]

texture = ExtResource( 3 )

[node name="CavernTile_24" type="Sprite" parent="."]

texture = ExtResource( 7 )

[node name="CavernTile_25" type="Sprite" parent="."]

editor/display_folded = true
texture = ExtResource( 5 )

[node name="StaticBody2D" type="StaticBody2D" parent="CavernTile_25"]

input/pickable = false
shapes/0/shape = SubResource( 2 )
shapes/0/transform = Matrix32( 1, 0, 0, 1, 0, 0 )
shapes/0/trigger = false
collision/layers = 1
collision/mask = 1
constant_linear_velocity = Vector2( 0, 0 )
constant_angular_velocity = 0.0
friction = 1.0
bounce = 0.0

[node name="CollisionShape2D" type="CollisionShape2D" parent="CavernTile_25/StaticBody2D"]

shape = SubResource( 2 )
trigger = false
_update_shape_index = 0

[node name="CavernTile_26" type="Sprite" parent="."]

texture = ExtResource( 21 )

[node name="CavernTile_27" type="Sprite" parent="."]

texture = ExtResource( 22 )

[node name="CavernTile_28" type="Sprite" parent="."]

texture = ExtResource( 23 )

[node name="CavernTile_29" type="Sprite" parent="."]

texture = ExtResource( 24 )

[node name="CavernTile_30" type="Sprite" parent="."]

texture = ExtResource( 25 )

[node name="CavernTile_31" type="Sprite" parent="."]

texture = ExtResource( 26 )

[node name="CavernTile_32" type="Sprite" parent="."]

texture = ExtResource( 27 )

[node name="CavernTile_33" type="Sprite" parent="."]

texture = ExtResource( 28 )

[node name="CavernTile_34" type="Sprite" parent="."]

texture = ExtResource( 29 )

[node name="CavernTile_35" type="Sprite" parent="."]

texture = ExtResource( 30 )

[node name="CavernTile_36" type="Sprite" parent="."]

texture = ExtResource( 31 )

[node name="CavernTile_37" type="Sprite" parent="."]

texture = ExtResource( 32 )

[node name="CavernTile_38" type="Sprite" parent="."]

texture = ExtResource( 33 )

[node name="CavernTile_39" type="Sprite" parent="."]

texture = ExtResource( 34 )

[node name="CavernTile_40" type="Sprite" parent="."]

texture = ExtResource( 35 )

[node name="CavernTile_41" type="Sprite" parent="."]

texture = ExtResource( 36 )


