[gd_scene load_steps=2 format=1]

[ext_resource path="res://Assets/Tiles/CavernTileset/CavernTileset.tres" type="TileSet" id=1]

[node name="CavernMap" type="TileMap"]

mode = 0
tile_set = ExtResource( 1 )
cell/size = Vector2( 48, 48 )
cell/quadrant_size = 16
cell/custom_transform = Matrix32( 1, 0, 0, 1, 0, 0 )
cell/half_offset = 2
cell/tile_origin = 0
cell/y_sort = false
collision/use_kinematic = false
collision/friction = 1.0
collision/bounce = 0.0
collision/layers = 1
collision/mask = 1
occluder/light_mask = 1
tile_data = IntArray( -1572870, 6, -1572869, 6, -1572868, 6, -1572867, 6, -1572866, 6, -1572865, 6, -1638400, 6, -1638399, 6, -1638398, 6, -1638397, 6, -1638396, 6, -1638395, 6, -1638394, 6, -1638393, 6, -1638392, 6, -1638391, 6, -1638390, 6, -1638389, 6, -1638388, 6, -1638387, 6, -1638386, 6, -1638385, 6, -1638384, 6, -1638383, 6, -1638382, 6, -1638381, 6, -1638380, 6, -1638379, 6, -1638378, 6, -1638377, 6, -1638376, 6, -1638375, 6, -1638374, 6, -1638373, 6, -1638372, 6, -1638371, 6, -1638370, 6, -1638369, 6, -1638368, 6, -1638367, 6, -1638366, 6, -1638365, 6, -1638364, 6, -1638363, 6, -1638362, 6, -1638361, 6, -1638360, 6, -1638359, 6, -1638358, 6, -1638357, 6, -1638356, 6, -1638355, 6, -1638354, 6, -1638353, 6, -1638352, 6, -1638351, 6, -1638350, 6, -1638349, 6, -1638348, 6, -1638347, 6, -1638346, 6, -1638345, 6, -1638344, 6, -1638343, 6, -1638342, 6, -1638341, 6, -1638340, 6, -1638339, 6, -1638338, 6, -1638337, 6, -1507334, 6, -1507333, 6, -1507332, 6, -1507331, 6, -1507330, 6, -1507329, 6, -1572864, 6, -1572863, 6, -1572862, 6, -1572861, 6, -1572860, 6, -1572859, 6, -1572858, 6, -1572857, 6, -1572856, 6, -1572855, 6, -1572854, 6, -1572853, 6, -1572852, 6, -1572851, 6, -1572850, 6, -1572849, 6, -1572848, 6, -1572847, 6, -1572846, 6, -1572845, 6, -1572844, 6, -1572843, 6, -1572842, 6, -1572841, 6, -1572840, 6, -1572839, 6, -1572838, 6, -1572837, 6, -1572836, 6, -1572835, 6, -1572834, 6, -1572833, 6, -1572832, 6, -1572831, 6, -1572830, 6, -1572829, 6, -1572828, 6, -1572827, 6, -1572826, 6, -1572825, 6, -1572824, 6, -1572823, 6, -1572822, 6, -1572821, 6, -1572820, 6, -1572819, 6, -1572818, 6, -1572817, 6, -1572816, 6, -1572815, 6, -1572814, 6, -1572813, 6, -1572812, 6, -1572811, 6, -1572810, 6, -1572809, 6, -1572808, 6, -1572807, 6, -1572806, 6, -1572805, 6, -1572804, 6, -1572803, 6, -1572802, 6, -1572801, 6, -1441798, 6, -1441797, 6, -1441796, 6, -1441795, 6, -1441794, 6, -1441793, 6, -1507328, 6, -1507327, 6, -1507326, 6, -1507325, 6, -1507324, 6, -1507323, 6, -1507322, 6, -1507321, 6, -1507320, 6, -1507319, 6, -1507318, 6, -1507317, 6, -1507316, 6, -1507315, 6, -1507314, 6, -1507313, 6, -1507312, 6, -1507311, 6, -1507310, 6, -1507309, 6, -1507308, 6, -1507307, 6, -1507306, 6, -1507305, 6, -1507304, 6, -1507303, 6, -1507302, 6, -1507301, 6, -1507300, 6, -1507299, 6, -1507298, 6, -1507297, 6, -1507296, 6, -1507295, 6, -1507294, 6, -1507293, 6, -1507292, 6, -1507291, 6, -1507290, 6, -1507289, 6, -1507288, 6, -1507287, 6, -1507286, 6, -1507285, 6, -1507284, 6, -1507283, 6, -1507282, 6, -1507281, 6, -1507280, 6, -1507279, 6, -1507278, 6, -1507277, 6, -1507276, 6, -1507275, 6, -1507274, 6, -1507273, 6, -1507272, 6, -1507271, 6, -1507270, 6, -1507269, 6, -1507268, 6, -1507267, 6, -1507266, 6, -1507265, 6, -1376262, 6, -1376261, 6, -1376260, 6, -1376259, 6, -1376258, 6, -1376257, 6, -1441792, 6, -1441791, 6, -1441790, 6, -1441789, 6, -1441788, 6, -1441787, 6, -1441786, 6, -1441785, 6, -1441784, 6, -1441783, 6, -1441782, 6, -1441781, 6, -1441780, 6, -1441779, 6, -1441778, 6, -1441777, 6, -1441776, 6, -1441775, 6, -1441774, 6, -1441773, 6, -1441772, 6, -1441771, 6, -1441770, 6, -1441769, 6, -1441768, 6, -1441767, 6, -1441766, 6, -1441765, 6, -1441764, 6, -1441763, 6, -1441762, 6, -1441761, 6, -1441760, 6, -1441759, 6, -1441758, 6, -1441757, 6, -1441756, 6, -1441755, 6, -1441754, 6, -1441753, 6, -1441752, 6, -1441751, 6, -1441750, 6, -1441749, 6, -1441748, 6, -1441747, 6, -1441746, 6, -1441745, 6, -1441744, 6, -1441743, 6, -1441742, 6, -1441741, 6, -1441740, 6, -1441739, 6, -1441738, 6, -1441737, 6, -1441736, 6, -1441735, 6, -1441734, 6, -1441733, 6, -1441732, 6, -1441731, 6, -1441730, 6, -1441729, 6, -1310726, 6, -1310725, 6, -1310724, 6, -1310723, 6, -1310722, 6, -1310721, 6, -1376256, 6, -1376255, 6, -1376254, 6, -1376253, 6, -1376252, 6, -1376251, 6, -1376250, 6, -1376249, 6, -1376248, 6, -1376247, 6, -1376246, 6, -1376245, 6, -1376244, 6, -1376243, 6, -1376242, 6, -1376241, 6, -1376240, 6, -1376239, 6, -1376238, 6, -1376237, 6, -1376236, 6, -1376235, 6, -1376234, 6, -1376233, 6, -1376232, 6, -1376231, 6, -1376230, 6, -1376229, 6, -1376228, 6, -1376227, 6, -1376226, 6, -1376225, 6, -1376224, 6, -1376223, 6, -1376222, 6, -1376221, 6, -1376220, 6, -1376219, 6, -1376218, 6, -1376217, 6, -1376216, 6, -1376215, 6, -1376214, 6, -1376213, 6, -1376212, 6, -1376211, 6, -1376210, 6, -1376209, 6, -1376208, 6, -1376207, 6, -1376206, 6, -1376205, 6, -1376204, 6, -1376203, 6, -1376202, 6, -1376201, 6, -1376200, 6, -1376199, 6, -1376198, 6, -1376197, 6, -1376196, 6, -1376195, 6, -1376194, 6, -1376193, 6, -1245190, 6, -1245189, 6, -1245188, 6, -1245187, 6, -1245186, 6, -1245185, 6, -1310720, 6, -1310719, 6, -1310718, 6, -1310717, 6, -1310716, 6, -1310715, 6, -1310714, 6, -1310713, 6, -1310712, 6, -1310711, 6, -1310710, 6, -1310709, 6, -1310708, 6, -1310707, 6, -1310706, 6, -1310705, 6, -1310704, 6, -1310703, 6, -1310702, 6, -1310701, 6, -1310700, 6, -1310699, 6, -1310698, 6, -1310697, 6, -1310696, 6, -1310695, 6, -1310694, 6, -1310693, 6, -1310692, 6, -1310691, 6, -1310690, 6, -1310689, 6, -1310688, 6, -1310687, 6, -1310686, 6, -1310685, 6, -1310684, 6, -1310683, 6, -1310682, 6, -1310681, 6, -1310680, 6, -1310679, 6, -1310678, 6, -1310677, 6, -1310676, 6, -1310675, 6, -1310674, 6, -1310673, 6, -1310672, 6, -1310671, 12, -1310670, 12, -1310669, 12, -1310668, 12, -1310667, 12, -1310666, 12, -1310665, 12, -1310664, 6, -1310663, 6, -1310662, 6, -1310661, 6, -1310660, 6, -1310659, 6, -1310658, 6, -1310657, 6, -1179654, 6, -1179653, 6, -1179652, 6, -1179651, 6, -1179650, 6, -1179649, 6, -1245184, 6, -1245183, 6, -1245182, 6, -1245181, 6, -1245180, 6, -1245179, 6, -1245178, 6, -1245177, 6, -1245176, 6, -1245175, 6, -1245174, 6, -1245173, 6, -1245172, 6, -1245171, 6, -1245170, 6, -1245169, 6, -1245168, 6, -1245167, 6, -1245166, 6, -1245165, 6, -1245164, 6, -1245163, 6, -1245162, 6, -1245161, 6, -1245160, 6, -1245159, 6, -1245158, 6, -1245157, 6, -1245156, 6, -1245155, 6, -1245154, 6, -1245153, 6, -1245152, 6, -1245151, 6, -1245150, 6, -1245149, 6, -1245148, 6, -1245147, 6, -1245146, 6, -1245145, 6, -1245144, 6, -1245143, 6, -1245142, 6, -1245141, 6, -1245140, 6, -1245139, 6, -1245138, 6, -1245137, 12, -1245136, 13, -1245128, 11, -1245127, 6, -1245126, 6, -1245125, 6, -1245124, 6, -1245123, 6, -1245122, 6, -1245121, 6, -1114118, 6, -1114117, 6, -1114116, 6, -1114115, 6, -1114114, 6, -1114113, 6, -1179648, 6, -1179647, 6, -1179646, 6, -1179645, 6, -1179644, 6, -1179643, 6, -1179642, 6, -1179641, 6, -1179640, 6, -1179639, 6, -1179638, 6, -1179637, 6, -1179636, 6, -1179635, 6, -1179634, 6, -1179633, 6, -1179632, 6, -1179631, 6, -1179630, 6, -1179629, 6, -1179628, 6, -1179627, 6, -1179626, 6, -1179625, 6, -1179624, 6, -1179623, 6, -1179622, 6, -1179621, 6, -1179620, 6, -1179619, 6, -1179618, 6, -1179617, 6, -1179616, 6, -1179615, 6, -1179614, 6, -1179613, 6, -1179612, 6, -1179611, 6, -1179610, 6, -1179609, 6, -1179608, 6, -1179607, 6, -1179606, 6, -1179605, 6, -1179604, 6, -1179603, 12, -1179602, 13, -1179591, 11, -1179590, 6, -1179589, 6, -1179588, 6, -1179587, 6, -1179586, 6, -1179585, 6, -1048582, 6, -1048581, 6, -1048580, 6, -1048579, 6, -1048578, 6, -1048577, 6, -1114112, 6, -1114111, 6, -1114110, 6, -1114109, 6, -1114108, 6, -1114107, 6, -1114106, 6, -1114105, 6, -1114104, 6, -1114103, 6, -1114102, 6, -1114101, 6, -1114100, 6, -1114099, 6, -1114098, 6, -1114097, 6, -1114096, 6, -1114095, 6, -1114094, 6, -1114093, 6, -1114092, 6, -1114091, 6, -1114090, 6, -1114089, 6, -1114088, 6, -1114087, 6, -1114086, 6, -1114085, 6, -1114084, 12, -1114083, 12, -1114082, 12, -1114081, 12, -1114080, 12, -1114079, 12, -1114078, 12, -1114077, 12, -1114076, 12, -1114075, 12, -1114074, 12, -1114073, 12, -1114072, 12, -1114071, 12, -1114070, 12, -1114069, 12, -1114068, 13, -1114054, 11, -1114053, 6, -1114052, 6, -1114051, 6, -1114050, 6, -1114049, 6, -983046, 6, -983045, 6, -983044, 6, -983043, 6, -983042, 6, -983041, 6, -1048576, 6, -1048575, 6, -1048574, 6, -1048573, 6, -1048572, 6, -1048571, 6, -1048570, 6, -1048569, 6, -1048568, 6, -1048567, 6, -1048566, 6, -1048565, 6, -1048564, 6, -1048563, 6, -1048562, 6, -1048561, 6, -1048560, 6, -1048559, 6, -1048558, 6, -1048557, 6, -1048556, 6, -1048555, 6, -1048554, 6, -1048553, 6, -1048552, 6, -1048551, 6, -1048550, 12, -1048549, 13, -1048517, 4, -1048516, 6, -1048515, 6, -1048514, 6, -1048513, 6, -917510, 6, -917509, 6, -917508, 6, -917507, 6, -917506, 6, -917505, 6, -983040, 6, -983039, 6, -983038, 6, -983037, 6, -983036, 6, -983035, 6, -983034, 6, -983033, 6, -983032, 6, -983031, 6, -983030, 6, -983029, 6, -983028, 6, -983027, 6, -983026, 6, -983025, 6, -983024, 6, -983023, 6, -983022, 6, -983021, 6, -983020, 6, -983019, 6, -983018, 6, -983017, 6, -983016, 6, -983015, 13, -982981, 4, -982980, 6, -982979, 6, -982978, 6, -982977, 6, -851974, 6, -851973, 6, -851972, 6, -851971, 6, -851970, 6, -851969, 6, -917504, 6, -917503, 6, -917502, 6, -917501, 6, -917500, 6, -917499, 6, -917498, 6, -917497, 6, -917496, 6, -917495, 6, -917494, 6, -917493, 6, -917492, 6, -917491, 6, -917490, 6, -917489, 6, -917488, 6, -917487, 6, -917486, 6, -917485, 6, -917484, 6, -917483, 6, -917482, 6, -917481, 6, -917480, 13, -917471, 0, -917470, 2, -917469, 2, -917468, 2, -917467, 1, -917466, 1, -917465, 1, -917464, 2, -917463, 1, -917462, 2, -917461, 1, -917460, 1, -917459, 1, -917458, 2, -917457, 1, -917456, 1, -917455, 3, -917452, 17, -917446, 0, -917445, 10, -917444, 6, -917443, 6, -917442, 6, -917441, 6, -786438, 6, -786437, 6, -786436, 6, -786435, 6, -786434, 6, -786433, 6, -851968, 6, -851967, 6, -851966, 6, -851965, 6, -851964, 6, -851963, 6, -851962, 6, -851961, 6, -851960, 6, -851959, 6, -851958, 6, -851957, 6, -851956, 6, -851955, 6, -851954, 6, -851953, 6, -851952, 6, -851951, 6, -851950, 6, -851949, 6, -851948, 6, -851947, 6, -851946, 6, -851945, 8, -851939, 0, -851938, 1, -851937, 2, -851936, 2, -851935, 6, -851934, 6, -851933, 6, -851932, 6, -851931, 6, -851930, 6, -851929, 6, -851928, 6, -851927, 6, -851926, 6, -851925, 6, -851924, 6, -851923, 6, -851922, 6, -851921, 6, -851920, 6, -851919, 9, -851918, 1, -851917, 2, -851916, 2, -851915, 1, -851914, 3, -851910, 4, -851909, 6, -851908, 6, -851907, 6, -851906, 6, -851905, 6, -720902, 6, -720901, 6, -720900, 6, -720899, 6, -720898, 6, -720897, 6, -786432, 6, -786431, 6, -786430, 6, -786429, 6, -786428, 6, -786427, 6, -786426, 6, -786425, 6, -786424, 6, -786423, 6, -786422, 6, -786421, 6, -786420, 6, -786419, 6, -786418, 6, -786417, 6, -786416, 6, -786415, 6, -786414, 6, -786413, 6, -786412, 6, -786411, 6, -786410, 6, -786409, 8, -786405, 0, -786404, 2, -786403, 6, -786402, 6, -786401, 6, -786400, 6, -786399, 6, -786398, 6, -786397, 6, -786396, 6, -786395, 6, -786394, 6, -786393, 6, -786392, 6, -786391, 6, -786390, 6, -786389, 6, -786388, 6, -786387, 6, -786386, 6, -786385, 6, -786384, 6, -786383, 6, -786382, 6, -786381, 6, -786380, 6, -786379, 6, -786378, 8, -786374, 4, -786373, 6, -786372, 6, -786371, 6, -786370, 6, -786369, 6, -655366, 6, -655365, 6, -655364, 6, -655363, 6, -655362, 6, -655361, 6, -720896, 6, -720895, 6, -720894, 6, -720893, 6, -720892, 6, -720891, 6, -720890, 6, -720889, 6, -720888, 6, -720887, 6, -720886, 6, -720885, 6, -720884, 6, -720883, 6, -720882, 6, -720881, 6, -720880, 6, -720879, 6, -720878, 6, -720877, 6, -720876, 6, -720875, 6, -720874, 6, -720873, 8, -720870, 0, -720869, 6, -720868, 6, -720867, 6, -720866, 6, -720865, 6, -720864, 6, -720863, 6, -720862, 6, -720861, 6, -720860, 6, -720859, 6, -720858, 6, -720857, 6, -720856, 6, -720855, 6, -720854, 6, -720853, 6, -720852, 6, -720851, 6, -720850, 6, -720849, 6, -720848, 6, -720847, 6, -720846, 6, -720845, 6, -720844, 6, -720843, 6, -720842, 8, -720838, 4, -720837, 6, -720836, 6, -720835, 6, -720834, 6, -720833, 6, -589830, 6, -589829, 6, -589828, 6, -589827, 6, -589826, 6, -589825, 6, -655360, 6, -655359, 6, -655358, 6, -655357, 6, -655356, 6, -655355, 6, -655354, 6, -655353, 6, -655352, 6, -655351, 6, -655350, 6, -655349, 6, -655348, 6, -655347, 6, -655346, 6, -655345, 6, -655344, 6, -655343, 6, -655342, 6, -655341, 6, -655340, 6, -655339, 6, -655338, 6, -655337, 8, -655334, 4, -655333, 6, -655332, 6, -655331, 6, -655330, 6, -655329, 6, -655328, 6, -655327, 6, -655326, 6, -655325, 6, -655324, 6, -655323, 6, -655322, 6, -655321, 6, -655320, 6, -655319, 6, -655318, 6, -655317, 6, -655316, 6, -655315, 6, -655314, 6, -655313, 6, -655312, 6, -655311, 6, -655310, 6, -655309, 6, -655308, 6, -655307, 6, -655306, 8, -655302, 4, -655301, 6, -655300, 6, -655299, 6, -655298, 6, -655297, 6, -524294, 6, -524293, 6, -524292, 6, -524291, 6, -524290, 6, -524289, 6, -589824, 6, -589823, 6, -589822, 6, -589821, 6, -589820, 6, -589819, 6, -589818, 6, -589817, 6, -589816, 6, -589815, 6, -589814, 6, -589813, 6, -589812, 6, -589811, 6, -589810, 6, -589809, 6, -589808, 6, -589807, 6, -589806, 6, -589805, 6, -589804, 6, -589803, 6, -589802, 6, -589801, 8, -589798, 4, -589797, 6, -589796, 6, -589795, 6, -589794, 6, -589793, 6, -589792, 6, -589791, 6, -589790, 6, -589789, 6, -589788, 6, -589787, 6, -589786, 6, -589785, 6, -589784, 6, -589783, 6, -589782, 6, -589781, 6, -589780, 6, -589779, 6, -589778, 6, -589777, 6, -589776, 6, -589775, 6, -589774, 6, -589773, 6, -589772, 6, -589771, 6, -589770, 8, -589766, 4, -589765, 6, -589764, 6, -589763, 6, -589762, 6, -589761, 6, -458758, 6, -458757, 6, -458756, 6, -458755, 6, -458754, 6, -458753, 6, -524288, 6, -524287, 6, -524286, 6, -524285, 6, -524284, 6, -524283, 6, -524282, 6, -524281, 6, -524280, 6, -524279, 6, -524278, 6, -524277, 6, -524276, 6, -524275, 6, -524274, 6, -524273, 6, -524272, 6, -524271, 6, -524270, 6, -524269, 6, -524268, 6, -524267, 6, -524266, 6, -524265, 8, -524262, 4, -524261, 6, -524260, 6, -524259, 6, -524258, 6, -524257, 6, -524256, 6, -524255, 6, -524254, 6, -524253, 6, -524252, 6, -524251, 6, -524250, 12, -524249, 12, -524248, 12, -524247, 12, -524246, 12, -524245, 6, -524244, 6, -524243, 6, -524242, 6, -524241, 6, -524240, 6, -524239, 6, -524238, 6, -524237, 6, -524236, 6, -524235, 6, -524234, 8, -524230, 4, -524229, 6, -524228, 6, -524227, 6, -524226, 6, -524225, 6, -393222, 6, -393221, 6, -393220, 6, -393219, 6, -393218, 6, -393217, 6, -458752, 6, -458751, 6, -458750, 6, -458749, 6, -458748, 6, -458747, 6, -458746, 6, -458745, 6, -458744, 6, -458743, 6, -458742, 6, -458741, 6, -458740, 6, -458739, 6, -458738, 6, -458737, 6, -458736, 6, -458735, 6, -458734, 6, -458733, 6, -458732, 6, -458731, 6, -458730, 6, -458729, 8, -458726, 4, -458725, 6, -458724, 6, -458723, 6, -458722, 6, -458721, 6, -458720, 6, -458719, 6, -458718, 12, -458717, 12, -458716, 12, -458715, 13, -458709, 11, -458708, 12, -458707, 12, -458706, 12, -458705, 12, -458704, 6, -458703, 6, -458702, 6, -458701, 6, -458700, 6, -458699, 6, -458698, 8, -458694, 4, -458693, 6, -458692, 6, -458691, 6, -458690, 6, -458689, 6, -327686, 6, -327685, 6, -327684, 6, -327683, 6, -327682, 6, -327681, 6, -393216, 6, -393215, 6, -393214, 6, -393213, 6, -393212, 6, -393211, 6, -393210, 6, -393209, 6, -393208, 6, -393207, 6, -393206, 6, -393205, 6, -393204, 6, -393203, 6, -393202, 6, -393201, 6, -393200, 6, -393199, 6, -393198, 6, -393197, 6, -393196, 6, -393195, 6, -393194, 6, -393193, 8, -393190, 4, -393189, 6, -393188, 6, -393187, 6, -393186, 6, -393185, 12, -393184, 12, -393183, 13, -393168, 11, -393167, 12, -393166, 12, -393165, 6, -393164, 6, -393163, 6, -393162, 8, -393158, 4, -393157, 6, -393156, 6, -393155, 6, -393154, 6, -393153, 6, -262150, 6, -262149, 6, -262148, 6, -262147, 6, -262146, 6, -262145, 6, -327680, 6, -327679, 6, -327678, 6, -327677, 12, -327676, 12, -327675, 12, -327674, 12, -327673, 12, -327672, 12, -327671, 12, -327670, 12, -327669, 12, -327668, 12, -327667, 12, -327666, 12, -327665, 12, -327664, 12, -327663, 12, -327662, 12, -327661, 12, -327660, 12, -327659, 12, -327658, 12, -327657, 13, -327654, 11, -327653, 12, -327652, 12, -327651, 12, -327650, 13, -327629, 11, -327628, 12, -327627, 12, -327626, 13, -327622, 4, -327621, 6, -327620, 6, -327619, 6, -327618, 6, -327617, 6, -196614, 6, -196613, 6, -196612, 6, -196611, 6, -196610, 6, -196609, 6, -262144, 6, -262143, 6, -262142, 8, -262086, 4, -262085, 6, -262084, 6, -262083, 6, -262082, 6, -262081, 6, -131078, 6, -131077, 6, -131076, 6, -131075, 6, -131074, 6, -131073, 6, -196608, 6, -196607, 6, -196550, 4, -196549, 6, -196548, 6, -196547, 6, -196546, 6, -196545, 6, -65542, 6, -65541, 6, -65540, 6, -65539, 6, -65538, 6, -65537, 6, -131072, 6, -131071, 6, -131063, 17, -131038, 17, -131029, 0, -131028, 1, -131027, 2, -131026, 1, -131025, 2, -131024, 1, -131023, 3, -131014, 4, -131013, 6, -131012, 6, -131011, 6, -131010, 6, -131009, 6, -6, 6, -5, 6, -4, 6, -3, 6, -2, 6, -1, 6, -65536, 6, -65535, 6, -65534, 9, -65533, 1, -65532, 1, -65531, 1, -65530, 2, -65529, 1, -65528, 1, -65527, 1, -65526, 2, -65525, 1, -65524, 1, -65523, 2, -65522, 2, -65521, 1, -65520, 1, -65519, 2, -65518, 1, -65517, 2, -65516, 1, -65515, 2, -65514, 2, -65513, 2, -65512, 1, -65511, 2, -65510, 3, -65505, 0, -65504, 1, -65503, 1, -65502, 2, -65501, 2, -65500, 1, -65499, 1, -65498, 1, -65497, 2, -65496, 1, -65495, 2, -65494, 1, -65493, 10, -65492, 6, -65491, 6, -65490, 6, -65489, 6, -65488, 6, -65487, 9, -65486, 1, -65485, 2, -65484, 2, -65483, 1, -65482, 3, -65478, 4, -65477, 6, -65476, 6, -65475, 6, -65474, 6, -65473, 6, 65530, 6, 65531, 6, 65532, 6, 65533, 6, 65534, 6, 65535, 6, 0, 6, 1, 12, 2, 12, 3, 12, 4, 12, 5, 12, 6, 12, 7, 12, 8, 12, 9, 12, 10, 12, 11, 12, 12, 12, 13, 12, 14, 12, 15, 12, 16, 12, 17, 12, 18, 12, 19, 12, 20, 12, 21, 12, 22, 12, 23, 12, 24, 12, 25, 12, 26, 13, 30, 0, 31, 10, 32, 6, 33, 6, 34, 6, 35, 6, 36, 6, 37, 6, 38, 6, 39, 6, 40, 6, 41, 6, 42, 6, 43, 6, 44, 6, 45, 6, 46, 6, 47, 6, 48, 6, 49, 6, 50, 6, 51, 6, 52, 6, 53, 6, 54, 8, 58, 4, 59, 6, 60, 6, 61, 6, 62, 6, 63, 6, 131066, 6, 131067, 6, 131068, 6, 131069, 6, 131070, 6, 131071, 6, 65536, 8, 65565, 0, 65566, 10, 65567, 6, 65568, 6, 65569, 6, 65570, 6, 65571, 6, 65572, 6, 65573, 6, 65574, 6, 65575, 6, 65576, 6, 65577, 6, 65578, 6, 65579, 6, 65580, 6, 65581, 6, 65582, 6, 65583, 6, 65584, 6, 65585, 6, 65586, 6, 65587, 6, 65588, 6, 65589, 6, 65590, 8, 65594, 4, 65595, 6, 65596, 6, 65597, 6, 65598, 6, 65599, 6, 196602, 6, 196603, 6, 196604, 6, 196605, 6, 196606, 6, 196607, 6, 131072, 8, 131101, 4, 131102, 6, 131103, 6, 131104, 6, 131105, 6, 131106, 6, 131107, 6, 131108, 6, 131109, 6, 131110, 6, 131111, 6, 131112, 6, 131113, 6, 131114, 6, 131115, 6, 131116, 6, 131117, 6, 131118, 6, 131119, 6, 131120, 6, 131121, 6, 131122, 6, 131123, 6, 131124, 6, 131125, 6, 131126, 8, 131130, 4, 131131, 6, 131132, 6, 131133, 6, 131134, 6, 131135, 6, 262138, 6, 262139, 6, 262140, 6, 262141, 6, 262142, 6, 262143, 6, 196608, 8, 196619, 17, 196636, 0, 196637, 10, 196638, 6, 196639, 6, 196640, 6, 196641, 6, 196642, 6, 196643, 6, 196644, 6, 196645, 6, 196646, 6, 196647, 6, 196648, 6, 196649, 6, 196650, 6, 196651, 6, 196652, 6, 196653, 6, 196654, 6, 196655, 6, 196656, 6, 196657, 6, 196658, 6, 196659, 6, 196660, 6, 196661, 6, 196662, 8, 196666, 4, 196667, 6, 196668, 6, 196669, 6, 196670, 6, 196671, 6, 327674, 6, 327675, 6, 327676, 6, 327677, 6, 327678, 6, 327679, 6, 262144, 8, 262147, 0, 262148, 1, 262149, 2, 262150, 1, 262151, 2, 262152, 1, 262153, 1, 262154, 2, 262155, 1, 262156, 1, 262157, 1, 262158, 2, 262159, 3, 262171, 0, 262172, 10, 262173, 6, 262174, 6, 262175, 6, 262176, 6, 262177, 6, 262178, 6, 262179, 6, 262180, 6, 262181, 6, 262182, 6, 262183, 6, 262184, 6, 262185, 6, 262186, 6, 262187, 6, 262188, 6, 262189, 6, 262190, 6, 262191, 6, 262192, 6, 262193, 6, 262194, 6, 262195, 6, 262196, 6, 262197, 6, 262198, 8, 262202, 4, 262203, 6, 262204, 6, 262205, 6, 262206, 6, 262207, 6, 393210, 6, 393211, 6, 393212, 6, 393213, 6, 393214, 6, 393215, 6, 327680, 8, 327683, 11, 327684, 12, 327685, 12, 327686, 12, 327687, 12, 327688, 12, 327689, 12, 327690, 12, 327691, 12, 327692, 12, 327693, 12, 327694, 6, 327695, 9, 327696, 14, 327697, 15, 327698, 15, 327699, 15, 327700, 15, 327701, 15, 327702, 15, 327703, 16, 327704, 2, 327705, 3, 327707, 4, 327708, 6, 327709, 6, 327710, 12, 327711, 12, 327712, 12, 327713, 6, 327714, 6, 327715, 6, 327716, 6, 327717, 6, 327718, 6, 327719, 6, 327720, 6, 327721, 6, 327722, 6, 327723, 6, 327724, 6, 327725, 6, 327726, 6, 327727, 6, 327728, 6, 327729, 6, 327730, 6, 327731, 6, 327732, 6, 327733, 6, 327734, 8, 327738, 4, 327739, 6, 327740, 6, 327741, 6, 327742, 6, 327743, 6, 458746, 6, 458747, 6, 458748, 6, 458749, 6, 458750, 6, 458751, 6, 393216, 8, 393230, 11, 393231, 12, 393232, 13, 393239, 11, 393240, 12, 393241, 13, 393243, 11, 393244, 12, 393245, 13, 393249, 11, 393250, 6, 393251, 6, 393252, 6, 393253, 6, 393254, 6, 393255, 6, 393256, 6, 393257, 6, 393258, 6, 393259, 6, 393260, 6, 393261, 6, 393262, 6, 393263, 6, 393264, 6, 393265, 6, 393266, 6, 393267, 6, 393268, 6, 393269, 6, 393270, 8, 393274, 4, 393275, 6, 393276, 6, 393277, 6, 393278, 6, 393279, 6, 524282, 6, 524283, 6, 524284, 6, 524285, 6, 524286, 6, 524287, 6, 458752, 8, 458786, 11, 458787, 12, 458788, 6, 458789, 6, 458790, 6, 458791, 6, 458792, 6, 458793, 6, 458794, 6, 458795, 6, 458796, 6, 458797, 6, 458798, 6, 458799, 6, 458800, 6, 458801, 6, 458802, 6, 458803, 6, 458804, 6, 458805, 6, 458806, 8, 458810, 4, 458811, 6, 458812, 6, 458813, 6, 458814, 6, 458815, 6, 589818, 6, 589819, 6, 589820, 6, 589821, 6, 589822, 6, 589823, 6, 524288, 8, 524324, 11, 524325, 6, 524326, 6, 524327, 6, 524328, 6, 524329, 6, 524330, 6, 524331, 6, 524332, 6, 524333, 6, 524334, 6, 524335, 6, 524336, 6, 524337, 6, 524338, 6, 524339, 6, 524340, 6, 524341, 6, 524342, 8, 524346, 4, 524347, 6, 524348, 6, 524349, 6, 524350, 6, 524351, 6, 655354, 6, 655355, 6, 655356, 6, 655357, 6, 655358, 6, 655359, 6, 589830, 17, 589845, 17, 589861, 4, 589862, 6, 589863, 6, 589864, 6, 589865, 6, 589866, 6, 589867, 6, 589868, 6, 589869, 6, 589870, 6, 589871, 6, 589872, 6, 589873, 6, 589874, 6, 589875, 6, 589876, 6, 589877, 6, 589878, 8, 589882, 4, 589883, 6, 589884, 6, 589885, 6, 589886, 6, 589887, 6, 720890, 6, 720891, 6, 720892, 6, 720893, 6, 720894, 6, 720895, 6, 655360, 8, 655365, 0, 655366, 2, 655367, 1, 655368, 2, 655369, 14, 655370, 15, 655371, 15, 655372, 15, 655373, 15, 655374, 15, 655375, 15, 655376, 16, 655377, 1, 655378, 1, 655379, 2, 655380, 2, 655381, 1, 655382, 1, 655383, 2, 655384, 1, 655385, 3, 655388, 0, 655389, 2, 655390, 1, 655391, 3, 655397, 11, 655398, 6, 655399, 6, 655400, 6, 655401, 6, 655402, 6, 655403, 6, 655404, 6, 655405, 6, 655406, 6, 655407, 6, 655408, 6, 655409, 6, 655410, 6, 655411, 6, 655412, 6, 655413, 6, 655414, 8, 655418, 4, 655419, 6, 655420, 6, 655421, 6, 655422, 6, 655423, 6, 786426, 6, 786427, 6, 786428, 6, 786429, 6, 786430, 6, 786431, 6, 720896, 8, 720899, 0, 720900, 1, 720901, 10, 720902, 6, 720903, 6, 720904, 6, 720905, 8, 720912, 11, 720913, 12, 720914, 12, 720915, 12, 720916, 12, 720917, 12, 720918, 12, 720919, 12, 720920, 6, 720921, 8, 720924, 4, 720925, 6, 720926, 6, 720927, 9, 720928, 3, 720934, 11, 720935, 6, 720936, 6, 720937, 6, 720938, 6, 720939, 6, 720940, 6, 720941, 6, 720942, 6, 720943, 6, 720944, 6, 720945, 6, 720946, 6, 720947, 6, 720948, 6, 720949, 6, 720950, 8, 720954, 4, 720955, 6, 720956, 6, 720957, 6, 720958, 6, 720959, 6, 851962, 6, 851963, 6, 851964, 6, 851965, 6, 851966, 6, 851967, 6, 786432, 9, 786433, 1, 786434, 2, 786435, 10, 786436, 6, 786437, 6, 786438, 6, 786439, 6, 786440, 6, 786441, 8, 786456, 4, 786457, 8, 786460, 4, 786461, 6, 786462, 6, 786463, 6, 786464, 9, 786465, 1, 786466, 3, 786471, 11, 786472, 6, 786473, 6, 786474, 6, 786475, 6, 786476, 6, 786477, 6, 786478, 6, 786479, 6, 786480, 6, 786481, 6, 786482, 6, 786483, 6, 786484, 6, 786485, 6, 786486, 8, 786490, 4, 786491, 6, 786492, 6, 786493, 6, 786494, 6, 786495, 6, 917498, 6, 917499, 6, 917500, 6, 917501, 6, 917502, 6, 917503, 6, 851968, 6, 851969, 6, 851970, 6, 851971, 6, 851972, 6, 851973, 6, 851974, 6, 851975, 6, 851976, 6, 851977, 8, 851992, 11, 851993, 13, 851996, 4, 851997, 6, 851998, 6, 851999, 6, 852000, 6, 852001, 6, 852002, 9, 852003, 3, 852008, 11, 852009, 6, 852010, 6, 852011, 6, 852012, 6, 852013, 6, 852014, 6, 852015, 6, 852016, 6, 852017, 6, 852018, 6, 852019, 6, 852020, 6, 852021, 6, 852022, 8, 852026, 4, 852027, 6, 852028, 6, 852029, 6, 852030, 6, 852031, 6, 983034, 6, 983035, 6, 983036, 6, 983037, 6, 983038, 6, 983039, 6, 917504, 6, 917505, 6, 917506, 6, 917507, 6, 917508, 6, 917509, 6, 917510, 6, 917511, 6, 917512, 6, 917513, 9, 917514, 3, 917532, 4, 917533, 6, 917534, 6, 917535, 6, 917536, 6, 917537, 6, 917538, 6, 917539, 9, 917540, 3, 917545, 11, 917546, 6, 917547, 6, 917548, 6, 917549, 6, 917550, 6, 917551, 6, 917552, 6, 917553, 6, 917554, 6, 917555, 6, 917556, 6, 917557, 6, 917558, 8, 917562, 4, 917563, 6, 917564, 6, 917565, 6, 917566, 6, 917567, 6, 1048570, 6, 1048571, 6, 1048572, 6, 1048573, 6, 1048574, 6, 1048575, 6, 983040, 6, 983041, 6, 983042, 6, 983043, 6, 983044, 6, 983045, 6, 983046, 6, 983047, 6, 983048, 6, 983049, 6, 983050, 9, 983051, 3, 983055, 17, 983068, 4, 983069, 6, 983070, 6, 983071, 6, 983072, 6, 983073, 6, 983074, 6, 983075, 6, 983076, 8, 983082, 4, 983083, 6, 983084, 6, 983085, 6, 983086, 6, 983087, 6, 983088, 6, 983089, 6, 983090, 6, 983091, 6, 983092, 6, 983093, 6, 983094, 8, 983098, 4, 983099, 6, 983100, 6, 983101, 6, 983102, 6, 983103, 6, 1114106, 6, 1114107, 6, 1114108, 6, 1114109, 6, 1114110, 6, 1114111, 6, 1048576, 6, 1048577, 6, 1048578, 6, 1048579, 6, 1048580, 6, 1048581, 6, 1048582, 6, 1048583, 6, 1048584, 6, 1048585, 6, 1048586, 6, 1048587, 9, 1048588, 1, 1048589, 1, 1048590, 1, 1048591, 2, 1048592, 1, 1048593, 1, 1048594, 1, 1048595, 1, 1048596, 2, 1048597, 1, 1048598, 1, 1048599, 2, 1048600, 2, 1048601, 2, 1048602, 1, 1048603, 1, 1048604, 10, 1048605, 6, 1048606, 6, 1048607, 6, 1048608, 6, 1048609, 6, 1048610, 6, 1048611, 6, 1048612, 9, 1048613, 3, 1048618, 11, 1048619, 12, 1048620, 6, 1048621, 6, 1048622, 6, 1048623, 6, 1048624, 6, 1048625, 6, 1048626, 6, 1048627, 6, 1048628, 6, 1048629, 6, 1048630, 8, 1048634, 4, 1048635, 6, 1048636, 6, 1048637, 6, 1048638, 6, 1048639, 6, 1179642, 6, 1179643, 6, 1179644, 6, 1179645, 6, 1179646, 6, 1179647, 6, 1114112, 6, 1114113, 6, 1114114, 6, 1114115, 6, 1114116, 6, 1114117, 6, 1114118, 6, 1114119, 6, 1114120, 6, 1114121, 6, 1114122, 6, 1114123, 6, 1114124, 6, 1114125, 6, 1114126, 6, 1114127, 6, 1114128, 6, 1114129, 6, 1114130, 6, 1114131, 6, 1114132, 6, 1114133, 6, 1114134, 6, 1114135, 6, 1114136, 6, 1114137, 6, 1114138, 6, 1114139, 6, 1114140, 6, 1114141, 6, 1114142, 6, 1114143, 6, 1114144, 6, 1114145, 6, 1114146, 6, 1114147, 6, 1114148, 6, 1114149, 8, 1114156, 11, 1114157, 12, 1114158, 12, 1114159, 6, 1114160, 6, 1114161, 6, 1114162, 6, 1114163, 6, 1114164, 6, 1114165, 6, 1114166, 8, 1114170, 4, 1114171, 6, 1114172, 6, 1114173, 6, 1114174, 6, 1114175, 6, 1245178, 6, 1245179, 6, 1245180, 6, 1245181, 6, 1245182, 6, 1245183, 6, 1179648, 6, 1179649, 6, 1179650, 6, 1179651, 6, 1179652, 6, 1179653, 6, 1179654, 6, 1179655, 6, 1179656, 6, 1179657, 6, 1179658, 6, 1179659, 6, 1179660, 6, 1179661, 6, 1179662, 6, 1179663, 6, 1179664, 6, 1179665, 6, 1179666, 6, 1179667, 6, 1179668, 6, 1179669, 6, 1179670, 6, 1179671, 6, 1179672, 6, 1179673, 6, 1179674, 6, 1179675, 6, 1179676, 6, 1179677, 6, 1179678, 6, 1179679, 6, 1179680, 6, 1179681, 6, 1179682, 6, 1179683, 6, 1179684, 6, 1179685, 9, 1179686, 3, 1179695, 11, 1179696, 12, 1179697, 6, 1179698, 6, 1179699, 6, 1179700, 6, 1179701, 6, 1179702, 13, 1179706, 4, 1179707, 6, 1179708, 6, 1179709, 6, 1179710, 6, 1179711, 6, 1310714, 6, 1310715, 6, 1310716, 6, 1310717, 6, 1310718, 6, 1310719, 6, 1245184, 6, 1245185, 6, 1245186, 6, 1245187, 6, 1245188, 6, 1245189, 6, 1245190, 6, 1245191, 6, 1245192, 6, 1245193, 6, 1245194, 6, 1245195, 6, 1245196, 6, 1245197, 6, 1245198, 6, 1245199, 6, 1245200, 6, 1245201, 6, 1245202, 6, 1245203, 6, 1245204, 6, 1245205, 6, 1245206, 6, 1245207, 6, 1245208, 6, 1245209, 6, 1245210, 6, 1245211, 6, 1245212, 6, 1245213, 6, 1245214, 6, 1245215, 6, 1245216, 6, 1245217, 6, 1245218, 6, 1245219, 6, 1245220, 6, 1245221, 6, 1245222, 8, 1245233, 11, 1245234, 12, 1245235, 12, 1245236, 12, 1245237, 13, 1245242, 4, 1245243, 6, 1245244, 6, 1245245, 6, 1245246, 6, 1245247, 6, 1376250, 6, 1376251, 6, 1376252, 6, 1376253, 6, 1376254, 6, 1376255, 6, 1310720, 6, 1310721, 6, 1310722, 6, 1310723, 6, 1310724, 6, 1310725, 6, 1310726, 6, 1310727, 6, 1310728, 6, 1310729, 6, 1310730, 6, 1310731, 6, 1310732, 6, 1310733, 6, 1310734, 6, 1310735, 6, 1310736, 6, 1310737, 6, 1310738, 6, 1310739, 6, 1310740, 6, 1310741, 6, 1310742, 6, 1310743, 6, 1310744, 6, 1310745, 6, 1310746, 6, 1310747, 6, 1310748, 6, 1310749, 6, 1310750, 6, 1310751, 6, 1310752, 6, 1310753, 6, 1310754, 6, 1310755, 6, 1310756, 6, 1310757, 6, 1310758, 9, 1310759, 2, 1310760, 1, 1310761, 3, 1310778, 4, 1310779, 6, 1310780, 6, 1310781, 6, 1310782, 6, 1310783, 6, 1441786, 6, 1441787, 6, 1441788, 6, 1441789, 6, 1441790, 6, 1441791, 6, 1376256, 6, 1376257, 6, 1376258, 6, 1376259, 6, 1376260, 6, 1376261, 6, 1376262, 6, 1376263, 6, 1376264, 6, 1376265, 6, 1376266, 6, 1376267, 6, 1376268, 6, 1376269, 6, 1376270, 6, 1376271, 6, 1376272, 6, 1376273, 6, 1376274, 6, 1376275, 6, 1376276, 6, 1376277, 6, 1376278, 6, 1376279, 6, 1376280, 6, 1376281, 6, 1376282, 6, 1376283, 6, 1376284, 6, 1376285, 6, 1376286, 6, 1376287, 6, 1376288, 6, 1376289, 6, 1376290, 6, 1376291, 6, 1376292, 6, 1376293, 6, 1376294, 6, 1376295, 6, 1376296, 6, 1376297, 9, 1376298, 2, 1376299, 1, 1376300, 3, 1376313, 0, 1376314, 10, 1376315, 6, 1376316, 6, 1376317, 6, 1376318, 6, 1376319, 6, 1507322, 6, 1507323, 6, 1507324, 6, 1507325, 6, 1507326, 6, 1507327, 6, 1441792, 6, 1441793, 6, 1441794, 6, 1441795, 6, 1441796, 6, 1441797, 6, 1441798, 6, 1441799, 6, 1441800, 6, 1441801, 6, 1441802, 6, 1441803, 6, 1441804, 6, 1441805, 6, 1441806, 6, 1441807, 6, 1441808, 6, 1441809, 6, 1441810, 6, 1441811, 6, 1441812, 6, 1441813, 6, 1441814, 6, 1441815, 6, 1441816, 6, 1441817, 6, 1441818, 6, 1441819, 6, 1441820, 6, 1441821, 6, 1441822, 6, 1441823, 6, 1441824, 6, 1441825, 6, 1441826, 6, 1441827, 6, 1441828, 6, 1441829, 6, 1441830, 6, 1441831, 6, 1441832, 6, 1441833, 6, 1441834, 6, 1441835, 6, 1441836, 9, 1441837, 1, 1441838, 3, 1441842, 17, 1441847, 0, 1441848, 1, 1441849, 6, 1441850, 6, 1441851, 6, 1441852, 6, 1441853, 6, 1441854, 6, 1441855, 6, 1572858, 6, 1572859, 6, 1572860, 6, 1572861, 6, 1572862, 6, 1572863, 6, 1507328, 6, 1507329, 6, 1507330, 6, 1507331, 6, 1507332, 6, 1507333, 6, 1507334, 6, 1507335, 6, 1507336, 6, 1507337, 6, 1507338, 6, 1507339, 6, 1507340, 6, 1507341, 6, 1507342, 6, 1507343, 6, 1507344, 6, 1507345, 6, 1507346, 6, 1507347, 6, 1507348, 6, 1507349, 6, 1507350, 6, 1507351, 6, 1507352, 6, 1507353, 6, 1507354, 6, 1507355, 6, 1507356, 6, 1507357, 6, 1507358, 6, 1507359, 6, 1507360, 6, 1507361, 6, 1507362, 6, 1507363, 6, 1507364, 6, 1507365, 6, 1507366, 6, 1507367, 6, 1507368, 6, 1507369, 6, 1507370, 6, 1507371, 6, 1507372, 6, 1507373, 6, 1507374, 9, 1507375, 1, 1507376, 2, 1507377, 1, 1507378, 2, 1507379, 2, 1507380, 2, 1507381, 1, 1507382, 1, 1507383, 10, 1507384, 6, 1507385, 6, 1507386, 6, 1507387, 6, 1507388, 6, 1507389, 6, 1507390, 6, 1507391, 6, 1638394, 6, 1638395, 6, 1638396, 6, 1638397, 6, 1638398, 6, 1638399, 6, 1572864, 6, 1572865, 6, 1572866, 6, 1572867, 6, 1572868, 6, 1572869, 6, 1572870, 6, 1572871, 6, 1572872, 6, 1572873, 6, 1572874, 6, 1572875, 6, 1572876, 6, 1572877, 6, 1572878, 6, 1572879, 6, 1572880, 6, 1572881, 6, 1572882, 6, 1572883, 6, 1572884, 6, 1572885, 6, 1572886, 6, 1572887, 6, 1572888, 6, 1572889, 6, 1572890, 6, 1572891, 6, 1572892, 6, 1572893, 6, 1572894, 6, 1572895, 6, 1572896, 6, 1572897, 6, 1572898, 6, 1572899, 6, 1572900, 6, 1572901, 6, 1572902, 6, 1572903, 6, 1572904, 6, 1572905, 6, 1572906, 6, 1572907, 6, 1572908, 6, 1572909, 6, 1572910, 6, 1572911, 6, 1572912, 6, 1572913, 6, 1572914, 6, 1572915, 6, 1572916, 6, 1572917, 6, 1572918, 6, 1572919, 6, 1572920, 6, 1572921, 6, 1572922, 6, 1572923, 6, 1572924, 6, 1572925, 6, 1572926, 6, 1572927, 6, 1703930, 6, 1703931, 6, 1703932, 6, 1703933, 6, 1703934, 6, 1703935, 6, 1638400, 6, 1638401, 6, 1638402, 6, 1638403, 6, 1638404, 6, 1638405, 6, 1638406, 6, 1638407, 6, 1638408, 6, 1638409, 6, 1638410, 6, 1638411, 6, 1638412, 6, 1638413, 6, 1638414, 6, 1638415, 6, 1638416, 6, 1638417, 6, 1638418, 6, 1638419, 6, 1638420, 6, 1638421, 6, 1638422, 6, 1638423, 6, 1638424, 6, 1638425, 6, 1638426, 6, 1638427, 6, 1638428, 6, 1638429, 6, 1638430, 6, 1638431, 6, 1638432, 6, 1638433, 6, 1638434, 6, 1638435, 6, 1638436, 6, 1638437, 6, 1638438, 6, 1638439, 6, 1638440, 6, 1638441, 6, 1638442, 6, 1638443, 6, 1638444, 6, 1638445, 6, 1638446, 6, 1638447, 6, 1638448, 6, 1638449, 6, 1638450, 6, 1638451, 6, 1638452, 6, 1638453, 6, 1638454, 6, 1638455, 6, 1638456, 6, 1638457, 6, 1638458, 6, 1638459, 6, 1638460, 6, 1638461, 6, 1638462, 6, 1638463, 6, 1769466, 6, 1769467, 6, 1769468, 6, 1769469, 6, 1769470, 6, 1769471, 6, 1703936, 6, 1703937, 6, 1703938, 6, 1703939, 6, 1703940, 6, 1703941, 6, 1703942, 6, 1703943, 6, 1703944, 6, 1703945, 6, 1703946, 6, 1703947, 6, 1703948, 6, 1703949, 6, 1703950, 6, 1703951, 6, 1703952, 6, 1703953, 6, 1703954, 6, 1703955, 6, 1703956, 6, 1703957, 6, 1703958, 6, 1703959, 6, 1703960, 6, 1703961, 6, 1703962, 6, 1703963, 6, 1703964, 6, 1703965, 6, 1703966, 6, 1703967, 6, 1703968, 6, 1703969, 6, 1703970, 6, 1703971, 6, 1703972, 6, 1703973, 6, 1703974, 6, 1703975, 6, 1703976, 6, 1703977, 6, 1703978, 6, 1703979, 6, 1703980, 6, 1703981, 6, 1703982, 6, 1703983, 6, 1703984, 6, 1703985, 6, 1703986, 6, 1703987, 6, 1703988, 6, 1703989, 6, 1703990, 6, 1703991, 6, 1703992, 6, 1703993, 6, 1703994, 6, 1703995, 6, 1703996, 6, 1703997, 6, 1703998, 6, 1703999, 6, 1835002, 6, 1835003, 6, 1835004, 6, 1835005, 6, 1835006, 6, 1835007, 6, 1769472, 6, 1769473, 6, 1769474, 6, 1769475, 6, 1769476, 6, 1769477, 6, 1769478, 6, 1769479, 6, 1769480, 6, 1769481, 6, 1769482, 6, 1769483, 6, 1769484, 6, 1769485, 6, 1769486, 6, 1769487, 6, 1769488, 6, 1769489, 6, 1769490, 6, 1769491, 6, 1769492, 6, 1769493, 6, 1769494, 6, 1769495, 6, 1769496, 6, 1769497, 6, 1769498, 6, 1769499, 6, 1769500, 6, 1769501, 6, 1769502, 6, 1769503, 6, 1769504, 6, 1769505, 6, 1769506, 6, 1769507, 6, 1769508, 6, 1769509, 6, 1769510, 6, 1769511, 6, 1769512, 6, 1769513, 6, 1769514, 6, 1769515, 6, 1769516, 6, 1769517, 6, 1769518, 6, 1769519, 6, 1769520, 6, 1769521, 6, 1769522, 6, 1769523, 6, 1769524, 6, 1769525, 6, 1769526, 6, 1769527, 6, 1769528, 6, 1769529, 6, 1769530, 6, 1769531, 6, 1769532, 6, 1769533, 6, 1769534, 6, 1769535, 6, 1900538, 6, 1900539, 6, 1900540, 6, 1900541, 6, 1900542, 6, 1900543, 6, 1835008, 6, 1835009, 6, 1835010, 6, 1835011, 6, 1835012, 6, 1835013, 6, 1835014, 6, 1835015, 6, 1835016, 6, 1835017, 6, 1835018, 6, 1835019, 6, 1835020, 6, 1835021, 6, 1835022, 6, 1835023, 6, 1835024, 6, 1835025, 6, 1835026, 6, 1835027, 6, 1835028, 6, 1835029, 6, 1835030, 6, 1835031, 6, 1835032, 6, 1835033, 6, 1835034, 6, 1835035, 6, 1835036, 6, 1835037, 6, 1835038, 6, 1835039, 6, 1835040, 6, 1835041, 6, 1835042, 6, 1835043, 6, 1835044, 6, 1835045, 6, 1835046, 6, 1835047, 6, 1835048, 6, 1835049, 6, 1835050, 6, 1835051, 6, 1835052, 6, 1835053, 6, 1835054, 6, 1835055, 6, 1835056, 6, 1835057, 6, 1835058, 6, 1835059, 6, 1835060, 6, 1835061, 6, 1835062, 6, 1835063, 6, 1835064, 6, 1835065, 6, 1835066, 6, 1835067, 6, 1835068, 6, 1835069, 6, 1835070, 6, 1835071, 6, 1966074, 6, 1966075, 6, 1966076, 6, 1966077, 6, 1966078, 6, 1966079, 6, 1900544, 6, 1900545, 6, 1900546, 6, 1900547, 6, 1900548, 6, 1900549, 6, 1900550, 6, 1900551, 6, 1900552, 6, 1900553, 6, 1900554, 6, 1900555, 6, 1900556, 6, 1900557, 6, 1900558, 6, 1900559, 6, 1900560, 6, 1900561, 6, 1900562, 6, 1900563, 6, 1900564, 6, 1900565, 6, 1900566, 6, 1900567, 6, 1900568, 6, 1900569, 6, 1900570, 6, 1900571, 6, 1900572, 6, 1900573, 6, 1900574, 6, 1900575, 6, 1900576, 6, 1900577, 6, 1900578, 6, 1900579, 6, 1900580, 6, 1900581, 6, 1900582, 6, 1900583, 6, 1900584, 6, 1900585, 6, 1900586, 6, 1900587, 6, 1900588, 6, 1900589, 6, 1900590, 6, 1900591, 6, 1900592, 6, 1900593, 6, 1900594, 6, 1900595, 6, 1900596, 6, 1900597, 6, 1900598, 6, 1900599, 6, 1900600, 6, 1900601, 6, 1900602, 6, 1900603, 6, 1900604, 6, 1900605, 6, 1900606, 6, 1900607, 6 )


